ProjetoNibble/simulation/qsim/ProjetoNibble.msim.vcd
$comment
	File created using the following command:
		vcd file ProjetoNibble.msim.vcd -direction
$end
$date
	Mon Nov  7 01:33:46 2016
$end
$version
	ModelSim Version 10.4d
$end
$timescale
	1ps
$end

$scope module CentralControl_vlg_vec_tst $end
$var reg 1 ! CLK $end
$var reg 1 " CLRN $end
$var reg 1 # ENA $end
$var reg 3 $ OP [2:0] $end
$var wire 1 % mux_X $end
$var wire 1 & mux_Y $end
$var wire 1 ' out_we $end
$var wire 1 ( Sai [2] $end
$var wire 1 ) Sai [1] $end
$var wire 1 * Sai [0] $end

$scope module i1 $end
$var wire 1 + gnd $end
$var wire 1 , vcc $end
$var wire 1 - unknown $end
$var tri1 1 . devclrn $end
$var tri1 1 / devpor $end
$var tri1 1 0 devoe $end
$var wire 1 1 OP[2]~input_o $end
$var wire 1 2 mux_X~output_o $end
$var wire 1 3 mux_Y~output_o $end
$var wire 1 4 out_we~output_o $end
$var wire 1 5 Sai[2]~output_o $end
$var wire 1 6 Sai[1]~output_o $end
$var wire 1 7 Sai[0]~output_o $end
$var wire 1 8 OP[1]~input_o $end
$var wire 1 9 OP[0]~input_o $end
$var wire 1 : CLK~input_o $end
$var wire 1 ; inst|inst4~combout $end
$var wire 1 < CLRN~input_o $end
$var wire 1 = ENA~input_o $end
$var wire 1 > inst1|inst~q $end
$var wire 1 ? inst|inst10~0_combout $end
$var wire 1 @ inst1|inst1~q $end
$var wire 1 A inst|inst15~combout $end
$var wire 1 B inst1|inst3~q $end
$var wire 1 C inst4~combout $end
$upscope $end
$upscope $end
$enddefinitions $end
#0
$dumpvars
0!
0"
1#
b0 $
0%
0&
0'
0*
0)
0(
0+
1,
x-
1.
1/
10
01
02
03
04
05
06
07
08
09
0:
0;
0<
1=
0>
0?
0@
1A
0B
0C
$end
#10000
b1 $
19
13
1&
#20000
1!
b11 $
b10 $
1:
09
18
12
03
0&
1%
#30000
b11 $
19
13
1&
#40000
1"
b111 $
0!
b101 $
b100 $
1<
11
0:
09
08
02
03
0&
0%
#50000
b101 $
19
13
1&
#60000
1!
b111 $
b110 $
1:
09
18
12
03
0&
1%
#70000
b111 $
19
13
1&
#80000
b11 $
0!
b1 $
b0 $
01
0:
09
08
02
03
0&
0%
1B
17
1*
0A
1;
#90000
b1 $
19
13
1&
#100000
1!
b11 $
b10 $
1:
09
18
12
03
0&
1%
#110000
b11 $
19
13
1&
#120000
b111 $
0!
b101 $
b100 $
11
0:
09
08
02
03
0&
0%
1>
0B
07
16
1)
0*
1A
#130000
b101 $
19
13
1&
#140000
1!
b111 $
b110 $
1:
09
18
12
03
0&
1%
#150000
b111 $
19
13
1&
#160000
b11 $
0!
b1 $
b0 $
01
0:
09
08
02
03
0&
0%
1B
17
1*
1?
0;
#170000
b1 $
19
13
1&
1C
0A
14
1'
#180000
1!
b11 $
b10 $
1:
09
18
12
03
0&
1%
0C
1A
04
0'
#190000
b11 $
19
13
1&
1C
0A
14
1'
#200000
b111 $
0!
b101 $
b100 $
11
0:
09
08
02
03
0&
0%
0C
1A
04
0'
0>
1@
0B
07
15
06
0)
1(
0*
#210000
b101 $
19
13
1&
#220000
1!
b111 $
b110 $
1:
09
18
12
03
0&
1%
#230000
b111 $
19
13
1&
#240000
b11 $
0!
b1 $
b0 $
01
0:
09
08
02
03
0&
0%
1B
17
1*
0A
1;
#250000
b1 $
19
13
1&
#260000
1!
b11 $
b10 $
1:
09
18
12
03
0&
1%
#270000
b11 $
19
13
1&
#280000
b111 $
0!
b101 $
b100 $
11
0:
09
08
02
03
0&
0%
1>
0B
07
16
1)
0*
1A
#290000
b101 $
19
13
1&
#300000
1!
b111 $
b110 $
1:
09
18
12
03
0&
1%
#310000
b111 $
19
13
1&
#320000
b11 $
0!
b1 $
b0 $
01
0:
09
08
02
03
0&
0%
1B
17
1*
0A
0?
0;
#330000
b1 $
19
13
1&
#340000
1!
b11 $
b10 $
1:
09
18
12
03
0&
1%
#350000
b11 $
19
13
1&
#360000
b111 $
0!
b101 $
b100 $
11
0:
09
08
02
03
0&
0%
0>
0@
0B
07
05
06
0)
0(
0*
1A
#370000
b101 $
19
13
1&
#380000
1!
b111 $
b110 $
1:
09
18
12
03
0&
1%
#390000
b111 $
19
13
1&
#400000
b11 $
0!
b1 $
b0 $
01
0:
09
08
02
03
0&
0%
1B
17
1*
0A
1;
#410000
b1 $
19
13
1&
#420000
1!
b11 $
b10 $
1:
09
18
12
03
0&
1%
#430000
b11 $
19
13
1&
#440000
b111 $
0!
b101 $
b100 $
11
0:
09
08
02
03
0&
0%
1>
0B
07
16
1)
0*
1A
#450000
b101 $
19
13
1&
#460000
1!
b111 $
b110 $
1:
09
18
12
03
0&
1%
#470000
b111 $
19
13
1&
#480000
b11 $
0!
b1 $
b0 $
01
0:
09
08
02
03
0&
0%
1B
17
1*
1?
0;
#490000
b1 $
19
13
1&
1C
0A
14
1'
#500000
1!
b11 $
b10 $
1:
09
18
12
03
0&
1%
0C
1A
04
0'
#510000
b11 $
19
13
1&
1C
0A
14
1'
#520000
b111 $
0!
b101 $
b100 $
11
0:
09
08
02
03
0&
0%
0C
1A
04
0'
0>
1@
0B
07
15
06
0)
1(
0*
#530000
b101 $
19
13
1&
#540000
1!
b111 $
b110 $
1:
09
18
12
03
0&
1%
#550000
b111 $
19
13
1&
#560000
b11 $
0!
b1 $
b0 $
01
0:
09
08
02
03
0&
0%
1B
17
1*
0A
1;
#570000
b1 $
19
13
1&
#580000
1!
b11 $
b10 $
1:
09
18
12
03
0&
1%
#590000
b11 $
19
13
1&
#600000
b111 $
0!
b101 $
b100 $
11
0:
09
08
02
03
0&
0%
1>
0B
07
16
1)
0*
1A
#610000
b101 $
19
13
1&
#620000
1!
b111 $
b110 $
1:
09
18
12
03
0&
1%
#630000
b111 $
19
13
1&
#640000
b11 $
0!
b1 $
b0 $
01
0:
09
08
02
03
0&
0%
1B
17
1*
0A
0?
0;
#650000
b1 $
19
13
1&
#660000
1!
b11 $
b10 $
1:
09
18
12
03
0&
1%
#670000
b11 $
19
13
1&
#680000
b111 $
0!
b101 $
b100 $
11
0:
09
08
02
03
0&
0%
0>
0@
0B
07
05
06
0)
0(
0*
1A
#690000
b101 $
19
13
1&
#700000
1!
b111 $
b110 $
1:
09
18
12
03
0&
1%
#710000
b111 $
19
13
1&
#720000
b11 $
0!
b1 $
b0 $
01
0:
09
08
02
03
0&
0%
1B
17
1*
0A
1;
#730000
b1 $
19
13
1&
#740000
1!
b11 $
b10 $
1:
09
18
12
03
0&
1%
#750000
b11 $
19
13
1&
#760000
b111 $
0!
b101 $
b100 $
11
0:
09
08
02
03
0&
0%
1>
0B
07
16
1)
0*
1A
#770000
b101 $
19
13
1&
#780000
1!
b111 $
b110 $
1:
09
18
12
03
0&
1%
#790000
b111 $
19
13
1&
#800000
b11 $
0!
b1 $
b0 $
01
0:
09
08
02
03
0&
0%
1B
17
1*
1?
0;
#810000
b1 $
19
13
1&
1C
0A
14
1'
#820000
1!
b11 $
b10 $
1:
09
18
12
03
0&
1%
0C
1A
04
0'
#830000
b11 $
19
13
1&
1C
0A
14
1'
#840000
b111 $
0!
b101 $
b100 $
11
0:
09
08
02
03
0&
0%
0C
1A
04
0'
0>
1@
0B
07
15
06
0)
1(
0*
#850000
b101 $
19
13
1&
#860000
1!
b111 $
b110 $
1:
09
18
12
03
0&
1%
#870000
b111 $
19
13
1&
#880000
b11 $
0!
b1 $
b0 $
01
0:
09
08
02
03
0&
0%
1B
17
1*
0A
1;
#890000
b1 $
19
13
1&
#900000
1!
b11 $
b10 $
1:
09
18
12
03
0&
1%
#910000
b11 $
19
13
1&
#920000
b111 $
0!
b101 $
b100 $
11
0:
09
08
02
03
0&
0%
1>
0B
07
16
1)
0*
1A
#930000
b101 $
19
13
1&
#940000
1!
b111 $
b110 $
1:
09
18
12
03
0&
1%
#950000
b111 $
19
13
1&
#960000
b11 $
0!
b1 $
b0 $
01
0:
09
08
02
03
0&
0%
1B
17
1*
0A
0?
0;
#970000
b1 $
19
13
1&
#980000
1!
b11 $
b10 $
1:
09
18
12
03
0&
1%
#990000
b11 $
19
13
1&
