ProjetoNibble/simulation/qsim/ProjetoNibble.msim.vcd
$comment
	File created using the following command:
		vcd file ProjetoNibble.msim.vcd -direction
$end
$date
	Sun Nov  6 23:58:10 2016
$end
$version
	ModelSim Version 10.4d
$end
$timescale
	1ps
$end

$scope module CentralControl_vlg_vec_tst $end
$var reg 1 ! CLK $end
$var reg 1 " CLRN $end
$var reg 1 # ENA $end
$var wire 1 $ S [2] $end
$var wire 1 % S [1] $end
$var wire 1 & S [0] $end

$scope module i1 $end
$var wire 1 ' gnd $end
$var wire 1 ( vcc $end
$var wire 1 ) unknown $end
$var tri1 1 * devclrn $end
$var tri1 1 + devpor $end
$var tri1 1 , devoe $end
$var wire 1 - S[2]~output_o $end
$var wire 1 . S[1]~output_o $end
$var wire 1 / S[0]~output_o $end
$var wire 1 0 CLK~input_o $end
$var wire 1 1 inst1|inst3~0_combout $end
$var wire 1 2 CLRN~input_o $end
$var wire 1 3 ENA~input_o $end
$var wire 1 4 inst1|inst3~q $end
$var wire 1 5 inst|inst4~combout $end
$var wire 1 6 inst1|inst~q $end
$var wire 1 7 inst|inst10~0_combout $end
$var wire 1 8 inst1|inst1~q $end
$upscope $end
$upscope $end
$enddefinitions $end
#0
$dumpvars
0!
0"
1#
0&
0%
0$
0'
1(
x)
1*
1+
1,
0-
0.
0/
00
11
02
13
04
05
06
07
08
$end
#5000
1!
10
#10000
0!
00
#15000
1!
10
#20000
0!
00
#25000
1!
10
#30000
0!
00
#35000
1!
10
#40000
0!
00
#45000
1!
10
#50000
0!
00
#55000
1!
10
#60000
0!
00
#65000
1!
10
#70000
0!
00
#75000
1!
10
#80000
1"
0!
12
00
#85000
1!
10
#90000
0!
00
14
1/
1&
15
01
#95000
1!
10
#100000
0!
00
04
16
1.
0/
0&
1%
11
#105000
1!
10
#110000
0!
00
14
1/
1&
17
05
01
#115000
1!
10
#120000
0!
00
04
06
18
1-
0.
0/
0&
0%
1$
11
#125000
1!
10
#130000
0!
00
14
1/
1&
15
01
#135000
1!
10
#140000
0!
00
04
16
1.
0/
0&
1%
11
#145000
1!
10
#150000
0!
00
14
1/
1&
07
05
01
#155000
1!
10
#160000
0!
00
04
06
08
0-
0.
0/
0&
0%
0$
11
#165000
1!
10
#170000
0!
00
14
1/
1&
15
01
#175000
1!
10
#180000
0!
00
04
16
1.
0/
0&
1%
11
#185000
1!
10
#190000
0!
00
14
1/
1&
17
05
01
#195000
1!
10
#200000
0!
00
04
06
18
1-
0.
0/
0&
0%
1$
11
#205000
1!
10
#210000
0!
00
14
1/
1&
15
01
#215000
1!
10
#220000
0!
00
04
16
1.
0/
0&
1%
11
#225000
1!
10
#230000
0!
00
14
1/
1&
07
05
01
#235000
1!
10
#240000
0!
00
04
06
08
0-
0.
0/
0&
0%
0$
11
#245000
1!
10
#250000
0!
00
14
1/
1&
15
01
#255000
1!
10
#260000
0!
00
04
16
1.
0/
0&
1%
11
#265000
1!
10
#270000
0!
00
14
1/
1&
17
05
01
#275000
1!
10
#280000
0!
00
04
06
18
1-
0.
0/
0&
0%
1$
11
#285000
1!
10
#290000
0!
00
14
1/
1&
15
01
#295000
1!
10
#300000
0!
00
04
16
1.
0/
0&
1%
11
#305000
1!
10
#310000
0!
00
14
1/
1&
07
05
01
#315000
1!
10
#320000
0!
00
04
06
08
0-
0.
0/
0&
0%
0$
11
#325000
1!
10
#330000
0!
00
14
1/
1&
15
01
#335000
1!
10
#340000
0!
00
04
16
1.
0/
0&
1%
11
#345000
1!
10
#350000
0!
00
14
1/
1&
17
05
01
#355000
1!
10
#360000
0!
00
04
06
18
1-
0.
0/
0&
0%
1$
11
#365000
1!
10
#370000
0!
00
14
1/
1&
15
01
#375000
1!
10
#380000
0!
00
04
16
1.
0/
0&
1%
11
#385000
1!
10
#390000
0!
00
14
1/
1&
07
05
01
#395000
1!
10
#400000
0!
00
04
06
08
0-
0.
0/
0&
0%
0$
11
#405000
1!
10
#410000
0!
00
14
1/
1&
15
01
#415000
1!
10
#420000
0!
00
04
16
1.
0/
0&
1%
11
#425000
1!
10
#430000
0!
00
14
1/
1&
17
05
01
#435000
1!
10
#440000
0!
00
04
06
18
1-
0.
0/
0&
0%
1$
11
#445000
1!
10
#450000
0!
00
14
1/
1&
15
01
#455000
1!
10
#460000
0!
00
04
16
1.
0/
0&
1%
11
#465000
1!
10
#470000
0!
00
14
1/
1&
07
05
01
#475000
1!
10
#480000
0!
00
04
06
08
0-
0.
0/
0&
0%
0$
11
#485000
1!
10
#490000
0!
00
14
1/
1&
15
01
#495000
1!
10
#500000
0!
00
04
16
1.
0/
0&
1%
11
#505000
1!
10
#510000
0!
00
14
1/
1&
17
05
01
#515000
1!
10
#520000
0!
00
04
06
18
1-
0.
0/
0&
0%
1$
11
#525000
1!
10
#530000
0!
00
14
1/
1&
15
01
#535000
1!
10
#540000
0!
00
04
16
1.
0/
0&
1%
11
#545000
1!
10
#550000
0!
00
14
1/
1&
07
05
01
#555000
1!
10
#560000
0!
00
04
06
08
0-
0.
0/
0&
0%
0$
11
#565000
1!
10
#570000
0!
00
14
1/
1&
15
01
#575000
1!
10
#580000
0!
00
04
16
1.
0/
0&
1%
11
#585000
1!
10
#590000
0!
00
14
1/
1&
17
05
01
#595000
1!
10
#600000
0!
00
04
06
18
1-
0.
0/
0&
0%
1$
11
#605000
1!
10
#610000
0!
00
14
1/
1&
15
01
#615000
1!
10
#620000
0!
00
04
16
1.
0/
0&
1%
11
#625000
1!
10
#630000
0!
00
14
1/
1&
07
05
01
#635000
1!
10
#640000
0!
00
04
06
08
0-
0.
0/
0&
0%
0$
11
#645000
1!
10
#650000
0!
00
14
1/
1&
15
01
#655000
1!
10
#660000
0!
00
04
16
1.
0/
0&
1%
11
#665000
1!
10
#670000
0!
00
14
1/
1&
17
05
01
#675000
1!
10
#680000
0!
00
04
06
18
1-
0.
0/
0&
0%
1$
11
#685000
1!
10
#690000
0!
00
14
1/
1&
15
01
#695000
1!
10
#700000
0!
00
04
16
1.
0/
0&
1%
11
#705000
1!
10
#710000
0!
00
14
1/
1&
07
05
01
#715000
1!
10
#720000
0!
00
04
06
08
0-
0.
0/
0&
0%
0$
11
#725000
1!
10
#730000
0!
00
14
1/
1&
15
01
#735000
1!
10
#740000
0!
00
04
16
1.
0/
0&
1%
11
#745000
1!
10
#750000
0!
00
14
1/
1&
17
05
01
#755000
1!
10
#760000
0!
00
04
06
18
1-
0.
0/
0&
0%
1$
11
#765000
1!
10
#770000
0!
00
14
1/
1&
15
01
#775000
1!
10
#780000
0!
00
04
16
1.
0/
0&
1%
11
#785000
1!
10
#790000
0!
00
14
1/
1&
07
05
01
#795000
1!
10
#800000
0!
00
04
06
08
0-
0.
0/
0&
0%
0$
11
#805000
1!
10
#810000
0!
00
14
1/
1&
15
01
#815000
1!
10
#820000
0!
00
04
16
1.
0/
0&
1%
11
#825000
1!
10
#830000
0!
00
14
1/
1&
17
05
01
#835000
1!
10
#840000
0!
00
04
06
18
1-
0.
0/
0&
0%
1$
11
#845000
1!
10
#850000
0!
00
14
1/
1&
15
01
#855000
1!
10
#860000
0!
00
04
16
1.
0/
0&
1%
11
#865000
1!
10
#870000
0!
00
14
1/
1&
07
05
01
#875000
1!
10
#880000
0!
00
04
06
08
0-
0.
0/
0&
0%
0$
11
#885000
1!
10
#890000
0!
00
14
1/
1&
15
01
#895000
1!
10
#900000
0!
00
04
16
1.
0/
0&
1%
11
#905000
1!
10
#910000
0!
00
14
1/
1&
17
05
01
#915000
1!
10
#920000
0!
00
04
06
18
1-
0.
0/
0&
0%
1$
11
#925000
1!
10
#930000
0!
00
14
1/
1&
15
01
#935000
1!
10
#940000
0!
00
04
16
1.
0/
0&
1%
11
#945000
1!
10
#950000
0!
00
14
1/
1&
07
05
01
#955000
1!
10
#960000
0!
00
04
06
08
0-
0.
0/
0&
0%
0$
11
#965000
1!
10
#970000
0!
00
14
1/
1&
15
01
#975000
1!
10
#980000
0!
00
04
16
1.
0/
0&
1%
11
#985000
1!
10
#990000
0!
00
14
1/
1&
17
05
01
#995000
1!
10
