ProjetoNibble/simulation/qsim/ProjetoNibble.msim.vcd
$comment
	File created using the following command:
		vcd file ProjetoNibble.msim.vcd -direction
$end
$date
	Mon Nov  7 16:33:30 2016
$end
$version
	ModelSim Version 10.4d
$end
$timescale
	1ps
$end

$scope module CentralControl_vlg_vec_tst $end
$var reg 1 ! CLK $end
$var reg 1 " CLRN $end
$var reg 1 # ENA $end
$var reg 3 $ OP [2:0] $end
$var wire 1 % ENA_1 $end
$var wire 1 & ENA_2 $end
$var wire 1 ' mux_X $end
$var wire 1 ( mux_Y $end
$var wire 1 ) out_we $end
$var wire 1 * saida [2] $end
$var wire 1 + saida [1] $end
$var wire 1 , saida [0] $end

$scope module i1 $end
$var wire 1 - gnd $end
$var wire 1 . vcc $end
$var wire 1 / unknown $end
$var tri1 1 0 devclrn $end
$var tri1 1 1 devpor $end
$var tri1 1 2 devoe $end
$var wire 1 3 OP[2]~input_o $end
$var wire 1 4 mux_X~output_o $end
$var wire 1 5 mux_Y~output_o $end
$var wire 1 6 out_we~output_o $end
$var wire 1 7 ENA_2~output_o $end
$var wire 1 8 ENA_1~output_o $end
$var wire 1 9 saida[2]~output_o $end
$var wire 1 : saida[1]~output_o $end
$var wire 1 ; saida[0]~output_o $end
$var wire 1 < OP[1]~input_o $end
$var wire 1 = OP[0]~input_o $end
$var wire 1 > CLK~input_o $end
$var wire 1 ? inst|inst8~combout $end
$var wire 1 @ CLRN~input_o $end
$var wire 1 A ENA~input_o $end
$var wire 1 B inst1|inst~q $end
$var wire 1 C inst|inst1~0_combout $end
$var wire 1 D inst1|inst3~q $end
$var wire 1 E inst|inst10~0_combout $end
$var wire 1 F inst1|inst1~q $end
$var wire 1 G inst4~combout $end
$upscope $end
$upscope $end
$enddefinitions $end
#0
$dumpvars
0!
0"
1#
b0 $
1%
0&
0'
0(
0)
0,
0+
0*
0-
1.
x/
10
11
12
03
04
05
06
07
18
09
0:
0;
0<
0=
0>
0?
0@
1A
0B
1C
0D
0E
0F
0G
$end
#5000
1!
1>
#10000
0!
0>
#15000
1!
1>
#20000
0!
0>
#25000
1!
1>
#30000
0!
0>
#35000
1!
1>
#40000
1"
0!
1@
0>
#45000
1!
1>
#50000
0!
0>
1D
1;
1,
0C
1?
#55000
1!
1>
#60000
0!
0>
1B
0D
0;
1:
1+
0,
1C
#65000
1!
1>
#70000
0!
0>
1D
1;
1,
1E
0?
#75000
1!
1>
#80000
0!
0>
0B
1F
08
17
19
0:
0+
1*
1&
0%
0C
1?
#85000
1!
1>
#90000
0!
0>
1B
0D
0;
1:
1+
0,
1C
#95000
1!
1>
#100000
0!
0>
1D
1;
1,
0E
#105000
1!
1>
#110000
0!
0>
0F
18
07
09
0*
0&
1%
1E
0?
#115000
1!
1>
#120000
0!
0>
0B
1F
08
17
19
0:
0+
1*
1&
0%
0C
1?
#125000
1!
1>
#130000
0!
0>
1B
0D
0;
1:
1+
0,
1C
#135000
1!
1>
#140000
0!
0>
1D
1;
1,
0E
#145000
1!
1>
#150000
0!
0>
0F
18
07
09
0*
0&
1%
1E
0?
#155000
1!
1>
#160000
0!
0>
0B
1F
08
17
19
0:
0+
1*
1&
0%
0C
1?
#165000
1!
1>
#170000
0!
0>
1B
0D
0;
1:
1+
0,
1C
#175000
1!
1>
#180000
0!
0>
1D
1;
1,
0E
#185000
1!
1>
#190000
0!
0>
0F
18
07
09
0*
0&
1%
1E
0?
#195000
1!
1>
#200000
0!
0>
0B
1F
08
17
19
0:
0+
1*
1&
0%
0C
1?
#205000
1!
1>
#210000
0!
0>
1B
0D
0;
1:
1+
0,
1C
#215000
1!
1>
#220000
0!
0>
1D
1;
1,
0E
#225000
1!
1>
#230000
0!
0>
0F
18
07
09
0*
0&
1%
1E
0?
#235000
1!
1>
#240000
0!
0>
0B
1F
08
17
19
0:
0+
1*
1&
0%
0C
1?
#245000
1!
1>
#250000
0!
0>
1B
0D
0;
1:
1+
0,
1C
#255000
1!
1>
#260000
0!
0>
1D
1;
1,
0E
#265000
1!
1>
#270000
0!
0>
0F
18
07
09
0*
0&
1%
1E
0?
#275000
1!
1>
#280000
0!
0>
0B
1F
08
17
19
0:
0+
1*
1&
0%
0C
1?
#285000
1!
1>
#290000
0!
0>
1B
0D
0;
1:
1+
0,
1C
#295000
1!
1>
#300000
0!
0>
1D
1;
1,
0E
#305000
1!
1>
#310000
0!
0>
0F
18
07
09
0*
0&
1%
1E
0?
#315000
1!
1>
#320000
0!
0>
0B
1F
08
17
19
0:
0+
1*
1&
0%
0C
1?
#325000
1!
1>
#330000
0!
0>
1B
0D
0;
1:
1+
0,
1C
#335000
1!
1>
#340000
0!
0>
1D
1;
1,
0E
#345000
1!
1>
#350000
0!
0>
0F
18
07
09
0*
0&
1%
1E
0?
#355000
1!
1>
#360000
0!
0>
0B
1F
08
17
19
0:
0+
1*
1&
0%
0C
1?
#365000
1!
1>
#370000
0!
0>
1B
0D
0;
1:
1+
0,
1C
#375000
1!
1>
#380000
0!
0>
1D
1;
1,
0E
#385000
1!
1>
#390000
0!
0>
0F
18
07
09
0*
0&
1%
1E
0?
#395000
1!
1>
#400000
0!
0>
0B
1F
08
17
19
0:
0+
1*
1&
0%
0C
1?
#405000
1!
1>
#410000
0!
0>
1B
0D
0;
1:
1+
0,
1C
#415000
1!
1>
#420000
0!
0>
1D
1;
1,
0E
#425000
1!
1>
#430000
0!
0>
0F
18
07
09
0*
0&
1%
1E
0?
#435000
1!
1>
#440000
0!
0>
0B
1F
08
17
19
0:
0+
1*
1&
0%
0C
1?
#445000
1!
1>
#450000
0!
0>
1B
0D
0;
1:
1+
0,
1C
#455000
1!
1>
#460000
0!
0>
1D
1;
1,
0E
#465000
1!
1>
#470000
0!
0>
0F
18
07
09
0*
0&
1%
1E
0?
#475000
1!
1>
#480000
0!
0>
0B
1F
08
17
19
0:
0+
1*
1&
0%
0C
1?
#485000
1!
1>
#490000
0!
0>
1B
0D
0;
1:
1+
0,
1C
#495000
1!
1>
#500000
0!
0>
1D
1;
1,
0E
#505000
1!
1>
#510000
0!
0>
0F
18
07
09
0*
0&
1%
1E
0?
#515000
1!
1>
#520000
0!
0>
0B
1F
08
17
19
0:
0+
1*
1&
0%
0C
1?
#525000
1!
1>
#530000
0!
0>
1B
0D
0;
1:
1+
0,
1C
#535000
1!
1>
#540000
0!
0>
1D
1;
1,
0E
#545000
1!
1>
#550000
0!
0>
0F
18
07
09
0*
0&
1%
1E
0?
#555000
1!
1>
#560000
0!
0>
0B
1F
08
17
19
0:
0+
1*
1&
0%
0C
1?
#565000
1!
1>
#570000
0!
0>
1B
0D
0;
1:
1+
0,
1C
#575000
1!
1>
#580000
0!
0>
1D
1;
1,
0E
#585000
1!
1>
#590000
0!
0>
0F
18
07
09
0*
0&
1%
1E
0?
#595000
1!
1>
#600000
0!
0>
0B
1F
08
17
19
0:
0+
1*
1&
0%
0C
1?
#605000
1!
1>
#610000
0!
0>
1B
0D
0;
1:
1+
0,
1C
#615000
1!
1>
#620000
0!
0>
1D
1;
1,
0E
#625000
1!
1>
#630000
0!
0>
0F
18
07
09
0*
0&
1%
1E
0?
#635000
1!
1>
#640000
0!
0>
0B
1F
08
17
19
0:
0+
1*
1&
0%
0C
1?
#645000
1!
1>
#650000
0!
0>
1B
0D
0;
1:
1+
0,
1C
#655000
1!
1>
#660000
0!
0>
1D
1;
1,
0E
#665000
1!
1>
#670000
0!
0>
0F
18
07
09
0*
0&
1%
1E
0?
#675000
1!
1>
#680000
0!
0>
0B
1F
08
17
19
0:
0+
1*
1&
0%
0C
1?
#685000
1!
1>
#690000
0!
0>
1B
0D
0;
1:
1+
0,
1C
#695000
1!
1>
#700000
0!
0>
1D
1;
1,
0E
#705000
1!
1>
#710000
0!
0>
0F
18
07
09
0*
0&
1%
1E
0?
#715000
1!
1>
#720000
0!
0>
0B
1F
08
17
19
0:
0+
1*
1&
0%
0C
1?
#725000
1!
1>
#730000
0!
0>
1B
0D
0;
1:
1+
0,
1C
#735000
1!
1>
#740000
0!
0>
1D
1;
1,
0E
#745000
1!
1>
#750000
0!
0>
0F
18
07
09
0*
0&
1%
1E
0?
#755000
1!
1>
#760000
0!
0>
0B
1F
08
17
19
0:
0+
1*
1&
0%
0C
1?
#765000
1!
1>
#770000
0!
0>
1B
0D
0;
1:
1+
0,
1C
#775000
1!
1>
#780000
0!
0>
1D
1;
1,
0E
#785000
1!
1>
#790000
0!
0>
0F
18
07
09
0*
0&
1%
1E
0?
#795000
1!
1>
#800000
0!
0>
0B
1F
08
17
19
0:
0+
1*
1&
0%
0C
1?
#805000
1!
1>
#810000
0!
0>
1B
0D
0;
1:
1+
0,
1C
#815000
1!
1>
#820000
0!
0>
1D
1;
1,
0E
#825000
1!
1>
#830000
0!
0>
0F
18
07
09
0*
0&
1%
1E
0?
#835000
1!
1>
#840000
0!
0>
0B
1F
08
17
19
0:
0+
1*
1&
0%
0C
1?
#845000
1!
1>
#850000
0!
0>
1B
0D
0;
1:
1+
0,
1C
#855000
1!
1>
#860000
0!
0>
1D
1;
1,
0E
#865000
1!
1>
#870000
0!
0>
0F
18
07
09
0*
0&
1%
1E
0?
#875000
1!
1>
#880000
0!
0>
0B
1F
08
17
19
0:
0+
1*
1&
0%
0C
1?
#885000
1!
1>
#890000
0!
0>
1B
0D
0;
1:
1+
0,
1C
#895000
1!
1>
#900000
0!
0>
1D
1;
1,
0E
#905000
1!
1>
#910000
0!
0>
0F
18
07
09
0*
0&
1%
1E
0?
#915000
1!
1>
#920000
0!
0>
0B
1F
08
17
19
0:
0+
1*
1&
0%
0C
1?
#925000
1!
1>
#930000
0!
0>
1B
0D
0;
1:
1+
0,
1C
#935000
1!
1>
#940000
0!
0>
1D
1;
1,
0E
#945000
1!
1>
#950000
0!
0>
0F
18
07
09
0*
0&
1%
1E
0?
#955000
1!
1>
#960000
0!
0>
0B
1F
08
17
19
0:
0+
1*
1&
0%
0C
1?
#965000
1!
1>
#970000
0!
0>
1B
0D
0;
1:
1+
0,
1C
#975000
1!
1>
#980000
0!
0>
1D
1;
1,
0E
#985000
1!
1>
#990000
0!
0>
0F
18
07
09
0*
0&
1%
1E
0?
#995000
1!
1>
