Decoder/simulation/qsim/Decoder.msim.vcd
$comment
	File created using the following command:
		vcd file Decoder.msim.vcd -direction
$end
$date
	Fri Oct 28 22:34:46 2016
$end
$version
	ModelSim Version 10.4d
$end
$timescale
	1ps
$end

$scope module Decoder_vlg_vec_tst $end
$var reg 24 ! INST [23:0] $end
$var wire 1 " ADDR [4] $end
$var wire 1 # ADDR [3] $end
$var wire 1 $ ADDR [2] $end
$var wire 1 % ADDR [1] $end
$var wire 1 & ADDR [0] $end
$var wire 1 ' OP [2] $end
$var wire 1 ( OP [1] $end
$var wire 1 ) OP [0] $end
$var wire 1 * X [7] $end
$var wire 1 + X [6] $end
$var wire 1 , X [5] $end
$var wire 1 - X [4] $end
$var wire 1 . X [3] $end
$var wire 1 / X [2] $end
$var wire 1 0 X [1] $end
$var wire 1 1 X [0] $end
$var wire 1 2 Y [7] $end
$var wire 1 3 Y [6] $end
$var wire 1 4 Y [5] $end
$var wire 1 5 Y [4] $end
$var wire 1 6 Y [3] $end
$var wire 1 7 Y [2] $end
$var wire 1 8 Y [1] $end
$var wire 1 9 Y [0] $end

$scope module i1 $end
$var wire 1 : gnd $end
$var wire 1 ; vcc $end
$var wire 1 < unknown $end
$var tri1 1 = devclrn $end
$var tri1 1 > devpor $end
$var tri1 1 ? devoe $end
$var wire 1 @ ADDR[4]~output_o $end
$var wire 1 A ADDR[3]~output_o $end
$var wire 1 B ADDR[2]~output_o $end
$var wire 1 C ADDR[1]~output_o $end
$var wire 1 D ADDR[0]~output_o $end
$var wire 1 E OP[2]~output_o $end
$var wire 1 F OP[1]~output_o $end
$var wire 1 G OP[0]~output_o $end
$var wire 1 H X[7]~output_o $end
$var wire 1 I X[6]~output_o $end
$var wire 1 J X[5]~output_o $end
$var wire 1 K X[4]~output_o $end
$var wire 1 L X[3]~output_o $end
$var wire 1 M X[2]~output_o $end
$var wire 1 N X[1]~output_o $end
$var wire 1 O X[0]~output_o $end
$var wire 1 P Y[7]~output_o $end
$var wire 1 Q Y[6]~output_o $end
$var wire 1 R Y[5]~output_o $end
$var wire 1 S Y[4]~output_o $end
$var wire 1 T Y[3]~output_o $end
$var wire 1 U Y[2]~output_o $end
$var wire 1 V Y[1]~output_o $end
$var wire 1 W Y[0]~output_o $end
$var wire 1 X INST[20]~input_o $end
$var wire 1 Y INST[19]~input_o $end
$var wire 1 Z INST[18]~input_o $end
$var wire 1 [ INST[17]~input_o $end
$var wire 1 \ INST[16]~input_o $end
$var wire 1 ] INST[23]~input_o $end
$var wire 1 ^ INST[22]~input_o $end
$var wire 1 _ INST[21]~input_o $end
$var wire 1 ` INST[15]~input_o $end
$var wire 1 a INST[14]~input_o $end
$var wire 1 b INST[13]~input_o $end
$var wire 1 c INST[12]~input_o $end
$var wire 1 d INST[11]~input_o $end
$var wire 1 e INST[10]~input_o $end
$var wire 1 f INST[9]~input_o $end
$var wire 1 g INST[8]~input_o $end
$var wire 1 h INST[7]~input_o $end
$var wire 1 i INST[6]~input_o $end
$var wire 1 j INST[5]~input_o $end
$var wire 1 k INST[4]~input_o $end
$var wire 1 l INST[3]~input_o $end
$var wire 1 m INST[2]~input_o $end
$var wire 1 n INST[1]~input_o $end
$var wire 1 o INST[0]~input_o $end
$upscope $end
$upscope $end
$enddefinitions $end
#0
$dumpvars
b11101111010110111110110 !
1&
1%
1$
0#
1"
1)
1(
0'
11
00
1/
1.
0-
1,
0+
1*
09
18
17
06
15
14
13
12
0:
1;
x<
1=
1>
1?
1@
0A
1B
1C
1D
0E
1F
1G
1H
0I
1J
0K
1L
1M
0N
1O
1P
1Q
1R
1S
0T
1U
1V
0W
1X
0Y
1Z
1[
1\
0]
1^
1_
1`
0a
1b
0c
1d
1e
0f
1g
1h
1i
1j
1k
0l
1m
1n
0o
$end
#5000
b111101111010110111110110 !
b101101111010110111110110 !
b100101111010110111110110 !
b100001111010110111110110 !
b100000111010110111110110 !
b100000101010110111110110 !
b100000101110110111110110 !
b100000101110010111110110 !
b100000101110010011110110 !
b100000101110010001110110 !
b100000101110010000110110 !
b100000101110010000010110 !
b100000101110010000010010 !
0m
0j
0i
0h
0g
0d
1a
0\
0Z
0X
0_
0^
1]
1E
0F
0G
0@
0B
0D
1I
0L
0O
0P
0Q
0R
0U
07
04
03
02
01
0.
1+
0&
0$
0"
0)
0(
1'
#10000
b100010101110010000010010 !
b100010001110010000010010 !
b100010000110010000010010 !
b100010000100010000010010 !
b100010000100000000010010 !
b100010000100001000010010 !
b100010000100001000011010 !
b100010000100001000011000 !
b100011000100001000011000 !
b100011000000001000011000 !
b100011000000001100011000 !
b100011000000001110011000 !
b100011000000001110011100 !
0n
1m
1l
1h
1g
1f
0e
0b
0a
0`
0[
1Z
1Y
1A
1B
0C
0H
0I
0J
0M
1N
1O
1P
1T
1U
0V
08
17
16
12
11
10
0/
0,
0+
0*
0%
1$
1#
#15000
b100011000001001110011100 !
b100011000001001110011101 !
b110011000001001110011101 !
b111011000001001110011101 !
b111111000001001110011101 !
b111111010001001110011101 !
b111111010001101110011101 !
b111111110001101110011101 !
b111111110011101110011101 !
b111111110111101110011101 !
1o
1d
1c
1b
1a
1\
1[
1X
1_
1^
1F
1G
1@
1C
1D
1I
1J
1K
1L
1W
19
1.
1-
1,
1+
1&
1%
1"
1)
1(
#20000
b111111110111101110111101 !
b111111111111101110111101 !
b111111111111101010111101 !
b111111111111101000111101 !
b111111111111101000111001 !
b111111111110101000111001 !
b111111111110101000111000 !
b111111101110101000111000 !
b111111101110001000111000 !
b111111001110001000111000 !
0o
0m
1j
0h
0g
0d
0c
1`
0\
0[
0C
0D
1H
0K
0L
0O
0P
1R
0U
0W
09
07
14
02
01
0.
0-
1*
0&
0%
#25000
b111111001110001000101000 !
b111101001110001000101000 !
b111101001110011000101000 !
b111101001110011000101010 !
b101101001110011000101010 !
b101001001110011000101010 !
b101001001010011000101010 !
b101001000010011000101010 !
b101001000010011100101010 !
1n
0k
1g
1e
0a
0`
0Y
0X
0^
0F
0@
0A
0H
0I
1M
1O
0S
1V
18
05
11
1/
0+
0*
0#
0"
0(
#30000
b1001000010011100101010 !
b1001000010010100101010 !
b1000010010100101010 !
b1000000010100101010 !
b1000000010100001010 !
b1000000010100001110 !
b1000001010100001110 !
b1000001010100011110 !
b1000001000100011110 !
b10001000001000100011110 !
b10101000001000100011110 !
b10101000001000000011110 !
1m
1k
0j
0g
0f
0e
1c
0b
1X
0_
1^
0]
0E
1F
0G
1@
0J
1K
0M
0N
0O
0R
1S
1U
17
15
04
01
00
0/
1-
0,
1"
0)
1(
0'
#35000
b10100000001000000011110 !
b10100010001000000011110 !
b10100010001000000111110 !
b10100010001000000111010 !
b10100010000000000111010 !
b10100010000010000111010 !
0m
1j
1e
0c
1\
0Z
0B
1D
0K
1M
1R
0U
07
14
1/
0-
1&
0$
#40000
b10100010000010000110010 !
b10100010000110000110010 !
b10100110000110000110010 !
b10100110000110000110000 !
b11100110000110000110000 !
b11100110010110000110000 !
b11100110010110100110000 !
b11100100010110100110000 !
b11100100010110100010000 !
b11100100010110100010100 !
b11100100011110100010100 !
0n
1m
0l
0j
1g
1d
1c
1b
0\
1[
1_
1G
1C
0D
1J
1K
1L
1O
0R
0T
1U
0V
08
17
06
04
11
1.
1-
1,
0&
1%
1)
#45000
b11100100011110110010100 !
b11100100011110110010101 !
b11100100011110110000101 !
b1100100011110110000101 !
b1100100011010110000101 !
b100100011010110000101 !
b100100001010110000101 !
b100110001010110000101 !
b100110001010110000001 !
b100110000010110000001 !
1o
0m
0k
1h
0d
0c
0b
1\
0_
0^
0F
0G
1D
0J
0K
0L
1P
0S
0U
1W
19
07
05
12
0.
0-
0,
1&
0)
0(
#50000
b100110000010111000001 !
b100100110000010111000001 !
b100100110000011111000001 !
b100101110000011111000001 !
b100101110000001111000001 !
b100101110000001111000011 !
b100101110000001011000011 !
b100101110000001011010011 !
b110101110000001011010011 !
b110101110000101011010011 !
b111101110000101011010011 !
b111101110010101011010011 !
b111101100010101011010011 !
b111101100010101011010111 !
b111101100011101011010111 !
1n
1m
1k
1i
0g
1f
0e
1d
1c
1b
0\
1Z
1_
1^
1]
1E
1F
1G
1B
0D
1J
1K
1L
0M
1N
0O
1Q
1S
1U
1V
18
17
15
13
01
10
0/
1.
1-
1,
0&
1$
1)
1(
1'
#55000
b111111100011101011010111 !
b111111101011101011010111 !
b111011101011101011010111 !
b111011101011101011010110 !
b111011101011101010010110 !
b111011101011111010010110 !
b111011101011111110010110 !
b101011101011111110010110 !
b101011101001111110010110 !
b101011101001111110010010 !
0o
0m
0i
1g
1e
0b
1`
1Y
0X
0^
0F
0@
1A
1H
0J
1M
1O
0Q
0U
0W
09
07
03
11
1/
0,
1*
1#
0"
0(
#60000
b101011101101111110010010 !
b101011101101111110110010 !
b101011101101111100110010 !
b101011101101110100110010 !
b101011101101110100110000 !
b101011101101110100100000 !
b101011101101010100100000 !
b100011101101010100100000 !
b100011101100010100100000 !
b100001101100010100100000 !
b100101101100010100100000 !
b100101101100010100100001 !
b100101101110010100100001 !
b100101101110010100100101 !
1o
0n
1m
0k
1j
0h
0f
0d
0c
1b
1a
0Y
1X
0_
0G
1@
0A
1I
1J
0K
0L
0N
0P
1R
0S
1U
0V
1W
19
08
17
05
14
02
00
0.
0-
1,
1+
0#
1"
0)
#65000
b100101101110010100101101 !
b100100101110010100101101 !
b100100111110010100101101 !
b110100111110010100101101 !
b110100111010010100101101 !
b110100111010010100001101 !
b110100111010010110001101 !
b110100111010010110001111 !
b110100111010110110001111 !
b111100111010110110001111 !
b111100111011110110001111 !
b111110111011110110001111 !
b111110111001110110001111 !
b111110111001110110001011 !
1n
0m
1l
0j
1h
1d
1c
0b
0a
1\
0Z
1Y
1_
1^
1F
1G
1A
0B
1D
0I
0J
1K
1L
1P
0R
1T
0U
1V
18
07
16
04
12
1.
1-
0,
0+
1&
0$
1#
1)
1(
#70000
b111110110001110110001011 !
b111110110001110010001011 !
b111110110001111010001011 !
b111110110001111010011011 !
b111110110001111010011010 !
b111110110001111010010010 !
b111111110001111010010010 !
b111111100001111010010010 !
b111111100001111010010000 !
b110111100001111010010000 !
b110101100001111010010000 !
b110101100011111010010000 !
b110101100011111010010100 !
0o
0n
1m
0l
1k
0g
1f
1b
0`
0\
1Z
0Y
0_
0G
0A
1B
0D
0H
1J
1N
0O
1S
0T
1U
0V
0W
09
08
17
06
15
01
10
1,
0*
0&
1$
0#
0)
#75000
b10101100011111010010100 !
b10101100011101010010100 !
b10101100011101000010100 !
b10101100011101100010100 !
b10100100011101100010100 !
b10100110011101100010100 !
b11100110011101100010100 !
b11110110011101100010100 !
0h
1g
0e
1\
0Z
1Y
1_
0]
0E
1G
1A
0B
1D
0M
1O
0P
02
11
0/
1&
0$
1#
1)
0'
#80000
b11110010011101100010100 !
b11110010011001100010100 !
b11110011011001100010100 !
b11110011011000100010100 !
b11110011011000100010101 !
b11110011011000100010111 !
b11110011011000100010011 !
b111110011011000100010011 !
b111110011011010100010011 !
b111110011011010000010011 !
b110110011011010000010011 !
b110100011011010000010011 !
1o
1n
0m
0g
0f
1e
0d
1`
0[
0Y
0_
1]
1E
0G
0A
0C
1H
0L
1M
0N
0O
0U
1V
1W
19
18
07
01
00
1/
0.
1*
0%
0#
0)
1'
#85000
b110100011011010001010011 !
b110000011011010001010011 !
b110000011111010001010011 !
b110000011111010001110011 !
b110000011101010001110011 !
b110001011101010001110011 !
b110001001101010001110011 !
b110001001101110001110011 !
b110001001101110001110010 !
b110001001101100001110010 !
b110001001101100101110010 !
b111001001101100101110010 !
0o
1j
1i
1g
0e
1d
0b
1a
0\
1Z
0X
1_
1G
0@
1B
0D
1I
0J
1L
0M
1O
1Q
1R
0W
09
14
13
11
0/
1.
0,
1+
0&
1$
0"
1)
#90000
b111001001101100101100010 !
b111001001101100101101010 !
b111001101101100101101010 !
b111001100101100101101010 !
b111001100101100101101000 !
b11001100101100101101000 !
b11001100101100100101000 !
b11101100101100100101000 !
b11101100001100100101000 !
b11101100001100100001000 !
b11101110001100100001000 !
b11101110001100100001001 !
b11101110001110100001001 !
b11101110001110000001001 !
1o
0n
1l
0k
0j
0i
0g
1e
0a
0`
1\
1[
1X
0]
0E
1@
1C
1D
0H
0I
1M
0O
0Q
0R
0S
1T
0V
1W
19
08
16
05
04
03
01
1/
0+
0*
1&
1%
1"
0'
#95000
b1101110001110000001001 !
b1101110000110000001001 !
b1101110000110010001001 !
b1101110000110010001101 !
b1100110000110010001101 !
b1100110000010010001101 !
b1100110000010010011101 !
b1100111000010010011101 !
b101100111000010010011101 !
b101100111000010011011101 !
b101000111000010011011101 !
b101000111100010011011101 !
1m
1k
1i
1h
0d
0c
1a
1`
0Z
0X
0^
1]
1E
0F
0@
0B
1H
1I
0K
0L
1P
1Q
1S
1U
17
15
13
12
0.
0-
1+
1*
0$
0"
0(
1'
#100000
b101000111100011011011101 !
b101010111100011011011101 !
b100010111100011011011101 !
b100010111100011011010101 !
b100010011100011011010101 !
b100010001100011011010101 !
b100010001100011011010100 !
b100010001100001011010100 !
b100010001100001001010100 !
b100010001100101001010100 !
b100010001100101001000100 !
b100110001100101001000100 !
0o
0l
0k
0h
1f
0e
1d
0\
0[
1Y
1X
0_
0G
1@
1A
0C
0D
1L
0M
1N
0P
0S
0T
0W
09
06
05
02
10
0/
1.
0&
0%
1#
1"
0)
#105000
b100110001100101001000110 !
b100110001100101001100110 !
b100110001101101001100110 !
b100111001101101001100110 !
b100111000101101001100110 !
b100111000101101001101110 !
b100111010101101001101110 !
b100111010101001001101110 !
1n
1l
1j
0d
1c
0`
1\
1Z
1B
1D
0H
1K
0L
1R
1T
1V
18
16
14
0.
1-
0*
1&
1$
#110000
b100111010101001101101110 !
b110111010101001101101110 !
b110111010101001101101010 !
b10111010101001101101010 !
b10111010101001100101010 !
b11111010101001100101010 !
b11111010101001100101011 !
b11111010101011100101011 !
b11111011101011100101011 !
b11111001101011100101011 !
1o
0m
0i
1g
1e
1`
0\
1_
1^
0]
0E
1F
1G
0D
1H
1M
1O
0Q
0U
1W
19
07
03
11
1/
1*
0&
1)
1(
0'
#115000
b11111001111011100101011 !
b11111101111011100101011 !
b11111101111011110101011 !
b11011101111011110101011 !
b11011101110011110101011 !
b11011101110111110101011 !
b11011101110111111101011 !
b11011101110111111101010 !
0o
1i
1h
1d
0c
1b
1[
0X
0@
1C
1J
0K
1L
1P
1Q
0W
09
13
12
1.
0-
1,
1%
0"
#120000
b11011101110110111101010 !
b11001101110110111101010 !
b11001101110110111101000 !
b11001101110110111100000 !
b111001101110110111100000 !
b110001101110110111100000 !
b110001101110100111100000 !
b110001100110100111100000 !
b110001110110100111100000 !
b110001110111100111100000 !
b110001110111000111100000 !
b110001110111000110100000 !
0n
0l
0i
0f
0e
0d
1c
0`
1\
0Y
0_
1]
1E
0G
0A
1D
0H
1K
0L
0M
0N
0Q
0T
0V
08
06
03
00
0/
0.
1-
0*
1&
0#
0)
1'
#125000
b110001110011000110100000 !
b110001110011000110000000 !
b110001110011000010000000 !
b100001110011000010000000 !
b100001110011000010000100 !
b100001010011000010000100 !
b100001010011000000000100 !
b100101010011000000000100 !
b100101010011000000000110 !
b100101010011010000000110 !
b100101000011010000000110 !
b100101000011010001000110 !
1n
1m
0j
1i
0h
0g
1e
0a
0\
0[
1X
0^
0F
1@
0C
0D
0I
1M
0O
0P
1Q
0R
1U
1V
18
17
04
13
02
01
1/
0+
0&
0%
1"
0(
#130000
b100101000011010001010110 !
b100100000011010001010110 !
b100100000001010001010110 !
b100100000001011001010110 !
b100100000001111001010110 !
b110100000001111001010110 !
b110100000001111011010110 !
b110000000001111011010110 !
b110000000001111010010110 !
1k
0i
1h
1f
1d
0b
0Z
0X
1^
1F
0@
0B
0J
1L
1N
1P
0Q
1S
15
03
12
10
1.
0,
0$
0"
1(
#135000
b110010000001111010010110 !
b10010000001111010010110 !
b11010000001111010010110 !
b11010000000111010010110 !
b11010000000111110010110 !
b11010000000111110010010 !
b11010100000111110010010 !
b11010100000111110010000 !
b11010100000101110010000 !
b11010110000101110010000 !
b11011110000101110010000 !
b11011110010101110010000 !
b11011110010001110010000 !
b11011110010001100010000 !
b11011110010001101010000 !
0n
0m
1i
0h
1g
0e
0d
0c
1b
1\
1[
1Z
1Y
1_
0]
0E
1G
1A
1B
1C
1D
1J
0K
0L
0M
1O
0P
1Q
0U
0V
08
07
13
02
11
0/
0.
0-
1,
1&
1%
1$
1#
1)
0'
#140000
b11011110010001101010001 !
b11011110010001101011001 !
b11011110010001101001001 !
b11011110011001101001001 !
b11011110011001101001101 !
b11011110011011101001101 !
b11011100011011101001101 !
b11011100011111101001101 !
b11011100011111111001101 !
1o
1m
1l
0k
1h
1e
1d
1c
0\
0D
1K
1L
1M
1P
0S
1T
1U
1W
19
17
16
05
12
1/
1.
1-
0&
#145000
b11011101011111111001101 !
b11011101011111111101101 !
b11011101011110111101101 !
b1011101011110111101101 !
b1111101011110111101101 !
b1101101011110111101101 !
b1101101011110011101101 !
b1101101011110011100101 !
b1101101011110011100001 !
b1101101011100011100001 !
0m
0l
1j
0g
0f
0e
1`
0Y
1X
0^
0F
1@
0A
1H
0M
0N
0O
1R
0T
0U
07
06
14
01
00
0/
1*
0#
1"
0(
#150000
b1101101111100011100001 !
b1101001111100011100001 !
b1101001101100011100001 !
b1101001101100011100000 !
b1101001100100011100000 !
b1101001100100001100000 !
b1101000100100001100000 !
b1101000100100001000000 !
b11101000100100001000000 !
b11001000100100001000000 !
b11011000100100001000000 !
b11011000100100001001000 !
b11011000100110001001000 !
0o
1l
0j
0h
1e
0c
0b
1a
0`
0[
1Y
0X
1^
1F
0@
1A
0C
0H
1I
0J
0K
1M
0P
0R
1T
0W
09
16
04
02
1/
0-
0,
1+
0*
0%
1#
0"
1(
#155000
b111011000100110001001000 !
b111011000100110001001010 !
b111010000100110001001010 !
b111010000100110001011010 !
b111010010100110001011010 !
b111010010100110001011110 !
b111010010110110001011110 !
b111010010110110001011111 !
b111010010110110011011111 !
b111010011110110011011111 !
b101010011110110011011111 !
b101110011110110011011111 !
b101110011110110011010111 !
1o
1n
1m
0l
1k
1h
1b
1`
1\
0Z
1X
0^
1]
1E
0F
1@
0B
1D
1H
1J
1P
1S
0T
1U
1V
1W
19
18
17
06
15
12
1,
1*
1&
0$
1"
0(
1'
#160000
b100110011110110011010111 !
b100110011110110010010111 !
b100110011010110010010111 !
b100110111010110010010111 !
b100110111011110010010111 !
b100110111011110010110111 !
b100100111011110010110111 !
b100100111011100010110111 !
b100111011100010110111 !
b100111011100010110101 !
b100101011100010110101 !
b100101011100010110001 !
b100101001100010110001 !
b100101001100010110000 !
b100101001100000110000 !
b100100001100000110000 !
b10100100001100000110000 !
b10000100001100000110000 !
0o
0n
0m
1j
0i
0h
0e
1c
0b
0a
0`
0\
1[
0Y
0X
0_
1^
0]
0E
1F
0G
0@
0A
1C
0D
0H
0I
0J
1K
0M
0P
0Q
1R
0U
0V
0W
09
08
07
14
03
02
0/
1-
0,
0+
0*
0&
1%
0#
0"
0)
1(
0'
#165000
b10001100001100000110000 !
b10001100001100000100000 !
b10001100001100000101000 !
b11001100001100000101000 !
b11001100001100001101000 !
b11001100101100001101000 !
b11011100101100001101000 !
b11011100101110001101000 !
b111011100101110001101000 !
b111011100111110001101000 !
b111011100111110001101001 !
b111011101111110001101001 !
b111111101111110001101001 !
1o
1l
0k
1i
1e
1b
1a
1`
1Z
1Y
1X
1_
1]
1E
1G
1@
1A
1B
1H
1I
1J
1M
1Q
0S
1T
1W
19
16
05
13
1/
1,
1+
1*
1$
1#
1"
1)
1'
#170000
b111111101111110001001001 !
b111111101111110001001011 !
b101111101111110001001011 !
b101110101111110001001011 !
b101110101111110001011011 !
b100110101111110001011011 !
b100110101111110000011011 !
b110101111110000011011 !
b110101111110000011010 !
0o
1n
1k
0j
0i
0Z
0_
0^
0]
0E
0F
0G
0B
0Q
0R
1S
1V
0W
09
18
15
04
03
0$
0)
0(
0'
#175000
b110101111010000011010 !
b110101111011000011010 !
b110101111011100011010 !
b110101110011100011010 !
b110101110011100011110 !
b110101110011100010110 !
b100101110011100010110 !
b100100110011100010110 !
b100110011100010110 !
b100110011100110110 !
b100110011100110100 !
b1100110011100110100 !
b1100110011100100100 !
b1001100110011100100100 !
b1001100110011101100100 !
b1001100110011101100101 !
1o
0n
1m
0l
0k
1j
1i
1g
1f
0d
0c
0`
1Z
0Y
0X
1_
1G
0@
0A
1B
0H
0K
0L
1N
1O
1Q
1R
0S
0T
1U
0V
1W
19
08
17
06
05
14
13
11
10
0.
0-
0*
1$
0#
0"
1)
#180000
b1001110110011101100101 !
b1001110110011111100101 !
b1001110010011111100101 !
b11001110010011111100101 !
b111001110010011111100101 !
b111001110010111111100101 !
b111001110010111011100101 !
b111001110010111011100001 !
b111001110010111011101001 !
b111001111010111011101001 !
b111101111010111011101001 !
b111101111010111011101011 !
b111101111010111011111011 !
b110101111010111011111011 !
b110101111010111010111011 !
b110101111010111010111010 !
0o
1n
0m
1l
1k
0i
1h
0g
1d
0a
1`
1\
1X
0_
1^
1]
1E
1F
0G
1@
1D
1H
0I
1L
0O
1P
0Q
1S
1T
0U
1V
0W
09
18
07
16
15
03
12
01
1.
0+
1*
1&
1"
0)
1(
1'
#185000
b110101011010111010111010 !
b110111011010111010111010 !
b110111011010111010011010 !
b110111001010111010011010 !
b110111001110111010011010 !
b10111001110111010011010 !
b10111001110011010011010 !
b10111001110011110011010 !
b10111001110011110011110 !
b10011001110011110011110 !
b10011001110011110011100 !
b11011001110011110011100 !
b11011001110011111011100 !
b11011001110011111011101 !
1o
0n
1m
0j
1i
1g
0d
1a
0\
0[
1Y
0X
1_
0]
0E
1G
0@
1A
0C
0D
1I
0L
1O
1Q
0R
1U
0V
1W
19
08
17
04
13
11
0.
1+
0&
0%
1#
0"
1)
0'
#190000
b11011001110001111011101 !
b11011001100001111011101 !
b11011001100000111011101 !
b11011001100000101011101 !
b1011001100000101011101 !
b1011000100000101011101 !
b1011100100000101011101 !
b1001100100000101011101 !
b1001100100000101111101 !
b1001110100000101111101 !
b101001110100000101111101 !
b101001110100100101111101 !
b101001110100100001111101 !
b101101110100100001111101 !
b100101110100100001111101 !
b100101110100100000111101 !
1j
0i
0h
0g
0f
0e
1d
0b
0`
1\
1[
0Y
1X
0_
0^
1]
1E
0F
0G
1@
0A
1C
1D
0H
0J
1L
0M
0N
0O
0P
0Q
1R
14
03
02
01
00
0/
1.
0,
0*
1&
1%
0#
1"
0)
0(
1'
#195000
b100100110100100000111101 !
b100100110100100000110101 !
b100100110100100000110111 !
b100100110110100000110111 !
b100100111110100000110111 !
b100110111110100000110111 !
b100110111110100000010111 !
b100110101110100000010111 !
b110101110100000010111 !
b110101110000000010111 !
1n
0l
0j
0d
1b
1`
0\
0Z
1Y
0]
0E
1A
0B
0D
1H
1J
0L
0R
0T
1V
18
06
04
0.
1,
1*
0&
0$
1#
0'
#200000
b110101111000000010111 !
b110101111000000000111 !
b110101011000000000111 !
b110101011000000000110 !
b110101011001000000110 !
b110101011001010000110 !
b110001011001010000110 !
b1110001011001010000110 !
b1111001011001010000110 !
b1111001011001010001110 !
b1111000011001010001110 !
b1111010011001010001110 !
b101111010011001010001110 !
0o
1l
0k
1h
1f
1c
0a
0`
1\
0[
1Z
1_
1]
1E
1G
1B
0C
1D
0H
0I
1K
1N
1P
0S
1T
0W
09
16
05
12
10
1-
0+
0*
1&
0%
1$
1)
1'
#205000
b101111010011011010001110 !
b111111010011011010001110 !
b111111010011011110001110 !
b111011010011011110001110 !
b111011010011011111001110 !
b111001010011011111001110 !
b111001010011011111011110 !
b111001010111011111011110 !
b111001010111011111011111 !
b111001010111011101011111 !
b111001110111011101011111 !
b111000110111011101011111 !
b111000110111011101010111 !
b111000111111011101010111 !
1o
0l
1k
1i
0h
1g
1e
1a
1`
1[
0Z
0Y
0X
1^
1F
0@
0A
0B
1C
1H
1I
1M
1O
0P
1Q
1S
0T
1W
19
06
15
13
02
11
1/
1+
1*
1%
0$
0#
0"
1(
#210000
b111000111111011101010011 !
b111000111111011101010001 !
b111000111101011101010001 !
b111000111101011101110001 !
b111000111101111101110001 !
b111000111100111101110001 !
b110000111100111101110001 !
b110000101100111101110001 !
b10000101100111101110001 !
b10000101100101101110001 !
b101100101101110001 !
b100101100101101110001 !
b100101100101100110001 !
b110101100101100110001 !
b110101000101100110001 !
b110101000101100110000 !
b110101000101110110000 !
b110001000101110110000 !
b111001000101110110000 !
b111001000101110111000 !
b111000000101110111000 !
0o
0n
0m
1l
1j
0i
1h
0e
1d
0c
0b
0a
0`
0\
0[
1Z
1Y
1X
0_
0^
0]
0E
0F
0G
1@
1A
1B
0C
0D
0H
0I
0J
0K
1L
0M
1P
0Q
1R
1T
0U
0V
0W
09
08
07
16
14
03
12
0/
1.
0-
0,
0+
0*
0&
0%
1$
1#
1"
0)
0(
0'
#215000
b111000000100110111000 !
b111000000100110111100 !
b111000010100110111100 !
b111000010100110011100 !
b1111000010100110011100 !
b101111000010100110011100 !
b101101000010100110011100 !
b101101000010100100011100 !
b101101100010100100011100 !
b101101100010100100010100 !
1m
0l
0j
0h
0f
1b
1[
0Y
1_
1]
1E
1G
0A
1C
1J
0N
0P
0R
0T
1U
17
06
04
02
00
1,
1%
0#
1)
1'
#220000
b101101100010100100000100 !
b101101100010000100000100 !
b111101100010000100000100 !
b111101100010000101000100 !
b111101100010000101000101 !
b111100100010000101000101 !
b111100101010000101000101 !
b111100101010000101000001 !
b111100101010000101100001 !
1o
0m
0k
1j
1i
0d
1`
0Z
1^
1F
0B
1H
0L
1Q
1R
0S
0U
1W
19
07
05
14
13
0.
1*
0$
1(
#225000
b111100101010000001100001 !
b111100111010000001100001 !
b111100111010010001100001 !
b111000111010010001100001 !
b111000111000010001100001 !
b11000111000010001100001 !
b11000111000010011100001 !
b11000111000010011110001 !
b11000111000110011110001 !
b1000111000110011110001 !
b1000111000110011110101 !
1m
1k
1h
0g
1e
1d
0b
1\
0X
0^
0]
0E
0F
0@
1D
0J
1L
1M
0O
1P
1S
1U
17
15
12
01
1/
1.
0,
1&
0"
0(
0'
#230000
b1000111001110011110101 !
b1010111001110011110101 !
b1010011001110011110101 !
b1010011001110010110101 !
b1010011001110010110100 !
b1010011001110010010100 !
b1010011001110110010100 !
b1010001001110110010100 !
b1110001001110110010100 !
b1110001001110110000100 !
b1110001001010110000100 !
b11110001001010110000100 !
b11110001001010110000000 !
0o
0m
0k
0j
0i
1g
0d
1c
0\
0[
1Y
1X
1^
1F
1@
1A
0C
0D
1K
0L
1O
0Q
0R
0S
0U
0W
09
07
05
04
03
11
0.
1-
0&
0%
1#
1"
1(
#235000
b11110001001010110000010 !
b11110000001010110000010 !
b111110000001010110000010 !
b111110000001010100000010 !
b111110000000010100000010 !
b111100000000010100000010 !
b111100000000010101000010 !
b111100000000010001000010 !
b111100010000010001000010 !
b111100010000110001000010 !
b111100010000110001000110 !
1n
1m
1i
0h
0g
1d
0c
0`
1\
0Y
1]
1E
0A
1D
0H
0K
1L
0O
0P
1Q
1U
1V
18
17
13
02
01
1.
0-
0*
1&
0#
1'
#240000
b111100010100110001000110 !
b111100010100111001000110 !
b111100010100111001001110 !
b111100010100111001011110 !
b111100010100111011011110 !
b111100010101111011011110 !
b111110010101111011011110 !
b111110010101111111011110 !
b111110000101111111011110 !
b111110000101111111011010 !
0m
1l
1k
1h
1g
1f
1c
1a
0\
1Y
1A
0D
1I
1K
1N
1O
1P
1S
1T
0U
07
16
15
12
11
10
1-
1+
0&
1#
#245000
b111111000101111111011010 !
b111111000101101111011010 !
b111111000111101111011010 !
b111111100111101111011010 !
b101111100111101111011010 !
b1111100111101111011010 !
b1111100111101110011010 !
b1111100011101110011010 !
b1111100011100110011010 !
b1111100011100110010010 !
b1111100011100100010010 !
b1101100011100100010010 !
b1101100011100000010010 !
b1101110011100000010010 !
0l
0i
0h
0g
0f
0e
1b
0a
1\
1[
1Z
0Y
0^
0]
0E
0F
0A
1B
1C
1D
0I
1J
0M
0N
0O
0P
0Q
0T
06
03
02
01
00
0/
1,
0+
1&
1%
1$
0#
0(
0'
#250000
b101110011100000010010 !
b101110011100000010011 !
b101110011100000110011 !
b1110011100000110011 !
b1110011000000110011 !
b1110011000000110111 !
b110011000000110111 !
b10011000000110111 !
b10011000001110111 !
b10011000011110111 !
b10011000111110111 !
b11000111110111 !
1o
1m
1j
1i
1h
1g
0d
0\
0[
0Z
0X
0_
0G
0@
0B
0C
0D
0L
1O
1P
1Q
1R
1U
1W
19
17
14
13
12
11
0.
0&
0%
0$
0"
0)
#255000
b11000111110101 !
b11010111110101 !
b1010111110101 !
b100000000001010111110101 !
b100010000001010111110101 !
b101010000001010111110101 !
b101010000001010111110100 !
b101110000001010111110100 !
b101111000001010111110100 !
b101111000001010101110100 !
b101111010001010101110100 !
0o
0n
0h
1e
0b
1\
1Z
1Y
1X
1_
1]
1E
1G
1@
1A
1B
1D
0J
1M
0P
0V
0W
09
08
02
1/
0,
1&
1$
1#
1"
1)
1'
#260000
b101111011001010101110100 !
b111111011001010101110100 !
b111111011001010101010100 !
b111111011001010101010000 !
b111111111001010101010000 !
b111111111001010100010000 !
b111111111001010100010010 !
b111011111001010100010010 !
b111011111001010110010010 !
1n
0m
0j
0i
1h
1`
1[
0X
1^
1F
0@
1C
1H
1P
0Q
0R
0U
1V
18
07
04
03
12
1*
1%
0"
1(
