Add8bits/simulation/qsim/Add8its.msim.vcd
$comment
	File created using the following command:
		vcd file Add8its.msim.vcd -direction
$end
$date
	Sun Nov  6 00:36:33 2016
$end
$version
	ModelSim Version 10.4d
$end
$timescale
	1ps
$end

$scope module Suc5bitR_vlg_vec_tst $end
$var reg 6 ! A [5:0] $end
$var wire 1 " Y [5] $end
$var wire 1 # Y [4] $end
$var wire 1 $ Y [3] $end
$var wire 1 % Y [2] $end
$var wire 1 & Y [1] $end
$var wire 1 ' Y [0] $end

$scope module i1 $end
$var wire 1 ( gnd $end
$var wire 1 ) vcc $end
$var wire 1 * unknown $end
$var tri1 1 + devclrn $end
$var tri1 1 , devpor $end
$var tri1 1 - devoe $end
$var wire 1 . Y[5]~output_o $end
$var wire 1 / Y[4]~output_o $end
$var wire 1 0 Y[3]~output_o $end
$var wire 1 1 Y[2]~output_o $end
$var wire 1 2 Y[1]~output_o $end
$var wire 1 3 Y[0]~output_o $end
$var wire 1 4 A[0]~input_o $end
$var wire 1 5 A[4]~input_o $end
$var wire 1 6 A[3]~input_o $end
$var wire 1 7 A[2]~input_o $end
$var wire 1 8 A[1]~input_o $end
$var wire 1 9 A[5]~input_o $end
$var wire 1 : inst1~combout $end
$var wire 1 ; inst2~combout $end
$var wire 1 < inst3~combout $end
$var wire 1 = inst4~combout $end
$var wire 1 > inst5~combout $end
$var wire 1 ? inst6~combout $end
$upscope $end
$upscope $end
$enddefinitions $end
#0
$dumpvars
b0 !
1'
0&
0%
0$
0#
0"
0(
1)
x*
1+
1,
1-
0.
0/
00
01
02
13
04
05
06
07
08
09
0:
0;
0<
0=
0>
0?
$end
#10000
b1 !
14
1?
1>
12
03
0'
1&
#20000
b11 !
b10 !
04
18
0?
13
1'
#30000
b11 !
14
1?
0>
1=
11
02
03
0'
0&
1%
#40000
b111 !
b101 !
b100 !
04
08
17
0?
13
1'
#50000
b101 !
14
1?
1>
12
03
0'
1&
#60000
b111 !
b110 !
04
18
0?
13
1'
#70000
b111 !
14
1?
0>
0=
1<
10
01
02
03
0'
0&
0%
1$
#80000
b1111 !
b1011 !
b1001 !
b1000 !
04
08
07
16
0?
13
1'
#90000
b1001 !
14
1?
1>
12
03
0'
1&
#100000
b1011 !
b1010 !
04
18
0?
13
1'
#110000
b1011 !
14
1?
0>
1=
11
02
03
0'
0&
1%
#120000
b1111 !
b1101 !
b1100 !
04
08
17
0?
13
1'
#130000
b1101 !
14
1?
1>
12
03
0'
1&
#140000
b1111 !
b1110 !
04
18
0?
13
1'
#150000
b1111 !
14
1?
0>
0=
0<
1;
1/
00
01
02
03
0'
0&
0%
0$
1#
#160000
b11111 !
b10111 !
b10011 !
b10001 !
b10000 !
04
08
07
06
15
0?
13
1'
#170000
b10001 !
14
1?
1>
12
03
0'
1&
#180000
b10011 !
b10010 !
04
18
0?
13
1'
#190000
b10011 !
14
1?
0>
1=
11
02
03
0'
0&
1%
#200000
b10111 !
b10101 !
b10100 !
04
08
17
0?
13
1'
#210000
b10101 !
14
1?
1>
12
03
0'
1&
#220000
b10111 !
b10110 !
04
18
0?
13
1'
#230000
b10111 !
14
1?
0>
0=
1<
10
01
02
03
0'
0&
0%
1$
#240000
b11111 !
b11011 !
b11001 !
b11000 !
04
08
07
16
0?
13
1'
#250000
b11001 !
14
1?
1>
12
03
0'
1&
#260000
b11011 !
b11010 !
04
18
0?
13
1'
#270000
b11011 !
14
1?
0>
1=
11
02
03
0'
0&
1%
#280000
b11111 !
b11101 !
b11100 !
04
08
17
0?
13
1'
#290000
b11101 !
14
1?
1>
12
03
0'
1&
#300000
b11111 !
b11110 !
04
18
0>
0=
0<
0;
0/
00
01
02
0&
0%
0$
0#
#310000
b11111 !
14
1:
1.
1"
#320000
b111111 !
b101111 !
b100111 !
b100011 !
b100001 !
b100000 !
04
08
07
06
05
19
0?
13
1'
#330000
b100001 !
14
1?
1>
12
03
0'
1&
#340000
b100011 !
b100010 !
04
18
0?
13
1'
#350000
b100011 !
14
1?
0>
1=
11
02
03
0'
0&
1%
#360000
b100111 !
b100101 !
b100100 !
04
08
17
0?
13
1'
#370000
b100101 !
14
1?
1>
12
03
0'
1&
#380000
b100111 !
b100110 !
04
18
0?
13
1'
#390000
b100111 !
14
1?
0>
0=
1<
10
01
02
03
0'
0&
0%
1$
#400000
b101111 !
b101011 !
b101001 !
b101000 !
04
08
07
16
0?
13
1'
#410000
b101001 !
14
1?
1>
12
03
0'
1&
#420000
b101011 !
b101010 !
04
18
0?
13
1'
#430000
b101011 !
14
1?
0>
1=
11
02
03
0'
0&
1%
#440000
b101111 !
b101101 !
b101100 !
04
08
17
0?
13
1'
#450000
b101101 !
14
1?
1>
12
03
0'
1&
#460000
b101111 !
b101110 !
04
18
0?
13
1'
#470000
b101111 !
14
1?
0>
0=
0<
1;
1/
00
01
02
03
0'
0&
0%
0$
1#
#480000
b111111 !
b110111 !
b110011 !
b110001 !
b110000 !
04
08
07
06
15
0?
13
1'
#490000
b110001 !
14
1?
1>
12
03
0'
1&
#500000
b110011 !
b110010 !
04
18
0?
13
1'
#510000
b110011 !
14
1?
0>
1=
11
02
03
0'
0&
1%
#520000
b110111 !
b110101 !
b110100 !
04
08
17
0?
13
1'
#530000
b110101 !
14
1?
1>
12
03
0'
1&
#540000
b110111 !
b110110 !
04
18
0?
13
1'
#550000
b110111 !
14
1?
0>
0=
1<
10
01
02
03
0'
0&
0%
1$
#560000
b111111 !
b111011 !
b111001 !
b111000 !
04
08
07
16
0?
13
1'
#570000
b111001 !
14
1?
1>
12
03
0'
1&
#580000
b111011 !
b111010 !
04
18
0?
13
1'
#590000
b111011 !
14
1?
0>
1=
11
02
03
0'
0&
1%
#600000
b111111 !
b111101 !
b111100 !
04
08
17
0?
13
1'
#610000
b111101 !
14
1?
1>
12
03
0'
1&
#620000
b111111 !
b111110 !
04
18
0>
0=
0<
0;
0:
0.
0/
00
01
02
0&
0%
0$
0#
0"
#630000
b111111 !
14
#640000
b11111 !
b1111 !
b111 !
b11 !
b1 !
b0 !
04
08
07
06
05
09
0?
13
1'
#650000
b1 !
14
1?
1>
12
03
0'
1&
#660000
b11 !
b10 !
04
18
0?
13
1'
#670000
b11 !
14
1?
0>
1=
11
02
03
0'
0&
1%
#680000
b111 !
b101 !
b100 !
04
08
17
0?
13
1'
#690000
b101 !
14
1?
1>
12
03
0'
1&
#700000
b111 !
b110 !
04
18
0?
13
1'
#710000
b111 !
14
1?
0>
0=
1<
10
01
02
03
0'
0&
0%
1$
#720000
b1111 !
b1011 !
b1001 !
b1000 !
04
08
07
16
0?
13
1'
#730000
b1001 !
14
1?
1>
12
03
0'
1&
#740000
b1011 !
b1010 !
04
18
0?
13
1'
#750000
b1011 !
14
1?
0>
1=
11
02
03
0'
0&
1%
#760000
b1111 !
b1101 !
b1100 !
04
08
17
0?
13
1'
#770000
b1101 !
14
1?
1>
12
03
0'
1&
#780000
b1111 !
b1110 !
04
18
0?
13
1'
#790000
b1111 !
14
1?
0>
0=
0<
1;
1/
00
01
02
03
0'
0&
0%
0$
1#
#800000
b11111 !
b10111 !
b10011 !
b10001 !
b10000 !
04
08
07
06
15
0?
13
1'
#810000
b10001 !
14
1?
1>
12
03
0'
1&
#820000
b10011 !
b10010 !
04
18
0?
13
1'
#830000
b10011 !
14
1?
0>
1=
11
02
03
0'
0&
1%
#840000
b10111 !
b10101 !
b10100 !
04
08
17
0?
13
1'
#850000
b10101 !
14
1?
1>
12
03
0'
1&
#860000
b10111 !
b10110 !
04
18
0?
13
1'
#870000
b10111 !
14
1?
0>
0=
1<
10
01
02
03
0'
0&
0%
1$
#880000
b11111 !
b11011 !
b11001 !
b11000 !
04
08
07
16
0?
13
1'
#890000
b11001 !
14
1?
1>
12
03
0'
1&
#900000
b11011 !
b11010 !
04
18
0?
13
1'
#910000
b11011 !
14
1?
0>
1=
11
02
03
0'
0&
1%
#920000
b11111 !
b11101 !
b11100 !
04
08
17
0?
13
1'
#930000
b11101 !
14
1?
1>
12
03
0'
1&
#940000
b11111 !
b11110 !
04
18
0>
0=
0<
0;
0/
00
01
02
0&
0%
0$
0#
#950000
b11111 !
14
1:
1.
1"
#960000
b111111 !
b101111 !
b100111 !
b100011 !
b100001 !
b100000 !
04
08
07
06
05
19
0?
13
1'
#970000
b100001 !
14
1?
1>
12
03
0'
1&
#980000
b100011 !
b100010 !
04
18
0?
13
1'
#990000
b100011 !
14
1?
0>
1=
11
02
03
0'
0&
1%
