Add8bits/simulation/qsim/Add8its.msim.vcd
$comment
	File created using the following command:
		vcd file Add8its.msim.vcd -direction
$end
$date
	Wed Nov  2 21:48:59 2016
$end
$version
	ModelSim Version 10.4d
$end
$timescale
	1ps
$end

$scope module Add8bits_vlg_vec_tst $end
$var reg 8 ! A [7:0] $end
$var reg 8 " B [7:0] $end
$var wire 1 # Cout $end
$var wire 1 $ S [7] $end
$var wire 1 % S [6] $end
$var wire 1 & S [5] $end
$var wire 1 ' S [4] $end
$var wire 1 ( S [3] $end
$var wire 1 ) S [2] $end
$var wire 1 * S [1] $end
$var wire 1 + S [0] $end

$scope module i1 $end
$var wire 1 , gnd $end
$var wire 1 - vcc $end
$var wire 1 . unknown $end
$var tri1 1 / devclrn $end
$var tri1 1 0 devpor $end
$var tri1 1 1 devoe $end
$var wire 1 2 Cout~output_o $end
$var wire 1 3 S[7]~output_o $end
$var wire 1 4 S[6]~output_o $end
$var wire 1 5 S[5]~output_o $end
$var wire 1 6 S[4]~output_o $end
$var wire 1 7 S[3]~output_o $end
$var wire 1 8 S[2]~output_o $end
$var wire 1 9 S[1]~output_o $end
$var wire 1 : S[0]~output_o $end
$var wire 1 ; A[7]~input_o $end
$var wire 1 < B[7]~input_o $end
$var wire 1 = A[6]~input_o $end
$var wire 1 > B[6]~input_o $end
$var wire 1 ? A[5]~input_o $end
$var wire 1 @ B[5]~input_o $end
$var wire 1 A inst6|inst1~combout $end
$var wire 1 B A[4]~input_o $end
$var wire 1 C B[4]~input_o $end
$var wire 1 D A[3]~input_o $end
$var wire 1 E B[3]~input_o $end
$var wire 1 F A[2]~input_o $end
$var wire 1 G B[2]~input_o $end
$var wire 1 H A[1]~input_o $end
$var wire 1 I B[1]~input_o $end
$var wire 1 J A[0]~input_o $end
$var wire 1 K B[0]~input_o $end
$var wire 1 L inst30|inst6~0_combout $end
$var wire 1 M inst6|inst6~0_combout $end
$var wire 1 N inst6|inst6~1_combout $end
$var wire 1 O inst1~0_combout $end
$var wire 1 P inst8|inst3~combout $end
$var wire 1 Q inst7|inst3~combout $end
$var wire 1 R inst6|inst3~0_combout $end
$var wire 1 S inst6|inst3~combout $end
$var wire 1 T inst5|inst3~combout $end
$var wire 1 U inst4|inst3~combout $end
$var wire 1 V inst30|inst3~combout $end
$var wire 1 W inst|inst3~combout $end
$var wire 1 X inst2|inst2~combout $end
$upscope $end
$upscope $end
$enddefinitions $end
#0
$dumpvars
b11101000 !
b1001010 "
0#
0+
1*
0)
0(
1'
1&
0%
0$
0,
1-
x.
1/
10
11
02
03
04
15
16
07
08
19
0:
1;
0<
1=
1>
1?
0@
0A
0B
0C
1D
1E
0F
0G
0H
1I
0J
0K
0L
0M
0N
0O
0P
0Q
1R
1S
1T
0U
0V
1W
0X
$end
#5000
b1101000 !
b101000 !
b111000 !
b110000 !
b110100 !
b110110 !
b1101010 "
b1100010 "
b1100110 "
b1100100 "
0I
1G
0E
1@
1H
1F
0D
1B
0=
0;
1L
0R
1A
1Q
14
1%
0Q
1P
1O
0S
1U
17
05
12
13
04
0%
1$
1#
0&
1(
#10000
b100100 "
b110100 "
b110101 "
b1110110 !
b1100110 !
b1101110 !
b1101100 !
b10101 "
b10111 "
0H
1D
0B
1=
1K
1I
1C
0@
0>
1R
0A
1N
0T
1S
1X
0U
07
1:
15
06
0'
1&
1+
0(
0S
05
0&
#15000
b11101100 !
b11101000 !
b11111 "
b1011111 "
b1001111 "
b11111000 !
b11110000 !
b11110010 !
b1101111 "
1E
0C
1@
1>
1H
0F
0D
1B
1;
0R
1A
0P
0O
0W
1Q
14
09
02
03
0$
0#
0*
1%
1S
15
1&
#20000
b11110011 !
b11101111 "
b11101110 "
b11110111 !
b10101110 "
b11100111 !
b11100101 !
b10001110 "
0K
0@
0>
1<
1J
0H
1F
0B
0N
1R
0A
1T
0S
1W
1P
0Q
04
13
19
05
16
1'
0&
1*
1$
0%
1Q
0P
1O
1S
15
12
03
14
1%
0$
1#
1&
#25000
b11000101 !
b10001010 "
b10000101 !
b10001101 !
b10001100 !
b1010 "
b10001000 !
b1001010 "
b10011000 !
b10011010 !
b1101010 "
0G
1@
1>
0<
0J
1H
0F
1D
1B
0?
0=
1N
0L
1P
0O
0T
0S
1U
1V
0W
0X
0:
09
18
17
05
06
02
13
1$
0#
0'
0&
1(
1)
0*
0+
0U
0Q
0P
03
04
07
0(
0%
0$
#30000
b1100010 "
b1110010 "
b1110011 "
b1110111 "
b10011011 !
b10011111 !
b110111 "
b10001111 !
b10001101 !
1J
0H
1F
0B
1K
1G
0E
1C
0>
0N
1L
1Q
1P
1T
1S
1U
17
15
16
13
14
1N
1%
1$
1'
1&
1(
0U
0T
0S
0Q
04
05
06
07
0(
0'
0&
0%
1Q
14
1%
#35000
b1101 !
b101 !
b110011 "
b100 !
b1110011 "
b10100 !
b10110 !
0G
1>
0J
1H
0D
1B
0;
1O
1U
0V
1X
0Q
04
1:
08
17
12
1#
1(
0)
1+
0%
#40000
b1010110 !
b1100011 "
b1100111 "
b1000110 !
1G
0C
0B
1=
0N
1Q
1S
1V
18
15
14
1%
1&
1)
0Q
04
0%
#45000
b1100101 "
b11100101 "
b11100100 "
b1000010 !
b11000010 !
b11000011 !
b11000001 !
b10000001 !
b11110100 "
b10010001 !
1J
0H
0F
1B
0=
1;
0K
0I
1C
1<
1N
0L
0P
0S
1Q
14
05
03
0$
0&
1%
0U
0Q
1P
0O
02
13
04
07
0(
0%
1$
0#
#50000
b11010100 "
b10010100 "
b10010110 "
b10110 "
b10010101 !
1F
1I
0@
0>
0<
0R
1M
1L
1Q
1W
0V
08
19
14
0N
1%
1*
0)
1U
1S
15
17
1(
1&
0Q
04
0%
#55000
b10010 "
b10010100 !
b10 "
b0 "
0J
0I
0G
0C
0L
1T
0S
1V
0W
0X
0:
09
18
05
16
1'
0&
1)
0*
0+
0U
07
0(
#60000
b10110100 !
b10111100 !
b111100 !
b111110 !
b1111110 !
b1101110 !
b100000 "
b100010 "
1I
1@
1H
1D
0B
1?
1=
0;
0M
1A
1L
0P
1Q
0T
1U
0V
08
17
06
14
03
0$
1%
0'
1(
0)
0U
1T
0Q
1P
1O
12
13
04
16
07
0(
1'
0%
1$
1#
#65000
b1101111 !
b110010 "
b1100111 !
b11100111 !
b11100101 !
b11110101 !
1C
1J
0H
0D
1B
1;
1N
0L
0P
0O
0T
1S
1U
1W
1V
1X
1:
18
19
17
15
06
02
03
0$
0#
0'
1&
1(
1*
1)
1+
0U
07
0(
#70000
b10110010 "
b11110001 !
b11010001 !
b10010010 "
b11010000 !
b11000000 !
0J
0F
0B
0?
0@
1<
1M
0A
0N
1P
1T
0S
0V
0X
0:
08
05
16
13
1$
1'
0&
0)
0+
1Q
0P
1O
12
03
14
1%
0$
1#
#75000
b10011010 "
b10011110 "
b10000000 !
b10000010 !
b11110 "
b10000110 !
b10100110 !
b111110 "
1H
1F
1?
0=
1G
1E
1@
0<
0M
1A
1L
1P
0O
1U
1V
0Q
0W
09
04
18
17
02
13
1N
1$
0#
1(
1)
0%
0*
0U
0T
1S
1Q
14
15
06
07
0(
0'
1&
1%
#80000
b111111 "
b1111111 "
b1111101 "
b100110 !
b1110101 "
b1110001 "
b1100110 !
b1100100 !
b11110001 "
b1100000 !
b11010001 "
0H
0F
1=
0;
1K
0I
0G
0E
0@
1>
1<
1R
0A
0N
0L
0P
1U
1T
0S
0V
1X
1:
08
05
16
17
03
0$
1(
1'
0&
0)
1+
0U
1S
0Q
04
15
07
0(
1&
0%
#85000
b11000001 "
b1100001 !
b1110001 !
b1010001 !
b11000000 "
b11001000 "
b1010011 !
b1001000 "
b1010111 !
1J
1H
1F
1B
0?
0K
1E
0C
0<
0R
1M
1P
1O
1U
1W
1V
18
19
17
12
13
1$
1#
1(
1*
1)
0S
05
0&
#90000
b1000 "
b1100 "
b10111 !
b11100 "
b111 !
b101 !
b10011100 "
b1 !
0H
0F
0B
0=
1G
1C
0>
1<
0O
0W
09
02
0#
0*
#95000
b1001 !
b10001001 !
b10111100 "
b10001000 !
b10101000 !
b10111101 "
b10110101 "
b10110001 "
b11101000 !
b10100001 "
b11111000 !
1K
0G
0E
0C
1@
0J
1D
1B
1?
1=
1;
0M
1A
0P
1O
1Q
0V
08
14
12
03
0$
1#
1%
0)
0Q
1P
0O
02
13
04
0%
1$
0#
#100000
b10100011 "
b11111010 !
b100011 "
b11110010 !
b11 "
b11110011 !
1J
1H
0D
1I
0@
0<
1R
0A
0P
1W
1V
0U
0X
0:
07
18
19
03
0$
1*
1)
0(
0+
1Q
1P
1S
15
13
14
1%
1$
1&
#105000
b1110011 !
b10 "
b1010 "
b11010 "
b1100011 !
b10011010 "
0K
1E
1C
1<
0B
0;
1U
1X
0W
09
1:
17
1(
1+
0*
#110000
b11011010 "
b1000011 !
b11011110 "
b11 !
b1 !
b1001 !
b1000 !
b11001110 "
b11000 !
b1001110 "
0J
0H
1D
1B
0?
0=
1G
0C
1>
0<
1N
0R
1M
0P
0T
0S
0U
1W
0X
0:
19
07
05
06
03
0N
0$
0'
0&
0(
1*
0+
1S
0Q
1P
1O
12
13
04
15
1&
0%
1$
1#
1Q
0P
0O
02
03
14
1%
0$
0#
#115000
b11100 !
b1001100 "
b1101100 "
b1101101 "
b1100101 "
b100101 "
b100001 "
b1011100 !
b1011110 !
b1010110 !
b110001 "
b10110001 "
1K
0I
0G
0E
1C
1@
0>
1<
1H
1F
0D
1=
1R
0M
1P
1X
1:
13
1N
1$
1+
0S
05
0&
0Q
0P
03
04
0%
0$
#120000
b1010111 !
b1000111 !
b11110001 "
b111 !
b101 !
b11100001 "
0C
1>
1J
0H
0B
0=
0N
1S
0X
0:
15
1&
0+
1Q
1P
13
14
1%
1$
#125000
b11100011 "
b11100111 "
b1101 !
b10100111 "
b1001101 !
b10110111 "
1D
1=
1I
1G
1C
0>
1L
1T
0W
1U
17
09
16
1N
1'
0*
1(
0U
0T
0S
05
06
07
0(
0'
0&
0Q
0P
03
04
0%
0$
#130000
b1101101 !
b10010111 "
b10111 "
b1101111 !
b10101 "
b1100111 !
b1010101 "
b100111 !
0I
0@
1>
0<
1H
0D
1?
0=
0N
1P
1O
1U
1T
1S
15
16
17
12
13
1$
1#
1(
1'
1&
1Q
0P
0O
02
03
14
1%
0$
0#
#135000
b10100111 !
b10100011 !
b1010100 "
b1011100 "
b10100010 !
b10110010 !
b1011000 "
b1001000 "
b1101000 "
b11101000 "
b10111010 !
b10101000 "
0K
0G
1E
0C
1@
0>
1<
0J
0F
1D
1B
1;
1N
0L
0R
1A
1O
0T
0S
0V
1W
0Q
04
19
08
05
06
12
1#
0'
0&
0)
1*
0%
1Q
1S
0U
07
15
14
1%
1&
0(
#140000
b10011010 !
b10011000 !
b10101010 "
b11011000 !
b10101011 "
b10100011 "
b11011001 !
b11001001 !
b10100111 "
b100111 "
b11000001 !
1K
1I
1G
0E
0<
1J
0H
0D
0B
0?
1=
1R
0A
0N
1L
0Q
0O
0S
0W
09
05
02
04
0%
0#
0&
0*
1U
1S
1Q
1P
13
14
15
17
1(
1&
1%
1$
#145000
b1000001 !
b110111 "
b10111 "
b1010111 "
b1000011 !
b1010101 "
b11 !
b1010100 "
b1011100 "
b1011000 "
b1011 !
0K
0I
0G
1E
1C
0@
1>
1H
1D
0=
0;
1N
0L
0R
1M
0P
0S
1W
1X
1:
19
05
03
0N
0$
0&
1*
1+
1S
0U
0Q
1P
1O
12
13
04
07
15
1&
0(
0%
1$
1#
1Q
0P
0O
02
03
14
1%
0$
0#
#150000
b1111 !
b11111 !
b1111000 "
b11101 !
b1111100 "
1G
1@
0H
1F
1B
1L
1R
0M
1T
0W
09
16
1N
1'
0*
0S
1U
17
05
0&
1(
0Q
1P
1O
12
13
04
0%
1$
1#
#155000
b111101 !
b111100 !
b10111100 !
b1101100 "
b101100 "
b101110 "
b11111100 !
b101111 "
b11111000 !
b11101000 !
b1111 "
b1011 "
1K
1I
0G
0C
0@
0>
0J
0F
0B
1?
1=
1;
0N
0L
0P
0O
1S
1W
19
15
02
03
0$
0#
1&
1*
0U
1Q
1P
13
14
07
0(
1%
1$
#160000
b10001011 "
b11101001 !
b10011011 "
b11111001 !
b10111011 "
1J
1B
1C
1@
1<
0R
1A
1N
0P
1O
0S
0X
0W
1V
18
09
0:
05
12
03
0$
1#
0&
0+
0*
1)
0Q
1P
0O
1S
15
02
13
04
0%
1$
0#
1&
#165000
b10110011 "
b11110001 !
b1110001 !
b11110011 "
b1110101 !
b1110100 !
0J
1F
0D
0;
0E
1>
1Q
0P
0T
1X
1W
19
1:
06
03
14
1%
0$
0'
1+
1*
#170000
b1110110 !
b1010110 !
b11110001 "
b1110001 "
b1000110 !
b1010001 "
b1011001 "
b1001110 !
b11001 "
b1001111 !
0I
1E
0@
0>
0<
1J
1H
1D
0B
0?
1M
0A
1L
0W
0V
0X
1P
1O
0Q
04
12
13
0:
08
09
0N
0*
0)
0+
1$
1#
0%
1U
17
1(
1Q
0P
0O
02
03
14
1%
0$
0#
#175000
b1111 !
b11000 "
b11100 "
b10001111 !
b10001011 !
b10001001 !
b10101001 !
b11110 "
b10011110 "
b10111001 !
b10111110 "
b10110001 !
b11111110 "
b10110000 !
0K
1I
1G
1@
1>
1<
0J
0H
0F
0D
1B
1?
0=
1;
0M
1A
0L
1O
1T
0U
1V
1W
19
18
07
16
12
1N
1#
1'
0(
1)
1*
1U
0T
0Q
1P
0O
02
13
04
06
17
1(
0'
0%
1$
0#
#180000
b11111010 "
b110000 !
b110100 !
b110110 !
b10110 !
b11011010 "
1H
1F
0?
0;
0G
0@
1M
0A
1L
0V
0P
0W
09
03
08
0N
0)
0$
0*
0U
1T
16
07
0(
1'
1Q
1P
13
14
1%
1$
#185000
b11011011 "
b110 !
b111 !
b11 !
b100011 !
b11111011 "
1J
0F
0B
1?
1K
1@
0M
1A
0L
1W
1V
0T
06
18
19
1*
1)
0'
1U
1T
0S
0Q
0P
03
04
05
16
17
1(
1'
0&
0%
0$
#190000
b1100011 !
b11111001 "
b1111001 "
b1101011 !
b111001 "
b111101 "
b11101011 !
b11111011 !
b11111111 !
b11101 "
0I
1G
0@
0>
0<
1F
1D
1B
1=
1;
1N
1L
1R
0A
1S
0U
0W
09
07
15
1&
0(
0*
0S
1U
17
05
0&
1(
#195000
b10101 "
b11111101 !
b11111100 !
b11011100 !
b10111 "
b10010111 "
b11010100 !
b11010111 "
b11010011 "
b11000100 !
b11000000 !
0J
0H
0F
0D
0B
0?
1I
0G
0E
1>
1<
0N
0L
0R
1M
1P
1Q
1S
0V
1W
1X
1:
19
08
15
14
13
1$
1%
1&
0)
1*
1+
0S
0U
0Q
04
07
05
0&
0(
0%
#200000
b10000000 !
b0 !
b11110011 "
b11111011 "
b10 !
b100010 !
b11111001 "
b101010 !
b10111001 "
0I
1E
1@
0>
1H
1D
1?
0=
0;
0M
1A
0T
1S
15
06
1N
0'
1&
1Q
14
1%
#205000
b101011 !
b111011 !
b111111 !
b1111111 !
b10011001 "
b1111101 !
b1011101 !
b1010101 !
0@
1J
0H
1F
0D
1B
0?
1=
1M
0A
0Q
0P
1U
1V
0X
0:
18
17
03
04
0N
0%
0$
1(
1)
0+
1Q
1P
13
14
1%
1$
#210000
b10001001 "
b1001 "
b1101 "
b1111 "
b1001111 "
b1010100 !
b10100 !
b10110 !
b110110 !
b111110 !
0J
1H
1D
1?
0=
1I
1G
0C
1>
0<
1L
1R
0M
0P
0W
0U
1X
1:
07
09
03
1N
0$
0*
0(
1+
0S
1U
17
05
0&
1(
0Q
1P
1O
12
13
04
0%
1$
1#
#215000
b10111110 !
b1000111 "
b10111010 !
b1100111 "
b1110111 "
b11110111 "
b11110011 "
b11110001 "
b10111011 !
b11111011 !
b11111001 !
b11011001 !
0I
0G
0E
1C
1@
1<
1J
0H
0F
0?
1=
1;
0L
0O
1Q
0V
1W
0X
1T
0U
07
16
0:
19
08
14
02
0#
1%
0)
1*
0+
1'
0(
1U
0T
06
17
1(
0'
#220000
b11110000 "
b11001001 !
b10110000 "
b11001101 !
b10110100 "
b11001100 !
b11001110 !
0J
1H
1F
0B
0K
1G
0>
1L
0N
0Q
1T
1S
15
16
04
1N
0%
1'
1&
1Q
0P
1O
0U
0T
0S
05
06
07
12
03
14
1%
0$
1#
0(
0'
0&
0Q
1P
0O
02
13
04
0%
1$
0#
#225000
b1001110 !
b10100100 "
b100100 "
b1101110 !
b100101 "
b1100101 "
b1100001 "
1K
0G
0C
1>
0<
1?
0;
0R
1A
0N
0L
1O
1Q
1T
1S
1V
1X
1:
18
15
16
14
12
1#
1%
1'
1&
1)
1+
1U
0T
0S
05
06
17
1(
0'
0&
#230000
b1100110 !
b1000001 "
b100110 !
b110110 !
b110010 !
b10010 !
b1 "
b101 "
1G
0@
0>
0F
0D
1B
0?
0=
1M
0A
0P
0O
1T
0U
07
16
02
03
0$
0#
1'
0(
0Q
04
0%
#235000
b10011 !
b10010011 !
b10000101 "
b10000100 "
b11010011 !
b11000011 !
b11000100 "
b11000000 "
0K
0G
1>
1<
1J
0B
1=
1;
1P
0T
0V
08
06
13
1$
0'
0)
#240000
b11001000 "
b11001010 "
b11101010 "
b11000010 !
b11101011 "
b10000010 !
b10010010 !
b10101011 "
0J
1B
0=
1K
1I
1E
1@
0>
1R
0M
0P
1O
1U
1T
0W
1V
18
09
16
17
12
03
0$
1#
1(
1'
0*
1)
1S
15
1&
#245000
b10111011 "
b10010110 !
b10111111 "
b10011111 "
b10011110 "
b10000110 !
1F
0B
0K
1G
1C
0@
0R
1M
1L
0X
0:
0+
0U
0T
06
07
0(
0'
#250000
b10001110 !
b10101110 !
b11110 "
b11100 "
b10101111 !
b11101111 !
b1011100 "
0I
1>
0<
1J
1D
1?
1=
1R
0M
0O
1U
1X
1W
0V
08
19
1:
17
02
1N
0#
1(
1+
1*
0)
0S
05
0&
1Q
14
1%
#255000
b11101101 !
b11101001 !
b1111100 "
b1111101 "
b111101 "
1K
1@
0>
0H
0F
0L
0R
1A
1V
0Q
0X
0:
04
18
1)
0%
0+
1S
0U
07
15
1&
0(
#260000
b101101 "
b11111001 !
b11110001 !
b11010001 !
b10101101 "
b10010001 !
b10010101 !
b10001101 "
b10001100 "
b11001100 "
1F
0D
1B
0?
0=
0K
0C
0@
1>
1<
1M
0A
0N
1L
1P
1T
0S
1X
0W
0V
1U
17
08
09
1:
05
16
13
1$
1'
0&
1+
0*
0)
1(
0U
0T
1S
1Q
0P
1O
12
03
14
15
06
07
0(
0'
1&
1%
0$
1#
#265000
b11000100 "
b11000000 "
b11000010 "
b10010100 !
b10010110 !
b10011110 !
b10111110 !
b1000010 "
b10111010 !
b1100010 "
b100010 "
0J
1H
0F
1D
1?
1I
0G
0E
1@
0>
0<
0M
1A
0L
1P
0O
0Q
1V
0X
0:
18
04
02
13
1$
0#
0%
1)
0+
1U
1T
0S
1Q
14
05
16
17
1(
1'
0&
1%
#270000
b111010 !
b110010 "
b101010 !
b110110 "
b101000 !
b100000 !
b0 !
b10110110 "
b100 !
b10010110 "
b11010110 "
1G
1C
0@
1>
1<
0H
1F
0D
0B
0?
0;
1M
0A
1L
0P
0U
0V
1W
0Q
04
19
08
07
03
0$
0(
0)
1*
0%
1U
1Q
1P
13
14
17
1(
1%
1$
#275000
b101 !
b10000101 !
b10010101 !
b10010111 !
b10010110 "
0>
1J
1H
1B
1;
0P
1O
0T
1S
0W
1V
1X
0Q
04
1:
18
09
15
06
12
03
0$
1#
0'
1&
0*
1)
1+
0%
#280000
b11010111 !
b10010100 "
b10000100 "
b11011111 !
b100 "
b11011011 !
b100100 "
b11011010 !
b1011010 !
b1001010 !
b1001000 !
b1100100 "
0I
0C
1@
1>
0<
0J
0H
0F
1D
0B
1=
0;
0L
1R
0M
1P
1T
0S
0U
0X
0:
07
05
16
13
1$
1'
0&
0(
0+
1S
1U
0T
06
17
15
1&
1(
0'
#285000
b1100101 "
b1100001 "
b1100011 "
b1000000 !
b1000011 "
b11000000 !
b11010000 !
b11010010 !
b11 "
1H
0D
1B
1;
1K
1I
0G
0@
0>
0R
1M
1Q
0O
1X
1T
0U
07
16
1:
02
14
1%
0#
1+
1'
0(
0S
05
0&
#290000
b1011 "
b11110010 !
b10110010 !
b11011 "
b10011011 "
b10011010 "
b10011110 "
b10011100 "
b11011100 "
1?
0=
0K
0I
1G
1E
1C
1>
1<
1R
0M
0P
1O
0T
1S
1U
1W
0X
0:
19
17
15
06
12
03
1N
0$
1#
0'
1&
1(
1*
0+
0S
05
0&
0Q
1P
0O
02
13
04
0%
1$
0#
#295000
b10110110 !
b10110111 !
b10111111 !
b111111 !
b1111111 !
b11001100 "
b1001100 "
b1100 "
0C
0>
0<
1J
1F
1D
1=
0;
1L
1O
0U
0V
1X
1:
08
07
12
1#
0(
0)
1+
1U
17
1(
#300000
b1101111 !
b1101101 !
b1101 "
b1111 "
b1101100 !
b1100100 !
b100100 !
1K
1I
0J
0H
0D
0B
0=
0N
1Q
0P
0O
1T
1S
0U
07
15
16
02
03
14
1%
0$
0#
1'
1&
0(
0Q
04
0%
#305000
b100 !
b11111 "
b10011111 "
b10100 !
b10110 !
b10011110 "
b10011100 "
b10111 !
b1010111 !
0K
0I
1C
1<
1J
1H
1B
0?
1=
0R
1M
1N
1Q
1P
0S
05
13
14
0N
1%
1$
0&
0Q
0P
1S
15
03
04
0%
0$
1&
1Q
1P
13
14
1%
1$
#310000
b10011000 "
b1010011 !
b11010011 !
b11011000 "
b11110011 !
b1011000 "
b1011001 "
b10110011 !
0F
1?
0=
1;
1K
0G
1>
0<
0L
1R
0M
1V
0X
0W
09
0:
18
1N
1)
0+
0*
0S
1U
0T
06
17
05
0&
1(
0'
0Q
0P
03
04
0%
0$
#315000
b1010001 "
b10111011 !
b1000001 "
b10101011 !
b10101001 !
b1000011 "
b10101000 !
b101000 !
b11 "
b10000011 "
b10000010 "
b1101000 !
0J
0H
1D
0B
1=
0;
0K
1I
0E
0C
0>
1<
0N
1S
1W
0V
08
19
15
1&
1*
0)
1Q
1P
13
14
1%
1$
#320000
b10100010 "
b10100110 "
b1101100 !
b1001100 !
b10101110 "
b1000100 !
b1010100 !
b1010110 !
b101110 "
b101111 "
1H
1F
0D
1B
0?
1K
1G
1E
1@
0<
1L
0P
1T
1V
1X
0W
09
1:
18
16
03
1N
0$
1'
1)
1+
0*
0U
0T
0S
05
06
07
0(
0'
0&
0Q
1P
1O
12
13
04
0%
1$
1#
#325000
b111111 "
b1010111 !
b11010111 !
b1111111 "
b10010111 !
b10010011 !
b10010001 !
b1111110 "
1J
0H
0F
0=
1;
0K
1C
1>
0L
0P
0O
1T
1W
19
16
02
03
0$
0#
1'
1*
1U
0T
06
17
1(
0'
#330000
b1011110 "
b10010000 !
b10010010 !
b1011111 "
0J
1H
1K
0@
0R
1M
1L
0W
0V
08
09
0N
0*
0)
0U
1T
1S
15
16
07
0(
1'
1&
1Q
1P
13
14
1%
1$
#335000
b1011101 "
b1011001 "
b10011010 !
b11010 !
b11110 !
b11111 !
b11101 !
1J
0H
1F
1D
0;
0I
0G
0L
1V
1W
0P
1U
0X
0:
17
03
19
18
1)
1*
0$
1(
0+
0U
07
0(
#340000
b111101 !
b101101 !
b11011001 "
b11001001 "
b10001001 "
b1101101 !
b10001011 "
b10001111 "
b1100101 !
b1100111 !
1I
1G
0C
0>
1<
1H
0D
0B
1?
1=
1R
0M
1L
1P
0T
0S
1U
17
05
06
13
1$
0'
0&
1(
0U
1T
1S
15
16
07
0(
1'
1&
#345000
b10000111 "
b10000110 "
b1100011 !
b110 "
b10110 "
b100011 !
b10100 "
0F
0=
0K
0I
0E
1C
0<
0L
0P
1U
1X
0Q
04
1:
17
03
0$
1(
1+
0%
0U
07
0(
#350000
b10100011 !
b10000 "
b10101011 !
b10001 "
b11101011 !
b10011 "
1K
1I
0G
1D
1=
1;
1P
1Q
1U
0X
0:
17
14
13
1$
1%
1(
0+
#355000
b11001011 !
b1010011 "
b11001111 !
b1010111 "
b1010110 "
0K
1G
1>
1F
0?
0R
1M
1L
0Q
0P
1X
0W
09
1:
03
04
0%
0$
1+
0*
0U
0T
06
07
0(
0'
#360000
b1110110 "
b11011111 !
b11011101 !
b1111110 "
b1101110 "
b11010101 !
b11110101 !
b1101010 "
b1101011 "
0H
0D
1B
1?
1K
0G
1E
0C
1@
0M
1A
0V
0X
0:
08
1N
0)
0+
1Q
14
1%
#365000
b11110100 !
b11101011 "
b1110100 !
b1110000 !
b11001011 "
b1100000 !
b1100010 !
b11000011 "
b11000111 "
1G
0E
0@
1<
0J
1H
0F
0B
0;
0N
1R
0A
0S
1X
1U
17
1:
05
0&
1+
1(
0Q
1S
15
04
0%
1&
#370000
b100010 !
b11000101 "
b10000101 "
b10010101 "
b101010 !
b1010 !
b10010100 "
b1011 !
b10001011 !
b10001111 !
b10001101 !
b10011100 "
b10011000 "
0K
0I
0G
1E
1C
0>
1J
0H
1F
1D
0?
0=
1;
0R
1M
1N
0L
1O
0S
1V
18
05
12
0N
1#
0&
1)
0U
1S
1Q
14
15
07
0(
1&
1%
0Q
04
0%
#375000
b11000 "
b11001101 !
b1011000 "
b1011001 "
b11001001 !
b1010001 "
b1010101 "
0F
1=
1K
1G
0E
1>
0<
0O
1U
1T
0S
0X
1W
19
0:
05
16
17
02
0#
1(
1'
0&
0+
1*
#380000
b1010111 "
b1000111 "
b11000001 !
b11100001 !
b11000111 "
b10100001 !
b10000111 "
b10000110 "
b10100101 !
b10000010 "
1F
0D
1?
0=
0K
1I
0G
0C
0>
1<
1R
0M
1O
0T
1X
0U
07
1:
06
12
1#
0'
1+
0(
1S
15
1&
#385000
b10110101 !
b110101 !
b10001010 "
b10011010 "
b111101 !
b11101 !
b1011101 !
b10011011 "
b10011111 "
1K
1G
1E
1C
1D
1B
0?
1=
0;
0R
1M
1N
1L
1P
0O
1Q
1T
0S
0X
0W
09
0:
05
16
14
02
13
0N
1$
0#
1%
1'
0&
0+
0*
1U
1S
0Q
0P
03
04
15
17
1(
1&
0%
0$
1Q
1P
13
14
1%
1$
#390000
b1011111 !
b10011101 "
b11101 "
b1011011 !
b1001011 !
b11001011 !
b1101 "
b11000011 !
b11100011 !
b1100 "
0K
0I
0C
0<
1H
0F
0D
0B
1?
1;
1R
0M
0L
0S
0U
1W
1X
1:
19
07
05
0&
0(
1*
1+
1U
0T
1S
15
06
17
1(
0'
1&
#395000
b101100 "
b1101100 "
b1100100 "
b1100000 "
b11100001 !
b1100010 "
b11100101 !
b11110101 !
b1110010 "
b11111101 !
b1110011 "
0H
1F
1D
1B
1K
1I
0G
0E
1C
1@
1>
0R
1A
1N
1L
0Q
0P
0S
0V
0W
0X
0:
09
08
05
03
04
0%
0$
0&
0)
0*
0+
0U
1T
1S
1Q
14
15
16
07
0(
1'
1&
1%
#400000
b11111100 !
b10111100 !
b11110011 "
b10011100 !
b11010011 "
b10010011 "
b10011011 "
b10011111 "
b10001111 "
b10010100 !
1G
1E
0C
0@
0>
1<
0J
0D
0?
0=
1M
0A
1O
0T
1X
1W
19
1:
06
12
0N
1#
0'
1+
1*
0Q
04
0%
#405000
b10100 !
b10000 !
b10001110 "
b10101110 "
b11101110 "
0K
1@
1>
0F
0;
0L
1R
0M
1P
0O
1V
1Q
0X
0:
14
18
02
13
1$
0#
1)
1%
0+
1U
1T
16
17
1(
1'
#410000
b10010 !
b11101100 "
b10 !
b11 !
b100011 !
b11100100 "
b11100000 "
b10100011 !
0I
0G
0E
1J
1H
0B
1?
1;
0R
1A
0P
1O
0T
0V
1X
0U
07
1:
08
06
12
03
0$
1#
0'
0)
1+
0(
0Q
1P
0O
0S
05
02
13
04
0%
1$
0#
0&
#415000
b11100011 !
b1100000 "
b1110000 "
b11101011 !
b110000 "
b11111011 !
b11011011 !
1C
0>
0<
1D
1B
0?
1=
1R
0A
1N
0P
1S
1U
17
15
03
0$
1&
1(
0S
05
0&
#420000
b11011010 !
b111000 "
b111100 "
b1011010 !
b11010 !
b10111100 "
b10101100 "
b11101100 "
1G
1E
0C
1>
1<
0J
0=
0;
0X
1V
0U
07
18
0:
0+
1)
0(
#425000
b11101101 "
b11001101 "
b10010 !
b10 !
b100010 !
b100011 !
1J
0D
0B
1?
1K
0@
1L
0N
0W
0V
1S
1U
17
15
08
09
0*
0)
1&
1(
1Q
1P
0U
1T
16
07
13
14
1%
1$
0(
1'
#430000
b100001 !
b11001111 "
b11000111 "
b10100001 !
b1000111 "
b1010111 "
b10111 "
1I
0E
1C
0>
0<
0H
1;
0Q
1U
17
04
0%
1(
#435000
b10100101 !
b10011 "
b110011 "
b10100100 !
b111011 "
b101011 "
b1101011 "
0G
1E
0C
1@
1>
0J
1F
0L
0R
1A
1V
1X
1W
1Q
0U
07
14
19
1:
18
1)
1+
1*
1%
0(
0Q
0P
0S
1U
0T
06
17
05
03
04
0%
0$
0&
1(
0'
#440000
b1101010 "
b10101100 !
b11101010 "
b11001010 "
b11000010 "
b11010010 "
1D
0K
0E
1C
0@
1<
1R
0A
1P
1T
0X
0:
16
13
1$
1'
0+
1Q
0P
1O
1S
15
12
03
14
1%
0$
1#
1&
#445000
b10001100 !
b11010000 "
b1100 !
b10010000 "
b10010001 "
b10110001 "
1K
0I
1@
0>
0?
0;
1P
0O
0Q
0W
1X
1:
09
04
02
13
1$
0#
0%
0*
1+
#450000
b11100 !
b11000 !
b10110101 "
b110101 "
b110111 "
b10011000 !
b1110111 "
b1110110 "
b1010110 "
0K
1I
1G
0@
1>
0<
0F
1B
1;
1N
0R
1M
0T
0S
1Q
1W
0X
0:
19
14
05
06
0N
0'
0&
1%
1*
0+
1S
0Q
0P
03
04
15
1&
0%
0$
1Q
1P
13
14
1%
1$
