Memory/simulation/qsim/Memory.msim.vcd
$comment
	File created using the following command:
		vcd file Memory.msim.vcd -direction
$end
$date
	Mon Nov  7 08:01:54 2016
$end
$version
	ModelSim Version 10.4d
$end
$timescale
	1ps
$end

$scope module test_vlg_vec_tst $end
$var reg 5 ! ar [4:0] $end
$var reg 1 " clk $end
$var wire 1 # Y [23] $end
$var wire 1 $ Y [22] $end
$var wire 1 % Y [21] $end
$var wire 1 & Y [20] $end
$var wire 1 ' Y [19] $end
$var wire 1 ( Y [18] $end
$var wire 1 ) Y [17] $end
$var wire 1 * Y [16] $end
$var wire 1 + Y [15] $end
$var wire 1 , Y [14] $end
$var wire 1 - Y [13] $end
$var wire 1 . Y [12] $end
$var wire 1 / Y [11] $end
$var wire 1 0 Y [10] $end
$var wire 1 1 Y [9] $end
$var wire 1 2 Y [8] $end
$var wire 1 3 Y [7] $end
$var wire 1 4 Y [6] $end
$var wire 1 5 Y [5] $end
$var wire 1 6 Y [4] $end
$var wire 1 7 Y [3] $end
$var wire 1 8 Y [2] $end
$var wire 1 9 Y [1] $end
$var wire 1 : Y [0] $end

$scope module i1 $end
$var wire 1 ; gnd $end
$var wire 1 < vcc $end
$var wire 1 = unknown $end
$var tri1 1 > devclrn $end
$var tri1 1 ? devpor $end
$var tri1 1 @ devoe $end
$var wire 1 A Y[23]~output_o $end
$var wire 1 B Y[22]~output_o $end
$var wire 1 C Y[21]~output_o $end
$var wire 1 D Y[20]~output_o $end
$var wire 1 E Y[19]~output_o $end
$var wire 1 F Y[18]~output_o $end
$var wire 1 G Y[17]~output_o $end
$var wire 1 H Y[16]~output_o $end
$var wire 1 I Y[15]~output_o $end
$var wire 1 J Y[14]~output_o $end
$var wire 1 K Y[13]~output_o $end
$var wire 1 L Y[12]~output_o $end
$var wire 1 M Y[11]~output_o $end
$var wire 1 N Y[10]~output_o $end
$var wire 1 O Y[9]~output_o $end
$var wire 1 P Y[8]~output_o $end
$var wire 1 Q Y[7]~output_o $end
$var wire 1 R Y[6]~output_o $end
$var wire 1 S Y[5]~output_o $end
$var wire 1 T Y[4]~output_o $end
$var wire 1 U Y[3]~output_o $end
$var wire 1 V Y[2]~output_o $end
$var wire 1 W Y[1]~output_o $end
$var wire 1 X Y[0]~output_o $end
$var wire 1 Y clk~input_o $end
$var wire 1 Z ar[3]~input_o $end
$var wire 1 [ ar[2]~input_o $end
$var wire 1 \ ar[1]~input_o $end
$var wire 1 ] ar[0]~input_o $end
$var wire 1 ^ ar[4]~input_o $end
$var wire 1 _ inst1|rom~4_combout $end
$var wire 1 ` inst1|rom~3_combout $end
$var wire 1 a inst1|rom~2_combout $end
$var wire 1 b inst1|rom~1_combout $end
$var wire 1 c inst1|rom~0_combout $end
$var wire 1 d inst1|q [23] $end
$var wire 1 e inst1|q [22] $end
$var wire 1 f inst1|q [21] $end
$var wire 1 g inst1|q [20] $end
$var wire 1 h inst1|q [19] $end
$var wire 1 i inst1|q [18] $end
$var wire 1 j inst1|q [17] $end
$var wire 1 k inst1|q [16] $end
$var wire 1 l inst1|q [15] $end
$var wire 1 m inst1|q [14] $end
$var wire 1 n inst1|q [13] $end
$var wire 1 o inst1|q [12] $end
$var wire 1 p inst1|q [11] $end
$var wire 1 q inst1|q [10] $end
$var wire 1 r inst1|q [9] $end
$var wire 1 s inst1|q [8] $end
$var wire 1 t inst1|q [7] $end
$var wire 1 u inst1|q [6] $end
$var wire 1 v inst1|q [5] $end
$var wire 1 w inst1|q [4] $end
$var wire 1 x inst1|q [3] $end
$var wire 1 y inst1|q [2] $end
$var wire 1 z inst1|q [1] $end
$var wire 1 { inst1|q [0] $end
$upscope $end
$upscope $end
$enddefinitions $end
#0
$dumpvars
b0 !
0"
0:
09
08
07
06
05
04
03
02
01
00
0/
0.
0-
0,
0+
0*
0)
0(
0'
0&
0%
0$
0#
0;
1<
x=
1>
1?
1@
0A
0B
0C
0D
0E
0F
0G
0H
0I
0J
0K
0L
0M
0N
0O
0P
0Q
0R
0S
0T
0U
0V
0W
0X
0Y
0Z
0[
0\
0]
0^
1_
0`
0a
0b
1c
0{
0z
0y
0x
zw
zv
zu
zt
0s
0r
0q
zp
zo
zn
zm
zl
zk
0j
0i
zh
zg
zf
ze
zd
$end
#5000
1"
1Y
1{
1s
1r
1q
1j
1i
1F
1G
1N
1O
1P
1X
1:
12
11
10
1)
1(
#10000
b1 !
0"
1]
0Y
0c
1b
#15000
1"
1Y
0{
1z
1W
0X
0:
19
#20000
b11 !
b10 !
0"
0]
1\
0Y
0b
1a
#25000
1"
1Y
0z
1y
1V
0W
09
18
#30000
b11 !
0"
1]
0Y
1c
#35000
1"
1Y
1{
1X
1:
#40000
b111 !
b101 !
b100 !
0"
0]
0\
1[
0Y
0c
1b
#45000
1"
1Y
0{
1z
1W
0X
0:
19
#50000
b101 !
0"
1]
0Y
1c
#55000
1"
1Y
1{
1X
1:
#60000
b111 !
b110 !
0"
0]
1\
0Y
0c
0b
0a
1`
#65000
1"
1Y
0{
0z
0y
1x
1U
0V
0W
0X
0:
09
08
17
#70000
b111 !
0"
1]
0Y
1c
#75000
1"
1Y
1{
1X
1:
#80000
b1111 !
b1011 !
b1001 !
b1000 !
0"
0]
0\
0[
1Z
0Y
0c
1b
#85000
1"
1Y
0{
1z
1W
0X
0:
19
#90000
b1001 !
0"
1]
0Y
1c
#95000
1"
1Y
1{
1X
1:
#100000
b1011 !
b1010 !
0"
0]
1\
0Y
0c
0b
1a
#105000
1"
1Y
0{
0z
1y
1V
0W
0X
0:
09
18
#110000
b1011 !
0"
1]
0Y
1c
#115000
1"
1Y
1{
1X
1:
#120000
b1111 !
b1101 !
b1100 !
0"
0]
0\
1[
0Y
0c
1b
#125000
1"
1Y
0{
1z
1W
0X
0:
19
#130000
b1101 !
0"
1]
0Y
0b
0a
0`
0_
#135000
1"
1Y
0z
0y
0x
0s
0r
0q
0j
0i
0F
0G
0N
0O
0P
0U
0V
0W
09
08
07
02
01
00
0)
0(
#140000
b1111 !
b1110 !
0"
0]
1\
0Y
#145000
1"
1Y
#150000
b1111 !
0"
1]
0Y
#155000
1"
1Y
#160000
b11111 !
b10111 !
b10011 !
b10001 !
b10000 !
0"
0]
0\
0[
0Z
1^
0Y
#165000
1"
1Y
#170000
b10001 !
0"
1]
0Y
#175000
1"
1Y
#180000
b10011 !
b10010 !
0"
0]
1\
0Y
#185000
1"
1Y
#190000
b10011 !
0"
1]
0Y
#195000
1"
1Y
#200000
b10111 !
b10101 !
b10100 !
0"
0]
0\
1[
0Y
#205000
1"
1Y
#210000
b10101 !
0"
1]
0Y
#215000
1"
1Y
#220000
b10111 !
b10110 !
0"
0]
1\
0Y
#225000
1"
1Y
#230000
b10111 !
0"
1]
0Y
#235000
1"
1Y
#240000
b11111 !
b11011 !
b11001 !
b11000 !
0"
0]
0\
0[
1Z
0Y
#245000
1"
1Y
#250000
b11001 !
0"
1]
0Y
#255000
1"
1Y
#260000
b11011 !
b11010 !
0"
0]
1\
0Y
#265000
1"
1Y
#270000
b11011 !
0"
1]
0Y
#275000
1"
1Y
#280000
b11111 !
b11101 !
b11100 !
0"
0]
0\
1[
0Y
#285000
1"
1Y
#290000
b11101 !
0"
1]
0Y
#295000
1"
1Y
#300000
b11111 !
b11110 !
0"
0]
1\
0Y
#305000
1"
1Y
#310000
b11111 !
0"
1]
0Y
#315000
1"
1Y
#320000
b1111 !
b111 !
b11 !
b1 !
b0 !
0"
0]
0\
0[
0Z
0^
0Y
1c
1_
#325000
1"
1Y
1{
1s
1r
1q
1j
1i
1F
1G
1N
1O
1P
1X
1:
12
11
10
1)
1(
#330000
b1 !
0"
1]
0Y
0c
1b
#335000
1"
1Y
0{
1z
1W
0X
0:
19
#340000
b11 !
b10 !
0"
0]
1\
0Y
0b
1a
#345000
1"
1Y
0z
1y
1V
0W
09
18
#350000
b11 !
0"
1]
0Y
1c
#355000
1"
1Y
1{
1X
1:
#360000
b111 !
b101 !
b100 !
0"
0]
0\
1[
0Y
0c
1b
#365000
1"
1Y
0{
1z
1W
0X
0:
19
#370000
b101 !
0"
1]
0Y
1c
#375000
1"
1Y
1{
1X
1:
#380000
b111 !
b110 !
0"
0]
1\
0Y
0c
0b
0a
1`
#385000
1"
1Y
0{
0z
0y
1x
1U
0V
0W
0X
0:
09
08
17
#390000
b111 !
0"
1]
0Y
1c
#395000
1"
1Y
1{
1X
1:
#400000
b1111 !
b1011 !
b1001 !
b1000 !
0"
0]
0\
0[
1Z
0Y
0c
1b
#405000
1"
1Y
0{
1z
1W
0X
0:
19
#410000
b1001 !
0"
1]
0Y
1c
#415000
1"
1Y
1{
1X
1:
#420000
b1011 !
b1010 !
0"
0]
1\
0Y
0c
0b
1a
#425000
1"
1Y
0{
0z
1y
1V
0W
0X
0:
09
18
#430000
b1011 !
0"
1]
0Y
1c
#435000
1"
1Y
1{
1X
1:
#440000
b1111 !
b1101 !
b1100 !
0"
0]
0\
1[
0Y
0c
1b
#445000
1"
1Y
0{
1z
1W
0X
0:
19
#450000
b1101 !
0"
1]
0Y
0b
0a
0`
0_
#455000
1"
1Y
0z
0y
0x
0s
0r
0q
0j
0i
0F
0G
0N
0O
0P
0U
0V
0W
09
08
07
02
01
00
0)
0(
#460000
b1111 !
b1110 !
0"
0]
1\
0Y
#465000
1"
1Y
#470000
b1111 !
0"
1]
0Y
#475000
1"
1Y
#480000
b11111 !
b10111 !
b10011 !
b10001 !
b10000 !
0"
0]
0\
0[
0Z
1^
0Y
#485000
1"
1Y
#490000
b10001 !
0"
1]
0Y
#495000
1"
1Y
#500000
b10011 !
b10010 !
0"
0]
1\
0Y
#505000
1"
1Y
#510000
b10011 !
0"
1]
0Y
#515000
1"
1Y
#520000
b10111 !
b10101 !
b10100 !
0"
0]
0\
1[
0Y
#525000
1"
1Y
#530000
b10101 !
0"
1]
0Y
#535000
1"
1Y
#540000
b10111 !
b10110 !
0"
0]
1\
0Y
#545000
1"
1Y
#550000
b10111 !
0"
1]
0Y
#555000
1"
1Y
#560000
b11111 !
b11011 !
b11001 !
b11000 !
0"
0]
0\
0[
1Z
0Y
#565000
1"
1Y
#570000
b11001 !
0"
1]
0Y
#575000
1"
1Y
#580000
b11011 !
b11010 !
0"
0]
1\
0Y
#585000
1"
1Y
#590000
b11011 !
0"
1]
0Y
#595000
1"
1Y
#600000
b11111 !
b11101 !
b11100 !
0"
0]
0\
1[
0Y
#605000
1"
1Y
#610000
b11101 !
0"
1]
0Y
#615000
1"
1Y
#620000
b11111 !
b11110 !
0"
0]
1\
0Y
#625000
1"
1Y
#630000
b11111 !
0"
1]
0Y
#635000
1"
1Y
#640000
b1111 !
b111 !
b11 !
b1 !
b0 !
0"
0]
0\
0[
0Z
0^
0Y
1c
1_
#645000
1"
1Y
1{
1s
1r
1q
1j
1i
1F
1G
1N
1O
1P
1X
1:
12
11
10
1)
1(
#650000
b1 !
0"
1]
0Y
0c
1b
#655000
1"
1Y
0{
1z
1W
0X
0:
19
#660000
b11 !
b10 !
0"
0]
1\
0Y
0b
1a
#665000
1"
1Y
0z
1y
1V
0W
09
18
#670000
b11 !
0"
1]
0Y
1c
#675000
1"
1Y
1{
1X
1:
#680000
b111 !
b101 !
b100 !
0"
0]
0\
1[
0Y
0c
1b
#685000
1"
1Y
0{
1z
1W
0X
0:
19
#690000
b101 !
0"
1]
0Y
1c
#695000
1"
1Y
1{
1X
1:
#700000
b111 !
b110 !
0"
0]
1\
0Y
0c
0b
0a
1`
#705000
1"
1Y
0{
0z
0y
1x
1U
0V
0W
0X
0:
09
08
17
#710000
b111 !
0"
1]
0Y
1c
#715000
1"
1Y
1{
1X
1:
#720000
b1111 !
b1011 !
b1001 !
b1000 !
0"
0]
0\
0[
1Z
0Y
0c
1b
#725000
1"
1Y
0{
1z
1W
0X
0:
19
#730000
b1001 !
0"
1]
0Y
1c
#735000
1"
1Y
1{
1X
1:
#740000
b1011 !
b1010 !
0"
0]
1\
0Y
0c
0b
1a
#745000
1"
1Y
0{
0z
1y
1V
0W
0X
0:
09
18
#750000
b1011 !
0"
1]
0Y
1c
#755000
1"
1Y
1{
1X
1:
#760000
b1111 !
b1101 !
b1100 !
0"
0]
0\
1[
0Y
0c
1b
#765000
1"
1Y
0{
1z
1W
0X
0:
19
#770000
b1101 !
0"
1]
0Y
0b
0a
0`
0_
#775000
1"
1Y
0z
0y
0x
0s
0r
0q
0j
0i
0F
0G
0N
0O
0P
0U
0V
0W
09
08
07
02
01
00
0)
0(
#780000
b1111 !
b1110 !
0"
0]
1\
0Y
#785000
1"
1Y
#790000
b1111 !
0"
1]
0Y
#795000
1"
1Y
#800000
b11111 !
b10111 !
b10011 !
b10001 !
b10000 !
0"
0]
0\
0[
0Z
1^
0Y
#805000
1"
1Y
#810000
b10001 !
0"
1]
0Y
#815000
1"
1Y
#820000
b10011 !
b10010 !
0"
0]
1\
0Y
#825000
1"
1Y
#830000
b10011 !
0"
1]
0Y
#835000
1"
1Y
#840000
b10111 !
b10101 !
b10100 !
0"
0]
0\
1[
0Y
#845000
1"
1Y
#850000
b10101 !
0"
1]
0Y
#855000
1"
1Y
#860000
b10111 !
b10110 !
0"
0]
1\
0Y
#865000
1"
1Y
#870000
b10111 !
0"
1]
0Y
#875000
1"
1Y
#880000
b11111 !
b11011 !
b11001 !
b11000 !
0"
0]
0\
0[
1Z
0Y
#885000
1"
1Y
#890000
b11001 !
0"
1]
0Y
#895000
1"
1Y
#900000
b11011 !
b11010 !
0"
0]
1\
0Y
#905000
1"
1Y
#910000
b11011 !
0"
1]
0Y
#915000
1"
1Y
#920000
b11111 !
b11101 !
b11100 !
0"
0]
0\
1[
0Y
#925000
1"
1Y
#930000
b11101 !
0"
1]
0Y
#935000
1"
1Y
#940000
b11111 !
b11110 !
0"
0]
1\
0Y
#945000
1"
1Y
#950000
b11111 !
0"
1]
0Y
#955000
1"
1Y
#960000
b1111 !
b111 !
b11 !
b1 !
b0 !
0"
0]
0\
0[
0Z
0^
0Y
1c
1_
#965000
1"
1Y
1{
1s
1r
1q
1j
1i
1F
1G
1N
1O
1P
1X
1:
12
11
10
1)
1(
#970000
b1 !
0"
1]
0Y
0c
1b
#975000
1"
1Y
0{
1z
1W
0X
0:
19
#980000
b11 !
b10 !
0"
0]
1\
0Y
0b
1a
#985000
1"
1Y
0z
1y
1V
0W
09
18
#990000
b11 !
0"
1]
0Y
1c
#995000
1"
1Y
1{
1X
1:
