Memory/simulation/qsim/Memory.msim.vcd
$comment
	File created using the following command:
		vcd file Memory.msim.vcd -direction
$end
$date
	Sun Nov  6 11:29:56 2016
$end
$version
	ModelSim Version 10.4d
$end
$timescale
	1ps
$end

$scope module test_vlg_vec_tst $end
$var reg 5 ! ar [4:0] $end
$var reg 1 " clk $end
$var reg 8 # data [7:0] $end
$var reg 1 $ we $end
$var wire 1 % Y [7] $end
$var wire 1 & Y [6] $end
$var wire 1 ' Y [5] $end
$var wire 1 ( Y [4] $end
$var wire 1 ) Y [3] $end
$var wire 1 * Y [2] $end
$var wire 1 + Y [1] $end
$var wire 1 , Y [0] $end

$scope module i1 $end
$var wire 1 - gnd $end
$var wire 1 . vcc $end
$var wire 1 / unknown $end
$var tri1 1 0 devclrn $end
$var tri1 1 1 devpor $end
$var tri1 1 2 devoe $end
$var wire 1 3 Y[7]~output_o $end
$var wire 1 4 Y[6]~output_o $end
$var wire 1 5 Y[5]~output_o $end
$var wire 1 6 Y[4]~output_o $end
$var wire 1 7 Y[3]~output_o $end
$var wire 1 8 Y[2]~output_o $end
$var wire 1 9 Y[1]~output_o $end
$var wire 1 : Y[0]~output_o $end
$var wire 1 ; we~input_o $end
$var wire 1 < clk~input_o $end
$var wire 1 = data[7]~input_o $end
$var wire 1 > ar[0]~input_o $end
$var wire 1 ? ar[1]~input_o $end
$var wire 1 @ ar[2]~input_o $end
$var wire 1 A ar[3]~input_o $end
$var wire 1 B ar[4]~input_o $end
$var wire 1 C inst|ram_rtl_0|auto_generated|ram_block1a7~portadataout $end
$var wire 1 D data[6]~input_o $end
$var wire 1 E inst|ram_rtl_0|auto_generated|ram_block1a6~portadataout $end
$var wire 1 F data[5]~input_o $end
$var wire 1 G inst|ram_rtl_0|auto_generated|ram_block1a5~portadataout $end
$var wire 1 H data[4]~input_o $end
$var wire 1 I inst|ram_rtl_0|auto_generated|ram_block1a4~portadataout $end
$var wire 1 J data[3]~input_o $end
$var wire 1 K inst|ram_rtl_0|auto_generated|ram_block1a3~portadataout $end
$var wire 1 L data[2]~input_o $end
$var wire 1 M inst|ram_rtl_0|auto_generated|ram_block1a2~portadataout $end
$var wire 1 N data[1]~input_o $end
$var wire 1 O inst|ram_rtl_0|auto_generated|ram_block1a1~portadataout $end
$var wire 1 P data[0]~input_o $end
$var wire 1 Q inst|ram_rtl_0|auto_generated|ram_block1a0~portadataout $end
$var wire 1 R inst|ram_rtl_0|auto_generated|ram_block1a7_PORTADATAOUT_bus [0] $end
$var wire 1 S inst|ram_rtl_0|auto_generated|ram_block1a6_PORTADATAOUT_bus [0] $end
$var wire 1 T inst|ram_rtl_0|auto_generated|ram_block1a5_PORTADATAOUT_bus [0] $end
$var wire 1 U inst|ram_rtl_0|auto_generated|ram_block1a4_PORTADATAOUT_bus [0] $end
$var wire 1 V inst|ram_rtl_0|auto_generated|ram_block1a3_PORTADATAOUT_bus [0] $end
$var wire 1 W inst|ram_rtl_0|auto_generated|ram_block1a2_PORTADATAOUT_bus [0] $end
$var wire 1 X inst|ram_rtl_0|auto_generated|ram_block1a1_PORTADATAOUT_bus [0] $end
$var wire 1 Y inst|ram_rtl_0|auto_generated|ram_block1a0_PORTADATAOUT_bus [0] $end
$upscope $end
$upscope $end
$enddefinitions $end
#0
$dumpvars
b0 !
0"
b0 #
0$
0,
0+
0*
0)
0(
0'
0&
0%
0-
1.
x/
10
11
12
03
04
05
06
07
08
09
0:
0;
0<
0=
0>
0?
0@
0A
0B
0C
0D
0E
0F
0G
0H
0I
0J
0K
0L
0M
0N
0O
0P
0Q
0R
0S
0T
0U
0V
0W
0X
0Y
$end
#5000
1"
1<
#10000
b1 !
b1 #
0"
1P
1>
0<
#15000
1"
1<
#20000
b11 !
b11 #
b10 !
b10 #
0"
0P
1N
0>
1?
0<
#25000
1"
1<
#30000
b11 !
b11 #
0"
1P
1>
0<
#35000
1"
1<
#40000
b111 !
b111 #
b101 !
b101 #
b100 !
b100 #
0"
0P
0N
1L
0>
0?
1@
0<
#45000
1"
1<
#50000
b101 !
b101 #
0"
1P
1>
0<
#55000
1"
1<
#60000
b111 !
b111 #
b110 !
b110 #
0"
0P
1N
0>
1?
0<
#65000
1"
1<
#70000
b111 !
b111 #
0"
1P
1>
0<
#75000
1"
1<
#80000
b1111 !
b1111 #
b1011 !
b1011 #
b1001 !
b1001 #
b1000 !
b1000 #
0"
0P
0N
0L
1J
0>
0?
0@
1A
0<
#85000
1"
1<
#90000
b1001 !
b1001 #
0"
1P
1>
0<
#95000
1"
1<
#100000
b1011 !
b1011 #
b1010 !
b1010 #
0"
0P
1N
0>
1?
0<
#105000
1"
1<
#110000
b1011 !
b1011 #
0"
1P
1>
0<
#115000
1"
1<
#120000
b1111 !
b1111 #
b1101 !
b1101 #
b1100 !
b1100 #
0"
0P
0N
1L
0>
0?
1@
0<
#125000
1"
1<
#130000
b1101 !
b1101 #
0"
1P
1>
0<
#135000
1"
1<
#140000
b1111 !
b1111 #
b1110 !
b1110 #
0"
0P
1N
0>
1?
0<
#145000
1"
1<
#150000
b1111 !
b1111 #
0"
1P
1>
0<
#155000
1"
1<
#160000
b11111 !
b11111 #
b10111 !
b10111 #
b10011 !
b10011 #
b10001 !
b10001 #
b10000 !
b10000 #
0"
0P
0N
0L
0J
1H
0>
0?
0@
0A
1B
0<
#165000
1"
1<
#170000
b10001 !
b10001 #
0"
1P
1>
0<
#175000
1"
1<
#180000
b10011 !
b10011 #
b10010 !
b10010 #
0"
0P
1N
0>
1?
0<
#185000
1"
1<
#190000
b10011 !
b10011 #
0"
1P
1>
0<
#195000
1"
1<
#200000
b10111 !
b10111 #
b10101 !
b10101 #
b10100 !
b10100 #
0"
0P
0N
1L
0>
0?
1@
0<
#205000
1"
1<
#210000
b10101 !
b10101 #
0"
1P
1>
0<
#215000
1"
1<
#220000
b10111 !
b10111 #
b10110 !
b10110 #
0"
0P
1N
0>
1?
0<
#225000
1"
1<
#230000
b10111 !
b10111 #
0"
1P
1>
0<
#235000
1"
1<
#240000
b11111 !
b11111 #
b11011 !
b11011 #
b11001 !
b11001 #
b11000 !
b11000 #
0"
0P
0N
0L
1J
0>
0?
0@
1A
0<
#245000
1"
1<
#250000
b11001 !
b11001 #
0"
1P
1>
0<
#255000
1"
1<
#260000
b11011 !
b11011 #
b11010 !
b11010 #
0"
0P
1N
0>
1?
0<
#265000
1"
1<
#270000
b11011 !
b11011 #
0"
1P
1>
0<
#275000
1"
1<
#280000
b11111 !
b11111 #
b11101 !
b11101 #
b11100 !
b11100 #
0"
0P
0N
1L
0>
0?
1@
0<
#285000
1"
1<
#290000
b11101 !
b11101 #
0"
1P
1>
0<
#295000
1"
1<
#300000
b11111 !
b11111 #
b11110 !
b11110 #
0"
0P
1N
0>
1?
0<
#305000
1"
1<
#310000
b11111 !
b11111 #
0"
1P
1>
0<
#315000
1"
1<
#320000
b111111 #
1$
b1111 !
b101111 #
b111 !
b100111 #
b11 !
b100011 #
b1 !
b100001 #
b0 !
b100000 #
0"
1;
0>
0?
0@
0A
0B
0P
0N
0L
0J
0H
1F
0<
#325000
1"
1<
#325001
1T
1G
15
1'
#330000
b1 !
b100001 #
0"
1P
1>
0<
#335000
1"
1<
#335001
1Y
1Q
1:
1,
#340000
b11 !
b100011 #
b10 !
b100010 #
0"
0P
1N
0>
1?
0<
#345000
1"
1<
#345001
1X
0Y
1O
0Q
0:
19
1+
0,
#350000
b11 !
b100011 #
0"
1P
1>
0<
#355000
1"
1<
#355001
1Y
1Q
1:
1,
#360000
b111 !
b100111 #
b101 !
b100101 #
b100 !
b100100 #
0"
0P
0N
1L
0>
0?
1@
0<
#365000
1"
1<
#365001
1W
0X
0Y
1M
0O
0Q
0:
09
18
1*
0+
0,
#370000
b101 !
b100101 #
0"
1P
1>
0<
#375000
1"
1<
#375001
1Y
1Q
1:
1,
#380000
b111 !
b100111 #
b110 !
b100110 #
0"
0P
1N
0>
1?
0<
#385000
1"
1<
#385001
1X
0Y
1O
0Q
0:
19
1+
0,
#390000
b111 !
b100111 #
0"
1P
1>
0<
#395000
1"
1<
#395001
1Y
1Q
1:
1,
#400000
b1111 !
b101111 #
b1011 !
b101011 #
b1001 !
b101001 #
b1000 !
b101000 #
0"
0P
0N
0L
1J
0>
0?
0@
1A
0<
#405000
1"
1<
#405001
1V
0W
0X
0Y
1K
0M
0O
0Q
0:
09
08
17
1)
0*
0+
0,
#410000
b1001 !
b101001 #
0"
1P
1>
0<
#415000
1"
1<
#415001
1Y
1Q
1:
1,
#420000
b1011 !
b101011 #
b1010 !
b101010 #
0"
0P
1N
0>
1?
0<
#425000
1"
1<
#425001
1X
0Y
1O
0Q
0:
19
1+
0,
#430000
b1011 !
b101011 #
0"
1P
1>
0<
#435000
1"
1<
#435001
1Y
1Q
1:
1,
#440000
b1111 !
b101111 #
b1101 !
b101101 #
b1100 !
b101100 #
0"
0P
0N
1L
0>
0?
1@
0<
#445000
1"
1<
#445001
1W
0X
0Y
1M
0O
0Q
0:
09
18
1*
0+
0,
#450000
b1101 !
b101101 #
0"
1P
1>
0<
#455000
1"
1<
#455001
1Y
1Q
1:
1,
#460000
b1111 !
b101111 #
b1110 !
b101110 #
0"
0P
1N
0>
1?
0<
#465000
1"
1<
#465001
1X
0Y
1O
0Q
0:
19
1+
0,
#470000
b1111 !
b101111 #
0"
1P
1>
0<
#475000
1"
1<
#475001
1Y
1Q
1:
1,
#480000
b11111 !
b111111 #
b10111 !
b110111 #
b10011 !
b110011 #
b10001 !
b110001 #
b10000 !
b110000 #
0"
0P
0N
0L
0J
1H
0>
0?
0@
0A
1B
0<
#485000
1"
1<
#485001
1U
0V
0W
0X
0Y
1I
0K
0M
0O
0Q
0:
09
08
07
16
1(
0)
0*
0+
0,
#490000
b10001 !
b110001 #
0"
1P
1>
0<
#495000
1"
1<
#495001
1Y
1Q
1:
1,
#500000
b10011 !
b110011 #
b10010 !
b110010 #
0"
0P
1N
0>
1?
0<
#505000
1"
1<
#505001
1X
0Y
1O
0Q
0:
19
1+
0,
#510000
b10011 !
b110011 #
0"
1P
1>
0<
#515000
1"
1<
#515001
1Y
1Q
1:
1,
#520000
b10111 !
b110111 #
b10101 !
b110101 #
b10100 !
b110100 #
0"
0P
0N
1L
0>
0?
1@
0<
#525000
1"
1<
#525001
1W
0X
0Y
1M
0O
0Q
0:
09
18
1*
0+
0,
#530000
b10101 !
b110101 #
0"
1P
1>
0<
#535000
1"
1<
#535001
1Y
1Q
1:
1,
#540000
b10111 !
b110111 #
b10110 !
b110110 #
0"
0P
1N
0>
1?
0<
#545000
1"
1<
#545001
1X
0Y
1O
0Q
0:
19
1+
0,
#550000
b10111 !
b110111 #
0"
1P
1>
0<
#555000
1"
1<
#555001
1Y
1Q
1:
1,
#560000
b11111 !
b111111 #
b11011 !
b111011 #
b11001 !
b111001 #
b11000 !
b111000 #
0"
0P
0N
0L
1J
0>
0?
0@
1A
0<
#565000
1"
1<
#565001
1V
0W
0X
0Y
1K
0M
0O
0Q
0:
09
08
17
1)
0*
0+
0,
#570000
b11001 !
b111001 #
0"
1P
1>
0<
#575000
1"
1<
#575001
1Y
1Q
1:
1,
#580000
b11011 !
b111011 #
b11010 !
b111010 #
0"
0P
1N
0>
1?
0<
#585000
1"
1<
#585001
1X
0Y
1O
0Q
0:
19
1+
0,
#590000
b11011 !
b111011 #
0"
1P
1>
0<
#595000
1"
1<
#595001
1Y
1Q
1:
1,
#600000
b11111 !
b111111 #
b11101 !
b111101 #
b11100 !
b111100 #
0"
0P
0N
1L
0>
0?
1@
0<
#605000
1"
1<
#605001
1W
0X
0Y
1M
0O
0Q
0:
09
18
1*
0+
0,
#610000
b11101 !
b111101 #
0"
1P
1>
0<
#615000
1"
1<
#615001
1Y
1Q
1:
1,
#620000
b11111 !
b111111 #
b11110 !
b111110 #
0"
0P
1N
0>
1?
0<
#625000
1"
1<
#625001
1X
0Y
1O
0Q
0:
19
1+
0,
#630000
b11111 !
b111111 #
0"
1P
1>
0<
#635000
1"
1<
#635001
1Y
1Q
1:
1,
#640000
b1111111 #
b1011111 #
b1111 !
b1001111 #
b111 !
b1000111 #
b11 !
b1000011 #
b1 !
b1000001 #
b0 !
b1000000 #
0"
0>
0?
0@
0A
0B
0P
0N
0L
0J
0H
0F
1D
0<
#645000
1"
1<
#645001
1S
0T
0U
0V
0W
0X
0Y
1E
0G
0I
0K
0M
0O
0Q
0:
09
08
07
06
05
14
1&
0'
0(
0)
0*
0+
0,
#650000
b1 !
b1000001 #
0"
1P
1>
0<
#655000
1"
1<
#655001
1Y
1Q
1:
1,
#660000
b11 !
b1000011 #
b10 !
b1000010 #
0"
0P
1N
0>
1?
0<
#665000
1"
1<
#665001
1X
0Y
1O
0Q
0:
19
1+
0,
#670000
b11 !
b1000011 #
0"
1P
1>
0<
#675000
1"
1<
#675001
1Y
1Q
1:
1,
#680000
b111 !
b1000111 #
b101 !
b1000101 #
b100 !
b1000100 #
0"
0P
0N
1L
0>
0?
1@
0<
#685000
1"
1<
#685001
1W
0X
0Y
1M
0O
0Q
0:
09
18
1*
0+
0,
#690000
b101 !
b1000101 #
0"
1P
1>
0<
#695000
1"
1<
#695001
1Y
1Q
1:
1,
#700000
b111 !
b1000111 #
b110 !
b1000110 #
0"
0P
1N
0>
1?
0<
#705000
1"
1<
#705001
1X
0Y
1O
0Q
0:
19
1+
0,
#710000
b111 !
b1000111 #
0"
1P
1>
0<
#715000
1"
1<
#715001
1Y
1Q
1:
1,
#720000
b1111 !
b1001111 #
b1011 !
b1001011 #
b1001 !
b1001001 #
b1000 !
b1001000 #
0"
0P
0N
0L
1J
0>
0?
0@
1A
0<
#725000
1"
1<
#725001
1V
0W
0X
0Y
1K
0M
0O
0Q
0:
09
08
17
1)
0*
0+
0,
#730000
b1001 !
b1001001 #
0"
1P
1>
0<
#735000
1"
1<
#735001
1Y
1Q
1:
1,
#740000
b1011 !
b1001011 #
b1010 !
b1001010 #
0"
0P
1N
0>
1?
0<
#745000
1"
1<
#745001
1X
0Y
1O
0Q
0:
19
1+
0,
#750000
b1011 !
b1001011 #
0"
1P
1>
0<
#755000
1"
1<
#755001
1Y
1Q
1:
1,
#760000
b1111 !
b1001111 #
b1101 !
b1001101 #
b1100 !
b1001100 #
0"
0P
0N
1L
0>
0?
1@
0<
#765000
1"
1<
#765001
1W
0X
0Y
1M
0O
0Q
0:
09
18
1*
0+
0,
#770000
b1101 !
b1001101 #
0"
1P
1>
0<
#775000
1"
1<
#775001
1Y
1Q
1:
1,
#780000
b1111 !
b1001111 #
b1110 !
b1001110 #
0"
0P
1N
0>
1?
0<
#785000
1"
1<
#785001
1X
0Y
1O
0Q
0:
19
1+
0,
#790000
b1111 !
b1001111 #
0"
1P
1>
0<
#795000
1"
1<
#795001
1Y
1Q
1:
1,
#800000
b11111 !
b1011111 #
b10111 !
b1010111 #
b10011 !
b1010011 #
b10001 !
b1010001 #
b10000 !
b1010000 #
0"
0P
0N
0L
0J
1H
0>
0?
0@
0A
1B
0<
#805000
1"
1<
#805001
1U
0V
0W
0X
0Y
1I
0K
0M
0O
0Q
0:
09
08
07
16
1(
0)
0*
0+
0,
#810000
b10001 !
b1010001 #
0"
1P
1>
0<
#815000
1"
1<
#815001
1Y
1Q
1:
1,
#820000
b10011 !
b1010011 #
b10010 !
b1010010 #
0"
0P
1N
0>
1?
0<
#825000
1"
1<
#825001
1X
0Y
1O
0Q
0:
19
1+
0,
#830000
b10011 !
b1010011 #
0"
1P
1>
0<
#835000
1"
1<
#835001
1Y
1Q
1:
1,
#840000
b10111 !
b1010111 #
b10101 !
b1010101 #
b10100 !
b1010100 #
0"
0P
0N
1L
0>
0?
1@
0<
#845000
1"
1<
#845001
1W
0X
0Y
1M
0O
0Q
0:
09
18
1*
0+
0,
#850000
b10101 !
b1010101 #
0"
1P
1>
0<
#855000
1"
1<
#855001
1Y
1Q
1:
1,
#860000
b10111 !
b1010111 #
b10110 !
b1010110 #
0"
0P
1N
0>
1?
0<
#865000
1"
1<
#865001
1X
0Y
1O
0Q
0:
19
1+
0,
#870000
b10111 !
b1010111 #
0"
1P
1>
0<
#875000
1"
1<
#875001
1Y
1Q
1:
1,
#880000
b11111 !
b1011111 #
b11011 !
b1011011 #
b11001 !
b1011001 #
b11000 !
b1011000 #
0"
0P
0N
0L
1J
0>
0?
0@
1A
0<
#885000
1"
1<
#885001
1V
0W
0X
0Y
1K
0M
0O
0Q
0:
09
08
17
1)
0*
0+
0,
#890000
b11001 !
b1011001 #
0"
1P
1>
0<
#895000
1"
1<
#895001
1Y
1Q
1:
1,
#900000
b11011 !
b1011011 #
b11010 !
b1011010 #
0"
0P
1N
0>
1?
0<
#905000
1"
1<
#905001
1X
0Y
1O
0Q
0:
19
1+
0,
#910000
b11011 !
b1011011 #
0"
1P
1>
0<
#915000
1"
1<
#915001
1Y
1Q
1:
1,
#920000
b11111 !
b1011111 #
b11101 !
b1011101 #
b11100 !
b1011100 #
0"
0P
0N
1L
0>
0?
1@
0<
#925000
1"
1<
#925001
1W
0X
0Y
1M
0O
0Q
0:
09
18
1*
0+
0,
#930000
b11101 !
b1011101 #
0"
1P
1>
0<
#935000
1"
1<
#935001
1Y
1Q
1:
1,
#940000
b11111 !
b1011111 #
b11110 !
b1011110 #
0"
0P
1N
0>
1?
0<
#945000
1"
1<
#945001
1X
0Y
1O
0Q
0:
19
1+
0,
#950000
b11111 !
b1011111 #
0"
1P
1>
0<
#955000
1"
1<
#955001
1Y
1Q
1:
1,
#960000
b1111111 #
b1111 !
b1101111 #
b111 !
b1100111 #
b11 !
b1100011 #
b1 !
b1100001 #
b0 !
b1100000 #
0"
0>
0?
0@
0A
0B
0P
0N
0L
0J
0H
1F
0<
#965000
1"
1<
#965001
1T
0U
0V
0W
0X
0Y
1G
0I
0K
0M
0O
0Q
0:
09
08
07
06
15
1'
0(
0)
0*
0+
0,
#970000
b1 !
b1100001 #
0"
1P
1>
0<
#975000
1"
1<
#975001
1Y
1Q
1:
1,
#980000
b11 !
b1100011 #
b10 !
b1100010 #
0"
0P
1N
0>
1?
0<
#985000
1"
1<
#985001
1X
0Y
1O
0Q
0:
19
1+
0,
#990000
0$
b11 !
b1100011 #
0"
0;
1P
1>
0<
#995000
1"
1<
#995001
0T
1Y
0G
1Q
1:
05
0'
1,
