Complemento2/simulation/qsim/Complemento2.msim.vcd
$comment
	File created using the following command:
		vcd file Complemento2.msim.vcd -direction
$end
$date
	Wed Nov  2 22:06:33 2016
$end
$version
	ModelSim Version 10.4d
$end
$timescale
	1ps
$end

$scope module Complemento2_vlg_vec_tst $end
$var reg 8 ! A [7:0] $end
$var wire 1 " OverFlow $end
$var wire 1 # S [7] $end
$var wire 1 $ S [6] $end
$var wire 1 % S [5] $end
$var wire 1 & S [4] $end
$var wire 1 ' S [3] $end
$var wire 1 ( S [2] $end
$var wire 1 ) S [1] $end
$var wire 1 * S [0] $end

$scope module i1 $end
$var wire 1 + gnd $end
$var wire 1 , vcc $end
$var wire 1 - unknown $end
$var tri1 1 . devclrn $end
$var tri1 1 / devpor $end
$var tri1 1 0 devoe $end
$var wire 1 1 OverFlow~output_o $end
$var wire 1 2 S[7]~output_o $end
$var wire 1 3 S[6]~output_o $end
$var wire 1 4 S[5]~output_o $end
$var wire 1 5 S[4]~output_o $end
$var wire 1 6 S[3]~output_o $end
$var wire 1 7 S[2]~output_o $end
$var wire 1 8 S[1]~output_o $end
$var wire 1 9 S[0]~output_o $end
$var wire 1 : A[4]~input_o $end
$var wire 1 ; A[0]~input_o $end
$var wire 1 < A[1]~input_o $end
$var wire 1 = A[2]~input_o $end
$var wire 1 > A[3]~input_o $end
$var wire 1 ? inst4|inst4~combout $end
$var wire 1 @ A[5]~input_o $end
$var wire 1 A A[6]~input_o $end
$var wire 1 B A[7]~input_o $end
$var wire 1 C inst14~combout $end
$var wire 1 D inst8|inst3~combout $end
$var wire 1 E inst7|inst3~combout $end
$var wire 1 F inst6|inst3~combout $end
$var wire 1 G inst5|inst3~combout $end
$var wire 1 H inst4|inst3~combout $end
$var wire 1 I inst30|inst3~combout $end
$var wire 1 J inst|inst3~combout $end
$upscope $end
$upscope $end
$enddefinitions $end
#0
$dumpvars
b11010001 !
0"
1*
1)
1(
1'
0&
1%
0$
0#
0+
1,
x-
1.
1/
10
01
02
03
14
05
16
17
18
19
1:
1;
0<
0=
0>
0?
0@
1A
1B
1C
0D
0E
1F
0G
1H
1I
1J
$end
#5000
b10010001 !
b10000001 !
b10000101 !
1=
0:
0A
1E
1G
0I
07
15
13
1$
1&
0(
#10000
b101 !
b100 !
b10100 !
1:
0B
0;
09
0*
1D
0G
0J
1I
17
08
05
12
1#
0&
0)
1(
#15000
b10110 !
b10010 !
b10 !
1<
0=
0:
1G
1J
18
15
1&
1)
#20000
b100010 !
b101010 !
b10101010 !
b10101011 !
b10101111 !
1=
1>
1@
1B
1;
19
1*
0D
0F
0H
0I
0J
08
07
06
04
02
0#
0%
0'
0(
0)
#25000
b11101111 !
b11111111 !
b1111111 !
b1111011 !
0=
1:
1A
0B
1D
0E
0G
1I
17
05
03
12
1#
0$
0&
1(
#30000
b1110011 !
0>
1H
16
1'
#35000
b1110010 !
b11110010 !
b11110110 !
1=
1B
0;
09
0*
0D
0I
1J
18
07
02
0#
0(
1)
#40000
b10110110 !
b10110111 !
b110111 !
b110011 !
0=
0A
0B
1;
19
1*
1D
1E
1I
0J
08
17
13
12
1#
1$
1(
0)
#45000
b110001 !
b10001 !
b1 !
b1001 !
b10001001 !
0<
1>
0:
0@
1B
0D
1F
1G
0H
1J
18
06
15
14
02
0#
1%
1&
0'
1)
#50000
b11001001 !
b11001000 !
b11001010 !
b11011010 !
b1011010 !
1<
1:
1A
0B
0;
09
0*
1D
0E
0G
05
03
12
1#
0$
0&
#60000
b1010010 !
b10010 !
b10011 !
b10010011 !
0>
0A
1B
1;
19
1*
0D
1E
1H
0J
08
16
13
02
0#
1$
1'
0)
#65000
b10010111 !
b10000111 !
b10001111 !
b1111 !
1=
1>
0:
0B
1D
1G
0H
0I
07
06
15
12
1#
1&
0'
0(
#70000
b101111 !
b101101 !
b1101101 !
b1101001 !
b1111001 !
b1110001 !
0<
0=
0>
1:
1@
1A
0E
0F
0G
1H
1I
1J
18
17
16
05
04
03
0$
0%
0&
1'
1(
1)
#75000
b1110011 !
b110011 !
1<
0A
1E
0J
08
13
1$
0)
#80000
b110111 !
b111111 !
1=
1>
0H
0I
07
06
0'
0(
#85000
b111110 !
b1111110 !
b1111010 !
b1110010 !
0=
0>
1A
0;
09
0*
0E
1H
1I
1J
18
17
16
03
0$
1'
1(
1)
#90000
b1100010 !
b1100000 !
b1100001 !
b1100101 !
0<
1=
0:
1;
19
1*
1G
0I
07
15
1&
0(
#95000
b1000101 !
b101 !
b1101 !
b1111 !
b1110 !
b1010 !
1<
0=
1>
0@
0A
0;
09
0*
1E
1F
0H
1I
17
06
14
13
1$
1%
0'
1(
#100000
b10001010 !
b10011010 !
b10111010 !
b10111011 !
b10111111 !
1=
1:
1@
1B
1;
19
1*
0D
0F
0G
0I
0J
08
07
05
04
02
0#
0%
0&
0(
0)
#105000
b11111111 !
b11111101 !
b11111100 !
b11111000 !
0<
0=
1A
0;
09
0*
0E
1H
16
03
0$
1'
#110000
b1111000 !
b1111010 !
b1111110 !
1<
1=
0B
1D
0H
1J
18
06
12
1#
0'
1)
#115000
b1110110 !
b1100110 !
b1100111 !
0>
0:
1;
19
1*
1G
1H
0J
08
16
15
1&
1'
0)
#120000
b100111 !
b101111 !
b111111 !
b111110 !
1>
1:
0A
0;
09
0*
1E
0G
0H
1J
18
06
05
13
1$
0&
0'
1)
#125000
b11110 !
b11100 !
b11000 !
b1011000 !
b1010000 !
b1010001 !
0<
0=
0>
0@
1A
1;
19
1*
0E
1F
1H
1I
17
16
14
03
0$
1%
1'
1(
#130000
b1000001 !
b1000011 !
b1000111 !
b1001111 !
b1001110 !
1<
1=
1>
0:
0;
09
0*
1G
0H
0I
07
06
15
1&
0'
0(
#135000
b1011110 !
b1011100 !
b1011000 !
0<
0=
1:
0G
1H
0J
08
16
05
0&
1'
0)
#140000
b11011000 !
b11111000 !
b10111000 !
b10111001 !
b10101001 !
b10101101 !
1=
0:
1@
0A
1B
1;
19
1*
0D
1E
0F
1G
0H
1J
18
06
15
04
13
02
0#
1$
0%
1&
0'
1)
#145000
b10101111 !
b101111 !
b1111 !
b1110 !
b11110 !
1<
1:
0@
0B
0;
09
0*
1D
1F
0G
05
14
12
1#
1%
0&
#150000
b10110 !
b1010110 !
b1010010 !
b1110010 !
b1100010 !
0=
0>
0:
1@
1A
0E
0F
1G
1H
1I
17
16
15
04
03
0$
0%
1&
1'
1(
#155000
b1100000 !
b1100100 !
b1000100 !
b1010100 !
0<
1=
1:
0@
1F
0G
0J
08
05
14
1%
0&
0)
#160000
b1011100 !
b11100 !
b11000 !
b1000 !
0=
1>
0:
0A
1E
1G
0I
07
15
13
1$
1&
0(
#165000
b1001 !
b101001 !
b1101001 !
b1101101 !
b1111101 !
1=
1:
1@
1A
1;
19
1*
0E
0F
0G
0H
1J
18
06
05
04
03
0$
0%
0&
0'
1)
#170000
b1111111 !
b1110111 !
b1110110 !
b110110 !
b110010 !
1<
0=
0>
0A
0;
09
0*
1E
1H
1I
17
16
13
1$
1'
1(
#175000
b10110010 !
b10010010 !
b10000010 !
b10001010 !
b11001010 !
b11001110 !
1=
1>
0:
0@
1A
1B
0D
0E
1F
1G
0H
0I
07
06
15
14
03
02
0#
0$
1%
1&
0'
0(
#180000
b11001111 !
b1001111 !
b1101111 !
b1111111 !
b111111 !
1:
1@
0A
0B
1;
19
1*
1D
1E
0F
0G
0J
08
05
04
13
12
1#
1$
0%
0&
0)
#185000
b111101 !
b111001 !
b10111001 !
0<
0=
1B
0D
1I
1J
18
17
02
0#
1(
1)
#190000
b10110001 !
b10110000 !
b10010000 !
b10000000 !
0>
0:
0@
0;
09
1?
0*
0J
0I
07
08
0C
0)
0(
0E
1D
12
03
11
1"
0$
1#
#195000
b11000000 !
b11000010 !
b11000011 !
1<
1A
1;
19
1C
0?
1*
1E
0D
1I
1H
1G
1F
14
15
16
17
02
13
01
0"
1$
0#
1(
1'
1&
1%
0E
03
0$
#200000
b11100011 !
b11110011 !
b10110011 !
1:
1@
0A
1E
0F
0G
05
04
13
1$
0%
0&
#205000
b10110111 !
b110111 !
b110101 !
b110100 !
0<
1=
0B
0;
09
0*
1D
12
1#
#210000
b111100 !
b11100 !
b1011100 !
1>
0@
1A
0E
1F
0H
06
14
03
0$
1%
0'
#215000
b1001100 !
b11001100 !
b11001101 !
b11101101 !
b10101101 !
0:
1@
0A
1B
1;
19
1*
0D
1E
0F
1G
1J
0I
07
18
15
04
13
02
0#
1$
0%
1&
1)
0(
#220000
b10101001 !
b10101011 !
b101011 !
b1011 !
b1001011 !
1<
0=
0@
1A
0B
1D
0E
1F
1I
0J
08
17
14
03
12
1#
0$
1%
1(
0)
#225000
b1000011 !
b1000010 !
b1000110 !
b11000110 !
1=
0>
1B
0;
09
0*
0D
1H
0I
1J
18
07
16
02
0#
1'
0(
1)
#230000
b11010110 !
b11010100 !
b11011100 !
b11011000 !
b1011000 !
0<
0=
1>
1:
0B
1D
0G
0J
08
05
12
1#
0&
0)
#235000
b1111000 !
b111000 !
b111001 !
b101001 !
b100001 !
b100101 !
1=
0>
0:
1@
0A
1;
19
1*
1E
0F
1G
1J
18
15
04
13
1$
0%
1&
1)
#240000
b100111 !
b10100111 !
b10000111 !
b10010111 !
b10011111 !
1<
1>
1:
0@
1B
0D
1F
0G
0H
0J
08
06
05
14
02
0#
1%
0&
0'
0)
#245000
b10011110 !
b10001110 !
b10000110 !
0>
0:
0;
09
0*
1G
1H
1J
18
16
15
1&
1'
1)
#250000
b10000100 !
b10100100 !
b10100101 !
0<
1@
1;
19
1*
0F
04
0%
#255000
b100101 !
b110101 !
b111101 !
1>
1:
0B
1D
0G
0H
06
05
12
1#
0&
0'
#260000
b1111101 !
b1111001 !
b1111011 !
b11111011 !
b11101011 !
b11100011 !
1<
0=
0>
0:
1A
1B
0D
0E
1G
1H
1I
0J
08
17
16
15
03
02
0#
0$
1&
1'
1(
0)
#265000
b10100011 !
b100011 !
b101011 !
1>
0A
0B
1D
1E
0H
06
13
12
1#
1$
0'
#270000
b101111 !
b101101 !
b111101 !
b10111101 !
b10110101 !
0<
1=
0>
1:
1B
0D
0G
1H
0I
1J
18
07
16
05
02
0#
0&
1'
0(
1)
#275000
b10110111 !
b10100111 !
1<
0:
1G
0J
08
15
1&
0)
#280000
b10100110 !
b11100110 !
b11100010 !
b1100010 !
b1100000 !
b1110000 !
0<
0=
1:
1A
0B
0;
09
1?
0*
1D
0E
0H
06
03
12
1#
0$
0'
#285000
b1111000 !
b11111000 !
b11111010 !
1<
1>
1B
0?
0D
0G
1J
1I
17
18
05
02
0#
0&
1)
1(
#290000
b11111011 !
b10111011 !
b10111111 !
b10101111 !
b101111 !
1=
0:
0A
0B
1;
19
1*
1D
1E
1G
0I
0J
08
07
15
13
12
1#
1$
1&
0(
0)
#295000
b1111 !
b1101 !
b1100 !
b1001100 !
b1001000 !
0<
0=
0@
1A
0;
09
0*
0E
1F
1H
16
14
03
0$
1%
1'
#300000
b1011000 !
b11000 !
1:
0A
1E
0G
05
13
1$
0&
#305000
b10011000 !
b10111000 !
b10111010 !
b10111011 !
b11111011 !
1<
1@
1A
1B
1;
19
1*
0D
0E
0F
1I
0H
06
17
04
03
02
0#
0$
0%
1(
0'
#310000
b11110011 !
b1110011 !
b1010011 !
b1010001 !
b1010000 !
b10000 !
0<
0>
0@
0A
0B
0;
09
1?
0*
1D
1E
1F
1G
0I
07
15
14
13
12
1#
1$
1%
1&
0(
#315000
b10100 !
b11100 !
b11110 !
b11111 !
b1011111 !
1<
1=
1>
1A
1;
19
0?
1*
0E
0G
05
03
0$
0&
#320000
b1001111 !
b1000111 !
b1000110 !
b110 !
0>
0:
0A
0;
09
0*
1E
1G
1H
1J
18
16
15
13
1$
1&
1'
1)
#325000
b10 !
b1010 !
0=
1>
0H
1I
17
06
0'
1(
#330000
b101010 !
b101000 !
b111000 !
b1111000 !
b1111100 !
0<
1=
1:
1@
1A
0E
0F
0G
0J
08
05
04
03
0$
0%
0&
0)
#335000
b1111101 !
b1110101 !
b1100101 !
0>
0:
1;
19
1*
1G
1H
1J
0I
07
18
16
15
1&
1'
1)
0(
#340000
b11100101 !
b11000101 !
b10000101 !
b10000001 !
b10001001 !
0=
1>
0@
0A
1B
0D
1E
1F
0H
1I
17
06
14
13
02
0#
1$
1%
0'
1(
#345000
b10001011 !
b10001010 !
b10011010 !
b11010 !
b111010 !
b111110 !
b110110 !
1<
1=
0>
1:
1@
0B
0;
09
0*
1D
0F
0G
1H
0I
07
16
05
04
12
1#
0%
0&
1'
0(
#350000
b110100 !
b10100 !
b10000 !
b11000 !
0<
0=
1>
0@
1F
0J
08
14
1%
0)
#355000
b11001 !
b10011001 !
b10011011 !
b10111011 !
b10111111 !
1<
1=
1@
1B
1;
19
1*
0D
0F
0H
06
04
02
0#
0%
0'
#360000
b11111111 !
b1111111 !
1A
0B
1D
0E
03
12
1#
0$
#365000
b1111110 !
b1011110 !
b1011010 !
b11011010 !
0=
0@
1B
0;
09
0*
0D
1F
1I
1J
18
17
14
02
0#
1%
1(
1)
#370000
b11001010 !
b11000010 !
b11100010 !
b11100110 !
b1100110 !
1=
0>
0:
1@
0B
1D
0F
1G
1H
0I
07
16
15
04
12
1#
0%
1&
1'
0(
#375000
b1100100 !
b100100 !
b100000 !
0<
0=
0A
1?
1E
0H
0G
1F
0J
08
14
05
06
13
1$
0'
0&
1%
0)
#380000
b10100000 !
1B
0D
02
0#
#385000
b10101000 !
b10001000 !
b11001000 !
1>
0@
1A
0?
1H
1G
15
16
1'
1&
0E
03
0$
#390000
b11011000 !
b11011010 !
b1011010 !
b11010 !
1<
1:
0A
0B
1D
1E
0G
1J
1I
0H
06
17
18
05
13
12
1#
1$
0&
1)
1(
0'
#395000
b11011 !
b111011 !
b101011 !
0:
1@
1;
19
1*
0F
1G
0J
08
15
04
0%
1&
0)
#400000
b101111 !
b101101 !
b10101101 !
b11101101 !
b11001101 !
0<
1=
0@
1A
1B
0D
0E
1F
0I
1J
18
07
14
03
02
0#
0$
1%
0(
1)
#405000
b11011101 !
b11011001 !
b1011001 !
b11001 !
0=
1:
0A
0B
1D
1E
0G
1I
17
05
13
12
1#
1$
0&
1(
#410000
b10001 !
b10011 !
b110011 !
b1110011 !
1<
0>
1@
1A
0E
0F
1H
0J
08
16
04
03
0$
0%
1'
0)
#415000
b1110010 !
b11110010 !
b11111010 !
b11111000 !
b11011000 !
0<
1>
0@
1B
0;
09
0*
0D
1F
0I
07
14
02
0#
1%
0(
#420000
b11011100 !
b11010100 !
b11010110 !
b11110110 !
1<
1=
0>
1@
0F
1J
18
04
0%
1)
#425000
b11110111 !
b1110111 !
b1110011 !
b1110001 !
0<
0=
0B
1;
19
1*
1D
1I
17
12
1#
1(
#430000
b1100001 !
b100001 !
b1 !
b0 !
b10000000 !
b10000100 !
b10000110 !
1<
1=
0:
0@
0A
1B
0;
09
0*
0D
1E
1F
1G
0I
07
15
14
13
02
0#
1$
1%
1&
0(
#435000
b10001110 !
b10011110 !
b11011110 !
b11111110 !
b11111111 !
b1111111 !
1>
1:
1@
1A
0B
1;
19
1*
1D
0E
0F
0G
0H
0J
08
06
05
04
03
12
1#
0$
0%
0&
0'
0)
#440000
b1111101 !
b1110101 !
b1100101 !
b100101 !
b101 !
b10000101 !
0<
0>
0:
0@
0A
1B
0D
1E
1F
1G
1H
1J
18
16
15
14
13
02
0#
1$
1%
1&
1'
1)
#445000
b10000001 !
b10000000 !
b10010000 !
b11010000 !
b11110000 !
b1110000 !
0=
1:
1@
1A
0B
0;
09
1?
0*
1D
0E
0F
0H
0J
08
06
04
03
12
1#
0$
0%
0'
0)
#450000
b1111000 !
b1111100 !
b1111101 !
b1101101 !
b101101 !
b1101 !
1=
1>
0:
0@
0A
1;
19
0?
1*
0D
1F
1J
18
14
02
0#
1%
1)
1E
1D
12
13
1$
1#
#455000
b1100 !
b11100 !
b1011100 !
b1111100 !
1:
1@
1A
0;
09
0*
0E
0F
0G
0J
1I
17
08
05
04
03
0$
0%
0&
0)
1(
#460000
b1111110 !
b1110110 !
1<
0>
1H
1J
0I
07
18
16
1'
1)
0(
#465000
b1110111 !
b1100111 !
b1101111 !
1>
0:
1;
19
1*
1G
0H
0J
08
06
15
1&
0'
0)
#470000
b1101101 !
0<
1J
18
1)
#475000
b101101 !
b1101 !
b1100 !
0@
0A
0;
09
0*
1E
1F
0J
1I
17
08
14
13
1$
1%
0)
1(
#480000
b1000 !
b0 !
b100000 !
0=
0>
1@
1?
0G
0I
07
05
0&
0(
#485000
b10100000 !
b10110000 !
b11110000 !
b11110001 !
b11111001 !
1>
1:
1A
1B
1;
19
0?
1*
0D
0E
0F
1J
1I
17
18
04
03
02
0#
0$
0%
1)
1(
#490000
b11111011 !
b1111011 !
b1110011 !
1<
0>
0B
1D
1H
0J
08
16
12
1#
1'
0)
#495000
b1110111 !
b1010111 !
b1000111 !
b1000101 !
b11000101 !
b11001101 !
0<
1=
1>
0:
0@
1B
0D
1F
1G
0H
0I
1J
18
07
06
15
14
02
0#
1%
1&
0'
0(
1)
#500000
b10001101 !
b10001100 !
b10101100 !
b10101110 !
b10100110 !
1<
0>
1@
0A
0;
09
0*
1E
0F
1H
16
04
13
1$
0%
1'
#505000
b10110110 !
b110110 !
b1110110 !
b1110111 !
b1010111 !
b1011111 !
1>
1:
0@
1A
0B
1;
19
1*
1D
0E
1F
0G
0H
0J
08
06
05
14
03
12
1#
0$
1%
0&
0'
0)
#510000
b1011011 !
b1011001 !
b1001001 !
b11001001 !
b11101001 !
0<
0=
0:
1@
1B
0D
0F
1G
1I
1J
18
17
15
04
02
0#
0%
1&
1(
1)
#515000
b11100001 !
b11100101 !
b11100111 !
b11110111 !
1<
1=
0>
1:
0G
1H
0I
0J
08
07
16
05
0&
1'
0(
0)
#520000
b11110110 !
b11010110 !
b11010100 !
b11000100 !
0<
0:
0@
0;
09
0*
1F
1G
1I
17
15
14
1%
1&
1(
#525000
b11001100 !
b11001110 !
b11011110 !
1<
1>
1:
0G
0H
1J
0I
07
18
06
05
0&
0'
1)
0(
#530000
b10011110 !
b11110 !
b11010 !
b111010 !
b110010 !
b110000 !
b100000 !
0<
0=
0>
0:
1@
0A
0B
1?
1D
1E
0J
08
13
12
1#
1$
0)
#535000
b100001 !
b1100001 !
b11100001 !
b11100101 !
b11100111 !
b11110111 !
1<
1=
1:
1A
1B
1;
19
0?
1*
0D
0E
0F
1H
16
04
03
02
0#
0$
0%
1'
#540000
b11010111 !
b10010111 !
b10010101 !
b10000101 !
0<
0:
0@
0A
1E
1F
1G
1J
18
15
14
13
1$
1%
1&
1)
#545000
b10000100 !
b10000000 !
b10000010 !
b10010010 !
1<
0=
1:
0;
09
0*
0G
1I
17
05
0&
1(
#550000
b10011010 !
b11010 !
b111010 !
1>
1@
0B
1D
0F
0H
06
04
12
1#
0%
0'
#555000
b1111010 !
b1111011 !
b1111111 !
b1111101 !
b1101101 !
0<
1=
0:
1A
1;
19
1*
0E
1G
0I
07
15
03
0$
1&
0(
#560000
b11101101 !
b11001101 !
b11001100 !
b11001000 !
b11001010 !
1<
0=
0@
1B
0;
09
0*
0D
1F
1I
17
14
02
0#
1%
1(
#565000
b11011010 !
b11111010 !
b11111011 !
1:
1@
1;
19
1*
0F
0G
0J
08
05
04
0%
0&
0)
#570000
b1111011 !
b1101011 !
0:
0B
1D
1G
15
12
1#
1&
#575000
b101011 !
b101001 !
b1001 !
b10001001 !
0<
0@
0A
1B
0D
1E
1F
1J
18
14
13
02
0#
1$
1%
1)
#580000
b10000001 !
b10000000 !
b10010000 !
b10010010 !
b10010 !
1<
0>
1:
0B
0;
09
0*
1D
0G
1H
16
05
12
1#
0&
1'
#585000
b10110 !
b1010110 !
b1000110 !
1=
0:
1A
0E
1G
0I
07
15
03
0$
1&
0(
#590000
b1001110 !
b1001111 !
b11001111 !
b11011111 !
1>
1:
1B
1;
19
1*
0D
0G
0H
0J
08
06
05
02
0#
0&
0'
0)
#595000
b11011101 !
b11011001 !
b10011001 !
b10001001 !
0<
0=
0:
0A
1E
1G
1I
1J
18
17
15
13
1$
1&
1(
1)
#600000
b10101001 !
b10101000 !
b10101100 !
b10111100 !
1=
1:
1@
0;
09
0*
0F
0G
0J
08
05
04
0%
0&
0)
#605000
b10110100 !
b110100 !
b110110 !
b1110110 !
b1010110 !
b1010010 !
b1000010 !
1<
0=
0>
0:
0@
1A
0B
1D
0E
1F
1G
1H
1J
18
16
15
14
03
12
1#
0$
1%
1&
1'
1)
#610000
b1001010 !
b11001010 !
b11001000 !
b10001000 !
b10101000 !
b10101100 !
0<
1=
1>
1@
0A
1B
0D
1E
0F
0H
0J
08
06
04
13
02
0#
1$
0%
0'
0)
#615000
b10100100 !
b100100 !
b100000 !
0=
0>
0B
1?
1D
0G
1F
0I
07
14
05
12
1#
0&
1%
0(
#620000
b110000 !
b10000 !
b10010000 !
b10010100 !
1=
1:
0@
1B
0?
0D
1I
1H
16
17
02
0#
1(
1'
#625000
b10010110 !
b10000110 !
b10100110 !
b100110 !
1<
0:
1@
0B
1D
0F
1G
1J
0I
07
18
15
04
12
1#
0%
1&
1)
0(
#630000
b100111 !
b1100111 !
b1101111 !
b1101011 !
b1111011 !
b1011011 !
0=
1>
1:
0@
1A
1;
19
1*
0E
1F
0G
0H
1I
0J
08
17
06
05
14
03
0$
1%
0&
0'
1(
0)
#635000
b1011010 !
b1010010 !
b1010110 !
b1000110 !
1=
0>
0:
0;
09
0*
1G
1H
0I
1J
18
07
16
15
1&
1'
0(
1)
#640000
b1000100 !
b1100100 !
b1100101 !
b1101101 !
b1111101 !
0<
1>
1:
1@
1;
19
1*
0F
0G
0H
06
05
04
0%
0&
0'
#645000
b11111101 !
b11111111 !
b11011111 !
1<
0@
1B
0D
1F
0J
08
14
02
0#
1%
0)
#650000
b10011111 !
b10011011 !
b10001011 !
b10001001 !
0<
0=
0:
0A
1E
1G
1I
1J
18
17
15
13
1$
1&
1(
1)
#655000
b10001000 !
b10000000 !
b0 !
b100000 !
b100100 !
b100110 !
1<
1=
0>
1@
0B
0;
09
0*
1D
0F
1H
0I
07
16
04
12
1#
0%
1'
0(
#660000
b1100110 !
b1100111 !
b1101111 !
b11101111 !
1>
1A
1B
1;
19
1*
0D
0E
0H
0J
08
06
03
02
0#
0$
0'
0)
#665000
b11101011 !
b11101001 !
b10101001 !
b10101000 !
0<
0=
0A
0;
09
0*
1E
1H
16
13
1$
1'
#670000
b10001000 !
b10000000 !
b0 !
b1000000 !
0>
0@
1A
0B
1?
1D
0E
0H
0G
05
06
03
12
1#
0$
0'
0&
1E
13
1$
#675000
b1010000 !
b1010100 !
b1011100 !
b11011100 !
1=
1>
1:
1B
0?
0D
1F
0E
1I
17
03
14
02
0#
1%
0$
1(
#680000
b11011101 !
b11011001 !
b1011001 !
0=
0B
1;
19
1*
1D
1J
18
12
1#
1)
#685000
b1111001 !
b111001 !
b101001 !
b100001 !
b100000 !
b10100000 !
0>
0:
1@
0A
1B
0;
09
1?
0*
0D
1E
0J
0I
07
08
13
02
0#
1$
0)
0(
#690000
b10100010 !
b10000010 !
b11000010 !
b11010010 !
b11011010 !
1<
1>
1:
0@
1A
0?
0E
1J
1I
17
18
03
0$
1)
1(
#695000
b11011011 !
b1011011 !
b1011001 !
b1111001 !
b111001 !
0<
1@
0A
0B
1;
19
1*
1D
1E
0F
04
13
12
1#
1$
0%
#700000
b111000 !
b10111000 !
b10111010 !
b10011010 !
1<
0@
1B
0;
09
0*
0D
1F
14
02
0#
1%
#705000
b11011010 !
b1011010 !
b1111010 !
1@
1A
0B
1D
0E
0F
04
03
12
1#
0$
0%
#710000
b1111110 !
b1101110 !
b1100110 !
b1100111 !
b1100101 !
b100101 !
b10100101 !
b10000101 !
0<
1=
0>
0:
0@
0A
1B
1;
19
1*
0D
1E
1F
1G
1H
0I
07
16
15
14
13
02
0#
1$
1%
1&
1'
0(
#715000
b10000001 !
b10010001 !
b10010000 !
b10010010 !
b11010010 !
b1010010 !
1<
0=
1:
1A
0B
0;
09
0*
1D
0E
0G
1I
17
05
03
12
1#
0$
0&
1(
#720000
b1000010 !
b1000011 !
0:
1;
19
1*
1G
0J
08
15
1&
0)
#725000
b1100011 !
b1100111 !
b11100111 !
b11110111 !
b11110110 !
1=
1:
1@
1B
0;
09
0*
0D
0F
0G
0I
1J
18
07
05
04
02
0#
0%
0&
0(
1)
#730000
b11111110 !
b11111111 !
1>
1;
19
1*
0H
0J
08
06
0'
0)
#735000
b11101111 !
b11100111 !
0>
0:
1G
1H
16
15
1&
1'
#740000
b11100101 !
b11000101 !
b11000001 !
b1000001 !
b1000000 !
0<
0=
0@
0B
0;
09
1?
0*
1D
0H
0G
05
06
12
1#
0'
0&
1E
13
1$
#745000
b0 !
b10 !
b110 !
b10000110 !
b10000111 !
1<
1=
0A
1B
1;
19
0C
0?
1*
0E
1H
1G
1F
14
15
16
03
11
1C
1"
0$
1'
1&
1%
1E
0D
02
13
01
0"
1$
0#
#750000
b10010111 !
b10011111 !
b11011111 !
b11011101 !
b11011100 !
0<
1>
1:
1A
0;
09
0*
0E
0G
0H
1I
17
06
05
03
0$
0&
0'
1(
#755000
b11111100 !
b11111000 !
b11101000 !
b10101000 !
b10101010 !
1<
0=
0:
1@
0A
1E
0F
1G
1J
18
15
04
13
1$
0%
1&
1)
#760000
b101010 !
b101011 !
b1101011 !
1A
0B
1;
19
1*
1D
0E
0J
08
03
12
1#
0$
0)
#765000
b1001011 !
b1001111 !
b1111 !
1=
0@
0A
1E
1F
0I
07
14
13
1$
1%
0(
#770000
b111 !
b10111 !
b10010111 !
b10010110 !
b10010010 !
0=
0>
1:
1B
0;
09
0*
0D
0G
1H
1I
1J
18
17
16
05
02
0#
0&
1'
1(
1)
#775000
b10000010 !
b10 !
0:
0B
1D
1G
15
12
1#
1&
#780000
b0 !
b1000000 !
b1000001 !
b1000101 !
b1010101 !
0<
1=
1:
1A
1;
19
1*
0E
0G
0I
07
05
03
0$
0&
0(
#785000
b1110101 !
b1110111 !
b110111 !
b110011 !
b100011 !
1<
0=
0:
1@
0A
1E
0F
1G
1I
0J
08
17
15
04
13
1$
0%
1&
1(
0)
#790000
b101011 !
b10101011 !
b10101010 !
b10101110 !
b10111110 !
1=
1>
1:
1B
0;
09
0*
0D
0G
0H
0I
1J
18
07
06
05
02
0#
0&
0'
0(
1)
#795000
b10111100 !
b11111100 !
b1111100 !
b1111101 !
0<
1A
0B
1;
19
1*
1D
0E
03
12
1#
0$
#800000
b1110101 !
b1110001 !
0=
0>
1H
1I
17
16
1'
1(
#805000
b1010001 !
b1010011 !
b1010111 !
1<
1=
0@
1F
0I
0J
08
07
14
1%
0(
0)
#810000
b10111 !
b10010111 !
b10010110 !
b10011110 !
b10111110 !
1>
1@
0A
1B
0;
09
0*
0D
1E
0F
0H
1J
18
06
04
13
02
0#
1$
0%
0'
1)
#815000
b10111100 !
b10111101 !
b10011101 !
0<
0@
1;
19
1*
1F
14
1%
#820000
b11101 !
b11111 !
b11110 !
b111110 !
1<
1@
0B
0;
09
0*
1D
0F
04
12
1#
0%
#825000
b101110 !
b100110 !
b10100110 !
0>
0:
1B
0D
1G
1H
16
15
02
0#
1&
1'
#830000
b10100111 !
b10110111 !
1:
1;
19
1*
0G
0J
08
05
0&
0)
#835000
b10110101 !
b10010101 !
b10101 !
b10100 !
b100 !
0<
0:
0@
0B
0;
09
0*
1D
1F
1G
1I
17
15
14
12
1#
1%
1&
1(
#840000
b101 !
b10101 !
1:
1;
19
1*
0G
1J
0I
07
18
05
0&
1)
0(
#845000
b10001 !
b10010001 !
0=
1B
0D
1I
17
02
0#
1(
#850000
b10010000 !
b10010100 !
1=
0;
09
0*
0J
08
0)
#855000
b11010100 !
b11010110 !
b11110110 !
1<
1@
1A
0E
0F
1J
0I
07
18
04
03
0$
0%
1)
0(
#860000
b11111110 !
b11101110 !
b10101110 !
b10101100 !
b10001100 !
0<
1>
0:
0@
0A
1E
1F
1G
0H
0J
1I
17
08
06
15
14
13
1$
1%
1&
0'
0)
1(
#865000
b1100 !
b1101 !
b1001 !
b1 !
b1000001 !
0=
0>
1A
0B
1;
19
1*
1D
0E
1H
1J
18
16
03
12
1#
0$
1'
1)
#870000
b1100001 !
b11100001 !
b11100101 !
1=
1@
1B
0D
0F
0I
07
04
02
0#
0%
0(
#875000
b11101101 !
b10101101 !
b10001101 !
b1101 !
b1001 !
0=
1>
0@
0A
0B
1D
1E
1F
0H
1I
17
06
14
13
12
1#
1$
1%
0'
1(
#880000
b11001 !
b11101 !
1=
1:
0G
0I
07
05
0&
0(
#885000
b11100 !
b10100 !
b1010100 !
b11010100 !
0>
1A
1B
0;
09
0*
0D
0E
1H
0J
1I
17
08
16
03
02
0#
0$
1'
0)
1(
#890000
b11010110 !
b11110110 !
b11110010 !
b11110011 !
b1110011 !
1<
0=
1@
0B
1;
19
1*
1D
0F
04
12
1#
0%
#895000
b1100011 !
b1101011 !
b101011 !
b1011 !
b10001011 !
1>
0:
0@
0A
1B
0D
1E
1F
1G
0H
06
15
14
13
02
0#
1$
1%
1&
0'
#900000
b10001111 !
b10001110 !
b1110 !
1=
0B
0;
09
0*
1D
0I
1J
18
07
12
1#
0(
1)
#905000
b11110 !
b111110 !
b111010 !
b10111010 !
0=
1:
1@
1B
0D
0F
0G
1I
17
05
04
02
0#
0%
0&
1(
#910000
b10111011 !
b10101011 !
b10101111 !
1=
0:
1;
19
1*
1G
0I
0J
08
07
15
1&
0(
0)
#915000
b10100111 !
b11100111 !
b11000111 !
b1000111 !
b1000110 !
0>
0@
1A
0B
0;
09
0*
1D
0E
1F
1H
1J
18
16
14
03
12
1#
0$
1%
1'
1)
