Registator/simulation/qsim/Registrator.msim.vcd
$comment
	File created using the following command:
		vcd file Registrator.msim.vcd -direction
$end
$date
	Sat Nov  5 23:21:45 2016
$end
$version
	ModelSim Version 10.4d
$end
$timescale
	1ps
$end

$scope module dffe24_vlg_vec_tst $end
$var reg 1 ! CLK $end
$var reg 1 " CLRN $end
$var reg 24 # D [23:0] $end
$var reg 1 $ ENA $end
$var reg 1 % PRN $end
$var wire 1 & Q [23] $end
$var wire 1 ' Q [22] $end
$var wire 1 ( Q [21] $end
$var wire 1 ) Q [20] $end
$var wire 1 * Q [19] $end
$var wire 1 + Q [18] $end
$var wire 1 , Q [17] $end
$var wire 1 - Q [16] $end
$var wire 1 . Q [15] $end
$var wire 1 / Q [14] $end
$var wire 1 0 Q [13] $end
$var wire 1 1 Q [12] $end
$var wire 1 2 Q [11] $end
$var wire 1 3 Q [10] $end
$var wire 1 4 Q [9] $end
$var wire 1 5 Q [8] $end
$var wire 1 6 Q [7] $end
$var wire 1 7 Q [6] $end
$var wire 1 8 Q [5] $end
$var wire 1 9 Q [4] $end
$var wire 1 : Q [3] $end
$var wire 1 ; Q [2] $end
$var wire 1 < Q [1] $end
$var wire 1 = Q [0] $end

$scope module i1 $end
$var wire 1 > gnd $end
$var wire 1 ? vcc $end
$var wire 1 @ unknown $end
$var tri1 1 A devclrn $end
$var tri1 1 B devpor $end
$var tri1 1 C devoe $end
$var wire 1 D Q[23]~output_o $end
$var wire 1 E Q[22]~output_o $end
$var wire 1 F Q[21]~output_o $end
$var wire 1 G Q[20]~output_o $end
$var wire 1 H Q[19]~output_o $end
$var wire 1 I Q[18]~output_o $end
$var wire 1 J Q[17]~output_o $end
$var wire 1 K Q[16]~output_o $end
$var wire 1 L Q[15]~output_o $end
$var wire 1 M Q[14]~output_o $end
$var wire 1 N Q[13]~output_o $end
$var wire 1 O Q[12]~output_o $end
$var wire 1 P Q[11]~output_o $end
$var wire 1 Q Q[10]~output_o $end
$var wire 1 R Q[9]~output_o $end
$var wire 1 S Q[8]~output_o $end
$var wire 1 T Q[7]~output_o $end
$var wire 1 U Q[6]~output_o $end
$var wire 1 V Q[5]~output_o $end
$var wire 1 W Q[4]~output_o $end
$var wire 1 X Q[3]~output_o $end
$var wire 1 Y Q[2]~output_o $end
$var wire 1 Z Q[1]~output_o $end
$var wire 1 [ Q[0]~output_o $end
$var wire 1 \ CLK~input_o $end
$var wire 1 ] D[23]~input_o $end
$var wire 1 ^ PRN~input_o $end
$var wire 1 _ CLRN~input_o $end
$var wire 1 ` inst2|inst1|inst2~1_combout $end
$var wire 1 a inst2|inst1|inst2~3_combout $end
$var wire 1 b inst2|inst1|inst2~0_combout $end
$var wire 1 c ENA~input_o $end
$var wire 1 d inst2|inst1|inst2~_emulated_q $end
$var wire 1 e inst2|inst1|inst2~2_combout $end
$var wire 1 f D[22]~input_o $end
$var wire 1 g inst2|inst1|inst1~1_combout $end
$var wire 1 h inst2|inst1|inst1~_emulated_q $end
$var wire 1 i inst2|inst1|inst1~0_combout $end
$var wire 1 j D[21]~input_o $end
$var wire 1 k inst2|inst1|inst~1_combout $end
$var wire 1 l inst2|inst1|inst~_emulated_q $end
$var wire 1 m inst2|inst1|inst~0_combout $end
$var wire 1 n D[20]~input_o $end
$var wire 1 o inst2|inst1|inst3~1_combout $end
$var wire 1 p inst2|inst1|inst3~_emulated_q $end
$var wire 1 q inst2|inst1|inst3~0_combout $end
$var wire 1 r D[19]~input_o $end
$var wire 1 s inst2|inst|inst2~1_combout $end
$var wire 1 t inst2|inst|inst2~_emulated_q $end
$var wire 1 u inst2|inst|inst2~0_combout $end
$var wire 1 v D[18]~input_o $end
$var wire 1 w inst2|inst|inst1~1_combout $end
$var wire 1 x inst2|inst|inst1~_emulated_q $end
$var wire 1 y inst2|inst|inst1~0_combout $end
$var wire 1 z D[17]~input_o $end
$var wire 1 { inst2|inst|inst~1_combout $end
$var wire 1 | inst2|inst|inst~_emulated_q $end
$var wire 1 } inst2|inst|inst~0_combout $end
$var wire 1 ~ D[16]~input_o $end
$var wire 1 !! inst2|inst|inst3~1_combout $end
$var wire 1 "! inst2|inst|inst3~_emulated_q $end
$var wire 1 #! inst2|inst|inst3~0_combout $end
$var wire 1 $! D[15]~input_o $end
$var wire 1 %! inst1|inst1|inst2~1_combout $end
$var wire 1 &! inst1|inst1|inst2~_emulated_q $end
$var wire 1 '! inst1|inst1|inst2~0_combout $end
$var wire 1 (! D[14]~input_o $end
$var wire 1 )! inst1|inst1|inst1~1_combout $end
$var wire 1 *! inst1|inst1|inst1~_emulated_q $end
$var wire 1 +! inst1|inst1|inst1~0_combout $end
$var wire 1 ,! D[13]~input_o $end
$var wire 1 -! inst1|inst1|inst~1_combout $end
$var wire 1 .! inst1|inst1|inst~_emulated_q $end
$var wire 1 /! inst1|inst1|inst~0_combout $end
$var wire 1 0! D[12]~input_o $end
$var wire 1 1! inst1|inst1|inst3~1_combout $end
$var wire 1 2! inst1|inst1|inst3~_emulated_q $end
$var wire 1 3! inst1|inst1|inst3~0_combout $end
$var wire 1 4! D[11]~input_o $end
$var wire 1 5! inst1|inst|inst2~1_combout $end
$var wire 1 6! inst1|inst|inst2~_emulated_q $end
$var wire 1 7! inst1|inst|inst2~0_combout $end
$var wire 1 8! D[10]~input_o $end
$var wire 1 9! inst1|inst|inst1~1_combout $end
$var wire 1 :! inst1|inst|inst1~_emulated_q $end
$var wire 1 ;! inst1|inst|inst1~0_combout $end
$var wire 1 <! D[9]~input_o $end
$var wire 1 =! inst1|inst|inst~1_combout $end
$var wire 1 >! inst1|inst|inst~_emulated_q $end
$var wire 1 ?! inst1|inst|inst~0_combout $end
$var wire 1 @! D[8]~input_o $end
$var wire 1 A! inst1|inst|inst3~1_combout $end
$var wire 1 B! inst1|inst|inst3~_emulated_q $end
$var wire 1 C! inst1|inst|inst3~0_combout $end
$var wire 1 D! D[7]~input_o $end
$var wire 1 E! inst|inst1|inst2~1_combout $end
$var wire 1 F! inst|inst1|inst2~_emulated_q $end
$var wire 1 G! inst|inst1|inst2~0_combout $end
$var wire 1 H! D[6]~input_o $end
$var wire 1 I! inst|inst1|inst1~1_combout $end
$var wire 1 J! inst|inst1|inst1~_emulated_q $end
$var wire 1 K! inst|inst1|inst1~0_combout $end
$var wire 1 L! D[5]~input_o $end
$var wire 1 M! inst|inst1|inst~1_combout $end
$var wire 1 N! inst|inst1|inst~_emulated_q $end
$var wire 1 O! inst|inst1|inst~0_combout $end
$var wire 1 P! D[4]~input_o $end
$var wire 1 Q! inst|inst1|inst3~1_combout $end
$var wire 1 R! inst|inst1|inst3~_emulated_q $end
$var wire 1 S! inst|inst1|inst3~0_combout $end
$var wire 1 T! D[3]~input_o $end
$var wire 1 U! inst|inst|inst2~1_combout $end
$var wire 1 V! inst|inst|inst2~_emulated_q $end
$var wire 1 W! inst|inst|inst2~0_combout $end
$var wire 1 X! D[2]~input_o $end
$var wire 1 Y! inst|inst|inst1~1_combout $end
$var wire 1 Z! inst|inst|inst1~_emulated_q $end
$var wire 1 [! inst|inst|inst1~0_combout $end
$var wire 1 \! D[1]~input_o $end
$var wire 1 ]! inst|inst|inst~1_combout $end
$var wire 1 ^! inst|inst|inst~_emulated_q $end
$var wire 1 _! inst|inst|inst~0_combout $end
$var wire 1 `! D[0]~input_o $end
$var wire 1 a! inst|inst|inst3~1_combout $end
$var wire 1 b! inst|inst|inst3~_emulated_q $end
$var wire 1 c! inst|inst|inst3~0_combout $end
$upscope $end
$upscope $end
$enddefinitions $end
#0
$dumpvars
0!
0"
b1100001100010110101111 #
1$
1%
0=
0<
0;
0:
09
08
07
06
05
04
03
02
01
00
0/
0.
0-
0,
0+
0*
0)
0(
0'
0&
0>
1?
x@
1A
1B
1C
0D
0E
0F
0G
0H
0I
0J
0K
0L
0M
0N
0O
0P
0Q
0R
0S
0T
0U
0V
0W
0X
0Y
0Z
0[
0\
0]
1^
0_
0`
0a
1b
1c
0d
0e
0f
0g
0h
0i
1j
1k
0l
0m
1n
1o
0p
0q
0r
0s
0t
0u
0v
0w
0x
0y
0z
0{
0|
0}
0~
0!!
0"!
0#!
1$!
1%!
0&!
0'!
1(!
1)!
0*!
0+!
0,!
0-!
0.!
0/!
00!
01!
02!
03!
04!
05!
06!
07!
18!
19!
0:!
0;!
0<!
0=!
0>!
0?!
1@!
1A!
0B!
0C!
1D!
1E!
0F!
0G!
0H!
0I!
0J!
0K!
1L!
1M!
0N!
0O!
0P!
0Q!
0R!
0S!
1T!
1U!
0V!
0W!
1X!
1Y!
0Z!
0[!
1\!
1]!
0^!
0_!
1`!
1a!
0b!
0c!
$end
#5000
1!
b1110001100010110101111 #
b1110011100010110101111 #
b1110011110010110101111 #
b1110011110000110101111 #
b1110011110001110101111 #
b1110011110001010101111 #
b1110011110001010101101 #
b1110011110001010101100 #
1\
0`!
0\!
0@!
1<!
08!
1,!
1~
1r
1s
1!!
1-!
09!
1=!
0A!
0]!
0a!
#10000
b11110011110001010101100 #
b11110111110001010101100 #
b11110110110001010101100 #
b11110110111001010101100 #
b11110110111001000101100 #
b11110110111001000111100 #
b11110110111001000110100 #
0!
b11110110111011000110100 #
b11110110111011100110100 #
b11110110111011100110110 #
b11110110111011100110111 #
1`!
1\!
0T!
1P!
0D!
1@!
18!
10!
0$!
1z
1f
0\
1g
1{
0%!
11!
19!
1A!
0E!
1Q!
0U!
1]!
1a!
#15000
b111110110111011100110111 #
b111010110111011100110111 #
b111010110111011100110011 #
b111000110111011100110011 #
b111000100111011100110011 #
b111000100111010100110011 #
b101000100111010100110011 #
b101000100111010100100011 #
1!
0X!
0P!
0<!
0~
0r
0n
0f
1]
1\
1a
0g
0o
0s
0!!
0=!
0Q!
0Y!
#20000
b101001100111010100100011 #
b101001100111110100100011 #
b101001100111110101100011 #
b101001100111110101000011 #
b101001100101110101000011 #
b101001000101110101000011 #
b101001000101110101001011 #
b101001000101100101001011 #
b101001000101100101001001 #
b1001000101100101001001 #
b1101000101100101001001 #
b1101000101100101001101 #
b11101000101100101001101 #
0!
0\!
1X!
1T!
0L!
1H!
08!
14!
0,!
0z
1v
1n
1f
0]
0\
0a
1g
1o
1w
0{
0-!
15!
09!
1I!
0M!
1U!
1Y!
0]!
#25000
b11101000001100101001101 #
b11101001001100101001101 #
b11101001000100101001101 #
b11111001000100101001101 #
b11111001000101101001101 #
b11110001000101101001101 #
b11110001000001101001101 #
b11110001000001101101101 #
b11110101000001101101101 #
b11010101000001101101101 #
b11010101000001101101001 #
b1010101000001101101001 #
1!
0X!
1L!
1<!
04!
00!
0(!
1$!
1z
0v
1r
0n
0f
1\
0g
0o
1s
0w
1{
1%!
0)!
01!
05!
1=!
1M!
0Y!
#30000
b10101000001101101001 #
b10101000001101101000 #
b10101000001101111000 #
b10101010001101111000 #
b10101110001101111000 #
b10100110001101111000 #
b10100110101101111000 #
b10100110101101011000 #
b10000110101101011000 #
b110000110101101011000 #
b10110000110101101011000 #
0!
0`!
1P!
0L!
14!
1,!
1(!
0$!
0z
1n
0j
1f
0\
1g
0k
1o
0{
0%!
1)!
1-!
15!
0M!
1Q!
0a!
#35000
b10110010110101101011000 #
b110110010110101101011000 #
b110110010110100101011000 #
b111110010110100101011000 #
b111110010100100101011000 #
b111110010000100101011000 #
b111110011000100101011000 #
b101110011000100101011000 #
1!
0<!
0,!
0(!
1$!
1~
1j
0f
1]
1\
1a
0g
1k
1!!
1%!
0)!
0-!
0=!
#40000
b101110011000110101011000 #
b101110011000110101011010 #
b101110011001110101011010 #
b101111011001110101011010 #
b101111011001010101011010 #
b101111111001010101011010 #
b101111101001010101011010 #
b1111101001010101011010 #
b1111101011010101011010 #
b1111100011010101011010 #
0!
1\!
18!
04!
10!
1,!
0$!
0~
1z
1v
0]
0\
0a
1w
1{
0!!
0%!
1-!
11!
05!
19!
1]!
#45000
b1111100011010111011010 #
b1111100011010011011010 #
b1111100011010010011010 #
b1111100011010010010010 #
b1101100011010010010010 #
b1001100011010010010010 #
b1001100011011010010010 #
b1001100011001010010010 #
b1001100011001010010000 #
b1001100010001010010000 #
b1000100010001010010000 #
b1000000010001010010000 #
b101000000010001010010000 #
b101000000000001010010000 #
b101000001000001010010000 #
1!
0\!
0T!
0H!
1D!
0@!
1<!
08!
00!
0,!
1$!
0z
0v
0r
0n
1]
1\
1a
0o
0s
0w
0{
1%!
0-!
01!
09!
1=!
0A!
1E!
0I!
0U!
0]!
#50000
b101000001000001010010100 #
b101000001000001010110100 #
b111000001000001010110100 #
b111000001000101010110100 #
b111000011000101010110100 #
b111000011000101000110100 #
b111000011000111000110100 #
b111000011001111000110100 #
0!
1X!
1L!
0D!
18!
14!
10!
1~
1f
0\
1g
1!!
11!
15!
19!
0E!
1M!
1Y!
#55000
b111000011001111000100100 #
b110000011001111000100100 #
b110000011001111000101100 #
b110010011001111000101100 #
b110110011001111000101100 #
b110110011001111000101110 #
b110110111001111000101110 #
b110110111001111000101010 #
b110110111001111000001010 #
b110110101001111000001010 #
b110110101001111010001010 #
b110110101001101010001010 #
b110110101000101010001010 #
1!
1\!
0X!
1T!
0P!
0L!
1D!
08!
00!
0~
1z
1r
1n
0j
1\
0k
1o
1s
1{
0!!
01!
09!
1E!
0M!
0Q!
1U!
0Y!
1]!
#60000
b110110101000101010001011 #
b110110101100101010001011 #
b110110101100101110001011 #
b110110101100101111001011 #
b110111101100101111001011 #
b110111101110101111001011 #
b110111100110101111001011 #
b110111100110001111001011 #
b111111100110001111001011 #
b111101100110001111001011 #
b111101100110001111001001 #
b111101000110001111001001 #
b111101000110001111001101 #
b111101000110001111101101 #
b111101000111001111101101 #
0!
1`!
0\!
1X!
1L!
1H!
1@!
04!
10!
1,!
1(!
0$!
0z
1v
0r
1j
0\
1k
0s
1w
0{
0%!
1)!
1-!
11!
05!
1A!
1I!
1M!
1Y!
0]!
1a!
#65000
b111101000111000111101101 #
b11101000111000111101101 #
b11101000111000111100101 #
b11101000111000110100101 #
b11100000111000110100101 #
b11100000101000110100101 #
b10100000101000110100101 #
b10110000101000110100101 #
b10110100101000110100101 #
b10110100101000110100001 #
b10110100101000110000001 #
1!
0X!
0T!
0L!
0H!
0<!
0,!
1z
0v
1r
0j
0]
1\
0a
0k
1s
0w
1{
0-!
0=!
0I!
0M!
0U!
0Y!
#70000
b110100101000110000001 #
b110100101000110010001 #
b110100101000100010001 #
b110100101010100010001 #
b110100001010100010001 #
b110101001010100010001 #
b110101001110100010001 #
b110101001110100010011 #
b110101000110100010011 #
b110101000111100010011 #
b110101000111101010011 #
b111101000111101010011 #
b111101010111101010011 #
b1111101010111101010011 #
b1101101010111101010011 #
0!
1\!
1P!
1H!
0D!
1<!
18!
14!
00!
1,!
0(!
1$!
1v
0r
1j
0f
0\
0g
1k
0s
1w
1%!
0)!
1-!
01!
15!
19!
1=!
0E!
1I!
1Q!
1]!
#75000
b1101101010111101010010 #
b101101101010111101010010 #
b101101101010111101011010 #
b101101001010111101011010 #
b101101001010111101011110 #
b101101001010101101011110 #
b101101001110101101011110 #
b101101000110101101011110 #
b101101000110100101011110 #
b101101000100100101011110 #
b100101000100100101011110 #
b100111000100100101011110 #
1!
0`!
1X!
1T!
0<!
08!
0,!
1(!
0$!
0z
1r
0j
1]
1\
1a
0k
1s
0{
0%!
1)!
0-!
09!
0=!
1U!
1Y!
0a!
#80000
b100111010100100101011110 #
b100111010100100101111110 #
b110111010100100101111110 #
b110111010100100101101110 #
b110111010100100111101110 #
b110111010100100111101100 #
b110111010101100111101100 #
b10111010101100111101100 #
b10111010101100111100100 #
b10111110101100111100100 #
b10111110101110111100100 #
b10111110001110111100100 #
b10111111001110111100100 #
b10111111001111111100100 #
b10111111011111111100100 #
0!
0\!
0T!
0P!
1L!
1D!
1<!
18!
10!
1,!
0(!
1$!
1~
1z
1f
0]
0\
0a
1g
1{
1!!
1%!
0)!
1-!
11!
19!
1=!
1E!
1M!
0Q!
0U!
0]!
#85000
b10011111011111111100100 #
b10011111011111011100100 #
b10010111011111011100100 #
b10010111011111011100000 #
b11010111011111011100000 #
b11000111011111011100000 #
b1000111011111011100000 #
b1000111010111011100000 #
b1000111010101011100000 #
b1000111110101011100000 #
b1000111110100011100000 #
1!
0X!
0@!
0<!
08!
00!
1(!
0v
0r
0n
1j
0f
1\
0g
1k
0o
0s
0w
1)!
01!
09!
0=!
0A!
0Y!
#90000
b1000111110100010100000 #
b1000111110100010100001 #
b1000101110100010100001 #
b1000101110100010000001 #
b1000101110100010010001 #
b101000101110100010010001 #
b101000001110100010010001 #
b101000000110100010010001 #
b101000000110100110010001 #
b101000000110100110010101 #
b101010000110100110010101 #
b111010000110100110010101 #
b111010000110101110010101 #
0!
1`!
1X!
1P!
0L!
0H!
1@!
1<!
0$!
0~
0z
1r
1f
1]
0\
1a
1g
1s
0{
0!!
0%!
1=!
1A!
0I!
0M!
1Q!
1Y!
1a!
#95000
b111010000110001110010101 #
b111010000110001110010111 #
b111010000110001110011111 #
b111110000110001110011111 #
b110110000110001110011111 #
b110110000111001110011111 #
b110110000111001111011111 #
b110110010111001111011111 #
b110110010111001111111111 #
b110110110111001111111111 #
b110110110111001111111011 #
b110100110111001111111011 #
1!
1\!
0X!
1T!
1L!
1H!
04!
10!
1~
1z
0r
1n
0j
1\
0k
1o
0s
1{
1!!
11!
05!
1I!
1M!
1U!
0Y!
1]!
#100000
1"
b110100110111001111111010 #
b110100110111001011111010 #
b100100110111001011111010 #
b100100110111101011111010 #
b100100110111101011111000 #
b100000110111101011111000 #
b101000110111101011111000 #
b101000110111101010111000 #
b101000010111101010111000 #
b101010010111101010111000 #
0!
1_
0`!
0\!
0H!
0@!
14!
0z
1r
0n
1j
0f
0\
0b
0g
1k
0o
1s
0{
15!
0A!
0I!
0]!
0a!
#105000
b101010010111101000111000 #
b101010010101101000111000 #
b101011010101101000111000 #
b101011010101101000101000 #
b101011011101101000101000 #
b101011011101100000101000 #
b101011011100100000101000 #
b101011001100100000101000 #
b101011001100100100101000 #
b111011001100100100101000 #
b111111001100100100101000 #
b110111001100100100101000 #
b110111001100100101101000 #
b110111101100100101101000 #
1!
0P!
1H!
0D!
1@!
0<!
00!
0,!
1$!
0~
1z
1v
1n
0j
1f
1\
1g
0k
1o
1w
1{
0!!
1%!
0-!
01!
0=!
1A!
0E!
1I!
0Q!
#110000
b110111101100110101101000 #
b110111101100110101101100 #
b110111101100110101101101 #
b110111101100110101101111 #
b110101101100110101101111 #
b110101101110110101101111 #
b110100101110110101101111 #
b110100101110110101111111 #
b110100100110110101111111 #
b110100100110111101111111 #
b110100110110111101111111 #
b110100110110111001111111 #
b100100110110111001111111 #
b100000110110111001111111 #
b100000010110111001111111 #
0!
1`!
1\!
1X!
1P!
0@!
1<!
18!
1,!
0$!
1~
0z
0v
0r
0n
0f
0\
0g
0o
0s
0w
0{
1!!
0%!
1-!
19!
1=!
0A!
1Q!
1Y!
1]!
1a!
1d
1h
1p
1t
1x
1|
1&!
1*!
16!
1B!
1J!
1N!
1V!
1W!
1O!
1K!
1C!
17!
1+!
1'!
1}
1y
1u
1q
1i
1e
1D
1E
1G
1H
1I
1J
1L
1M
1P
1S
1U
1V
1X
1:
18
17
15
12
1/
1.
1,
1+
1*
1)
1'
1&
#115000
b100000010010111001111111 #
b100000010010111001110111 #
b100000010010111001010111 #
b100000010010011001010111 #
b100000010011011001010111 #
b101000010011011001010111 #
b101000010011001001010111 #
b101000010011001001010011 #
b101000010011001001010010 #
b101000010011001001000010 #
b101000010011000001000010 #
b101000000011000001000010 #
b111000000011000001000010 #
b111100000011000001000010 #
1!
0`!
0X!
0T!
0P!
0L!
0<!
08!
04!
10!
0(!
0~
1n
1j
1f
1\
1g
1k
1o
0!!
0)!
11!
05!
09!
0=!
0M!
0Q!
0U!
0Y!
0a!
#120000
b11100000011000001000010 #
b11110000011000001000010 #
b11110001011000001000010 #
b11110001011000101000010 #
b11110101011000101000010 #
b11110101011000101001010 #
b11110101010000101001010 #
b11110101010000101001110 #
b1110101010000101001110 #
b1010101010000101001110 #
0!
1X!
1T!
1@!
00!
1$!
1z
1r
0n
0f
0]
0\
0a
0g
0o
1s
1{
1%!
01!
1A!
1U!
1Y!
1l
0t
0x
0|
0&!
0*!
1.!
12!
06!
0B!
0N!
0V!
1^!
1_!
0W!
0O!
0C!
07!
13!
1/!
0+!
0'!
0}
0y
0u
1m
1F
0H
0I
0J
0L
0M
1N
1O
0P
0S
0V
0X
1Z
1<
0:
08
05
02
11
10
0/
0.
0,
0+
0*
1(
#125000
b1011101010000101001110 #
b1011101110000101001110 #
b1011101110000101101110 #
b1011101110100101101110 #
b1011101110100101111110 #
b1011111110100101111110 #
b1011110110100101111110 #
b1011110110100101110110 #
b1011110110100101110010 #
b11011110110100101110010 #
1!
0X!
0T!
1P!
1L!
14!
1(!
0$!
1~
1v
1f
1\
1g
1w
1!!
0%!
1)!
15!
1M!
1Q!
0U!
0Y!
#130000
b11011110110100111110010 #
b11011110110100110110010 #
b11011110100100110110010 #
b11011110100101110110010 #
b11011110100101010110010 #
b11011010100101010110010 #
b11010010100101010110010 #
b11010010000101010110010 #
b11010010000101010010010 #
b11010010000101010000010 #
b11010000000101010000010 #
b11010001000101010000010 #
b1010001000101010000010 #
0!
0P!
0L!
0H!
1D!
0@!
1<!
0,!
0(!
1$!
0~
0z
0v
0f
0\
0g
0w
0{
0!!
1%!
0)!
0-!
1=!
0A!
1E!
0I!
0M!
0Q!
0d
0p
1t
1x
1|
1"!
1*!
02!
16!
1B!
1N!
1R!
1S!
1O!
1C!
17!
03!
1+!
1#!
1}
1y
1u
0q
0e
0D
0G
1H
1I
1J
1K
1M
0O
1P
1S
1V
1W
19
18
15
12
01
1/
1-
1,
1+
1*
0)
0&
#135000
b10001000101010000010 #
b100010001000101010000010 #
b100000001000101010000010 #
b100100001000101010000010 #
b100100001000101010001010 #
b100100001000101000001010 #
b100100001010101000001010 #
b100101001010101000001010 #
b100101001110101000001010 #
b100101001110101000101010 #
b100101011110101000101010 #
b100101010110101000101010 #
1!
1T!
1L!
0D!
1,!
1(!
0$!
1~
1v
0r
1n
0j
1]
1\
1a
0k
1o
0s
1w
1!!
0%!
1)!
1-!
0E!
1M!
1U!
#140000
b100101010110101000101000 #
b100101010110001000101000 #
b100101010110001000101100 #
b100101010110000000101100 #
b100101010110000100101100 #
b101101010110000100101100 #
b101111010110000100101100 #
b101011010110000100101100 #
b101011010110000100100100 #
b101011010100000100100100 #
b101010010100000100100100 #
b101010011100000100100100 #
0!
0\!
1X!
0T!
1@!
0<!
04!
0,!
1$!
0v
1r
0n
1j
0\
1k
0o
1s
0w
1%!
0-!
05!
0=!
1A!
0U!
1Y!
0]!
1d
0h
0l
1p
0t
0|
1>!
0B!
0J!
0R!
1V!
1W!
0S!
0K!
0C!
1?!
0}
0u
1q
0m
0i
1e
1D
0E
0F
1G
0H
0J
1R
0S
0U
0W
1X
1:
09
07
05
14
0,
0*
1)
0(
0'
1&
#145000
b101010011100010100100100 #
b101010011101010100100100 #
b101010111101010100100100 #
b101010111101010100110100 #
b101010101101010100110100 #
b101010101101010100110110 #
b101010101101110100110110 #
b101010101101110100110010 #
b101000101101110100110010 #
b101100101101110100110010 #
b101100100101110100110010 #
1!
1\!
0X!
1P!
18!
14!
10!
0$!
0~
1z
0r
1n
1\
1o
0s
1{
0!!
0%!
11!
15!
19!
1Q!
0Y!
1]!
#150000
b1100100101110100110010 #
b1100100001110100110010 #
b1100100001110100111010 #
b1100100011110100111010 #
b1100100011100100111010 #
b1100100010100100111010 #
b1100000010100100111010 #
b1100000010100100111000 #
b1100000010000100111000 #
b1110000010000100111000 #
b1110001010000100111000 #
0!
0\!
1T!
08!
04!
00!
1,!
0(!
1$!
0z
1r
0]
0\
0a
1s
0{
1%!
0)!
1-!
01!
05!
09!
1U!
0]!
1l
0x
1|
0"!
0.!
12!
1:!
0>!
1B!
1R!
0V!
0W!
1S!
1C!
0?!
1;!
13!
0/!
0#!
1}
0y
1m
1F
0I
1J
0K
0N
1O
1Q
0R
1S
1W
0X
0:
19
15
04
13
11
00
0-
1,
0+
1(
#155000
b1110001010001100111000 #
b1110001010001000111000 #
b110001010001000111000 #
b110001010001000101000 #
b110011010001000101000 #
b110011010001000101100 #
b100110011010001000101100 #
b100110011010001000100100 #
b100110011000001000100100 #
b100110011000101000100100 #
b100110010000101000100100 #
1!
1X!
0T!
0P!
0@!
1<!
14!
0,!
0$!
1~
0j
1]
1\
1a
0k
1!!
0%!
0-!
15!
1=!
0A!
0Q!
0U!
1Y!
#160000
b100110010000101001100100 #
b110110010000101001100100 #
b110110010000101011100100 #
b110110010000101011000100 #
b110111010000101011000100 #
b110111010000111011000100 #
b110111010001111011000100 #
b110101010001111011000100 #
b110101010001110011000100 #
b110101010001110111000100 #
b10101010001110111000100 #
b10101010001110111001100 #
b10101010011110111001100 #
0!
1T!
0L!
1H!
1D!
1@!
0<!
18!
10!
1,!
1v
0r
1f
0]
0\
0a
1g
0s
1w
1-!
11!
19!
0=!
1A!
1E!
1I!
0M!
1U!
0l
1t
0|
1"!
0*!
02!
0:!
1>!
0B!
0R!
1Z!
0^!
0_!
1[!
0S!
0C!
1?!
0;!
03!
0+!
1#!
0}
1u
0m
0F
1H
0J
1K
0M
0O
0Q
1R
0S
0W
1Y
0Z
0<
1;
09
05
14
03
01
0/
1-
0,
1*
0(
#165000
b10001010011110111001100 #
b10001010111110111001100 #
b10001010111110111011100 #
b10001010111110111011000 #
b10001010111010111011000 #
b10001011111010111011000 #
b10001011111010110011000 #
b10001011111010110111000 #
b10000011111010110111000 #
b10000011111000110111000 #
b10000011110000110111000 #
b10010011110000110111000 #
b10010011110000010111000 #
b10010011100000010111000 #
1!
0X!
1P!
1L!
0H!
0@!
08!
04!
00!
0,!
1(!
1$!
0v
1r
0n
1\
0o
1s
0w
1%!
1)!
0-!
01!
05!
09!
0A!
0I!
1M!
1Q!
0Y!
#170000
b10010011100000010111001 #
b10010011100000010111011 #
b11010011100000010111011 #
b1010011100000010111011 #
b1010011100001010111011 #
b101010011100001010111011 #
b101010011100001010110011 #
b101010011000001010110011 #
b101010011000001010100011 #
b101010011000001010100111 #
b101010011000101010100111 #
b101010010000101010100111 #
b101010010000101011100111 #
b101010010000101011000111 #
b101011010000101011000111 #
b101011010001101011000111 #
b101011010011101011000111 #
0!
1`!
1\!
1X!
0T!
0P!
0L!
1H!
1<!
14!
10!
1,!
0(!
0$!
1v
1j
0f
1]
0\
1a
0g
1k
1w
0%!
0)!
1-!
11!
15!
1=!
1I!
0M!
0Q!
0U!
1Y!
1]!
1a!
0d
1h
0p
1&!
1*!
06!
0>!
1F!
1R!
1V!
0Z!
0[!
1W!
1S!
1G!
0?!
07!
1+!
1'!
0q
1i
0e
0D
1E
0G
1L
1M
0P
0R
1T
1W
1X
0Y
0;
1:
19
16
04
02
1/
1.
0)
1'
0&
#175000
b101011010011101001000111 #
b101001010011101001000111 #
b101001010111101001000111 #
b101001010111101001010111 #
b101001011111101001010111 #
b101001011111101000010111 #
b101001011111101000110111 #
b101001011110101000110111 #
b101001011100101000110111 #
1!
1P!
1L!
0H!
0D!
00!
0,!
1(!
1$!
0r
1\
0s
1%!
1)!
0-!
01!
0E!
0I!
1M!
1Q!
#180000
b101001001100101000110111 #
b101001001100111000110111 #
b101001001100111100110111 #
b101001001100111100110101 #
b100001001100111100110101 #
b110001001100111100110101 #
b110001001100110100110101 #
b110001001100110100110001 #
b110001001100010100110001 #
b110000001100010100110001 #
b110010001100010100110001 #
b110010001100010101110001 #
b110010001100010101010001 #
b110010001110010101010001 #
0!
0\!
0X!
0L!
1H!
1@!
0<!
18!
04!
1,!
0~
0v
1r
0j
1f
0\
1g
0k
1s
0w
0!!
1-!
05!
19!
0=!
1A!
1I!
0M!
0Y!
0]!
1d
0h
1l
0t
1x
16!
1>!
0F!
0V!
1Z!
1^!
1b!
1c!
1_!
1[!
0W!
0G!
1?!
17!
1y
0u
1m
0i
1e
1D
0E
1F
0H
1I
1P
1R
0T
0X
1Y
1Z
1[
1=
1<
1;
0:
06
14
12
1+
0*
1(
0'
1&
#185000
b110110001110010101010001 #
b10110001110010101010001 #
b10110001110010101011001 #
b10110001110010111011001 #
b10110011110010111011001 #
b10110011110010011011001 #
b10110011110010011011011 #
b110011110010011011011 #
b111011110010011011011 #
b111011110010010011011 #
b111011110010010111011 #
1!
1\!
1T!
1L!
0H!
1D!
0@!
1~
1v
1n
0f
0]
1\
0a
0g
1o
1w
1!!
0A!
1E!
0I!
1M!
1U!
1]!
#190000
b111011111010010111011 #
b111011111000010111011 #
b111011111000010111111 #
b111011101000010111111 #
b111011101000000111111 #
b111011101000100111111 #
b111011101000100111101 #
b111011101000100011101 #
0!
0\!
1X!
0L!
0D!
1@!
08!
10!
0,!
0\
0-!
11!
09!
1A!
0E!
0M!
1Y!
0]!
0d
0l
1p
1t
1.!
06!
1:!
0>!
1F!
1V!
0Z!
0[!
1W!
1G!
0?!
1;!
07!
1/!
1u
1q
0m
0e
0D
0F
1G
1H
1N
0P
1Q
0R
1T
1X
0Y
0;
1:
16
04
13
02
10
1*
1)
0(
0&
#195000
b111011101000100001101 #
b111010101000100001101 #
b111010101001100001101 #
b111010101101100001101 #
b100111010101101100001101 #
b100111010101101100000101 #
b100111000101101100000101 #
b100110000101101100000101 #
b100110000100101100000101 #
b100110000110101100000101 #
b100110000110101110000101 #
b100110000110101110000111 #
1!
1\!
0T!
0P!
1D!
1<!
14!
00!
1,!
0$!
0~
0v
1]
1\
1a
0w
0!!
0%!
1-!
01!
15!
1=!
1E!
0Q!
0U!
1]!
