Registator/simulation/qsim/Registrator.msim.vcd
$comment
	File created using the following command:
		vcd file Registrator.msim.vcd -direction
$end
$date
	Thu Nov  3 11:49:53 2016
$end
$version
	ModelSim Version 10.4d
$end
$timescale
	1ps
$end

$scope module dffe3_vlg_vec_tst $end
$var reg 1 ! CLK $end
$var reg 1 " CLRN $end
$var reg 3 # D [2:0] $end
$var reg 1 $ ENA $end
$var reg 1 % PRN $end
$var wire 1 & Q [2] $end
$var wire 1 ' Q [1] $end
$var wire 1 ( Q [0] $end

$scope module i1 $end
$var wire 1 ) gnd $end
$var wire 1 * vcc $end
$var wire 1 + unknown $end
$var tri1 1 , devclrn $end
$var tri1 1 - devpor $end
$var tri1 1 . devoe $end
$var wire 1 / Q[2]~output_o $end
$var wire 1 0 Q[1]~output_o $end
$var wire 1 1 Q[0]~output_o $end
$var wire 1 2 CLK~input_o $end
$var wire 1 3 D[2]~input_o $end
$var wire 1 4 PRN~input_o $end
$var wire 1 5 CLRN~input_o $end
$var wire 1 6 inst1~1_combout $end
$var wire 1 7 inst1~3_combout $end
$var wire 1 8 inst1~0_combout $end
$var wire 1 9 ENA~input_o $end
$var wire 1 : inst1~_emulated_q $end
$var wire 1 ; inst1~2_combout $end
$var wire 1 < D[1]~input_o $end
$var wire 1 = inst~1_combout $end
$var wire 1 > inst~_emulated_q $end
$var wire 1 ? inst~0_combout $end
$var wire 1 @ D[0]~input_o $end
$var wire 1 A inst3~1_combout $end
$var wire 1 B inst3~_emulated_q $end
$var wire 1 C inst3~0_combout $end
$upscope $end
$upscope $end
$enddefinitions $end
#0
$dumpvars
0!
0"
b101 #
0$
1%
0(
0'
0&
0)
1*
x+
1,
1-
1.
0/
00
01
02
13
14
05
06
17
18
09
0:
0;
0<
0=
0>
0?
1@
1A
0B
0C
$end
#511
1$
19
#5000
1!
b1 #
12
03
07
#10000
b0 #
0!
b100 #
0@
13
02
17
0A
#10311
0$
09
#15000
b110 #
b111 #
1!
b11 #
1@
1<
03
12
07
1=
1A
#20000
b1 #
0!
0<
02
0=
#20120
1$
19
#21286
0$
09
#23453
1$
19
#24619
0$
09
#25000
b0 #
1!
0@
12
0A
#26786
1$
19
#27952
0$
09
#30000
b100 #
0!
1$
13
02
19
17
#34446
0$
09
#35000
b110 #
b10 #
1!
1<
03
12
07
1=
#39046
1$
19
#40000
b11 #
0!
0$
1@
02
09
1A
#42503
1$
19
#45000
b111 #
1!
13
12
17
#50000
0!
02
#51703
0$
09
#55000
b101 #
b100 #
b0 #
1!
0@
0<
03
12
07
0=
0A
#60000
1$
b10 #
b11 #
0!
19
1@
1<
02
1=
1A
#60893
0$
09
#64760
1$
19
#65000
b1 #
b0 #
1!
0@
0<
12
0=
0A
#67559
0$
09
#70000
b10 #
b11 #
0!
1@
1<
02
1=
1A
#71426
1$
19
#74225
0$
09
#75000
b1 #
b0 #
1!
0@
0<
12
0=
0A
#78092
1$
19
#80000
b10 #
0!
0$
1<
02
09
1=
#85000
b110 #
b111 #
1!
1@
13
12
17
1A
#85032
1$
19
#90000
b101 #
0!
0<
02
0=
#91232
0$
09
#95000
b1 #
1!
03
12
07
#100000
1"
b101 #
0!
15
13
02
08
17
#100209
1$
19
#104609
0$
09
#105000
b100 #
1!
0@
12
0A
#110000
b110 #
1$
b111 #
0!
1@
1<
19
02
1=
1A
1:
1;
1/
1&
#115000
b101 #
1!
0<
12
0=
#117814
0$
09
#120000
0!
02
#125000
b100 #
b110 #
1!
0@
1<
12
1=
0A
#129814
1$
19
#130000
0!
0$
02
09
1>
1?
10
1'
#133381
1$
19
#134981
0$
09
#135000
b10 #
b0 #
1!
0<
03
12
07
0=
#138381
1$
19
#139981
0$
09
#140000
b100 #
0!
13
02
17
#141981
1$
19
#144081
0$
09
#145000
b101 #
b1 #
1!
1@
03
12
07
1A
#146981
1$
19
#149081
0$
09
#150000
b101 #
0!
13
02
17
#152918
1$
19
#155000
b111 #
b11 #
1!
1<
03
12
07
1=
#158418
0$
09
#160000
b10 #
0!
0@
02
0A
#162918
1$
19
#165000
b0 #
b1 #
1!
1@
0<
12
0=
1A
#168418
0$
09
#170000
b101 #
b100 #
0!
0@
13
02
17
0A
#173358
1$
19
#175000
b110 #
b10 #
b11 #
1!
1@
1<
03
12
07
1=
1A
#176557
0$
09
#180000
b1 #
b101 #
b100 #
0!
0@
0<
13
02
17
0=
0A
#180024
1$
19
#183223
0$
09
#185000
b101 #
1!
1@
12
1A
#186690
1$
19
#189889
0$
09
#190000
b111 #
b110 #
0!
0@
1<
02
1=
0A
#192554
1$
19
#195000
b100 #
1!
0<
12
0=
#198054
0$
09
#200000
b0 #
b1 #
b11 #
0!
1@
1<
03
02
07
1=
1A
#202554
1$
19
#205000
b1 #
1!
0<
12
0=
#208054
0$
09
#210000
b0 #
b10 #
0!
1$
0@
1<
02
19
1=
0A
#210907
0$
09
#212907
1$
19
#214240
0$
09
#215000
b110 #
1!
13
12
17
#216240
1$
19
#217573
0$
09
#219573
1$
19
#220000
b100 #
b0 #
0!
0<
03
02
07
0=
#220083
0$
09
#225000
b10 #
1!
1<
12
1=
#230000
0!
02
#230883
1$
19
#235000
1!
12
#240000
b110 #
b100 #
0$
0!
0<
13
09
02
17
0=
#242894
1$
19
#244894
0$
09
#245000
b101 #
b1 #
b11 #
1!
1@
1<
03
12
07
1=
1A
#247894
1$
19
#249894
0$
09
#250000
0!
1$
02
19
#250574
0$
09
#255000
1!
12
#256074
1$
19
#260000
b10 #
0!
0$
0@
02
09
0A
0:
1B
1C
0;
0/
11
1(
0&
#261155
1$
19
#264621
0$
09
#265000
1!
12
#267821
1$
19
#270000
0!
02
0B
0C
01
0(
#271287
0$
09
#274487
1$
19
#275000
b110 #
b111 #
1!
1@
13
12
17
1A
#277953
0$
09
#280000
b101 #
b100 #
0!
1$
0@
0<
02
19
0=
0A
#282771
0$
09
#285000
1!
12
#288971
1$
19
#290000
b0 #
b1 #
0!
1@
03
02
07
1A
1:
0>
0?
1;
1/
00
0'
1&
#292771
0$
09
#295000
b11 #
1!
1<
12
1=
#298971
1$
19
#300000
b111 #
b110 #
b100 #
0!
0@
0<
13
02
17
0=
0A
0:
1>
1B
1C
1?
0;
0/
10
11
1(
1'
0&
#302314
0$
09
#305000
1!
12
#306581
1$
19
#308980
0$
09
#310000
0!
02
#313247
1$
19
#315000
b0 #
b10 #
1!
1<
03
12
07
1=
#315646
0$
09
#319913
1$
19
#320000
b110 #
b100 #
0!
0$
0<
13
02
09
17
0=
0B
0C
01
0(
#320533
1$
19
#321532
0$
09
#323866
1$
19
#324865
0$
09
#325000
b110 #
1!
1<
12
1=
#327199
1$
19
#328198
0$
09
#330000
b10 #
b0 #
0!
1$
0<
03
02
19
07
0=
#335000
1!
12
#335758
0$
09
#340000
b10 #
0!
1<
02
1=
#343958
1$
19
#345000
b11 #
1!
1@
12
1A
#350000
b111 #
0$
b110 #
0!
0@
13
09
02
17
0A
#351744
1$
19
#353277
0$
09
#355000
b100 #
b101 #
1!
1@
0<
12
0=
1A
#355077
1$
19
#356610
0$
09
#358410
1$
19
#359943
0$
09
#360000
b111 #
b110 #
0!
1$
0@
1<
02
19
1=
0A
#361537
0$
09
#365000
b100 #
1!
0<
12
0=
#370000
b0 #
b1 #
b11 #
0!
1@
1<
03
02
07
1=
1A
#374537
1$
19
#375000
b111 #
1!
13
12
17
#380000
b110 #
0$
b10 #
0!
0@
03
09
02
07
0A
#380933
1$
19
#381966
0$
09
#384266
1$
19
#385000
b110 #
1!
13
12
17
#385299
0$
09
#387599
1$
19
#388632
0$
09
#390000
b100 #
b101 #
0!
1@
0<
02
0=
1A
#394754
1$
19
#395000
b1 #
b11 #
1!
1<
03
12
07
1=
#398754
0$
09
#400000
b10 #
0!
0@
02
0A
#401598
1$
19
#403898
0$
09
#405000
b11 #
1!
1@
12
1A
#406598
1$
19
#408898
0$
09
#410000
b10 #
0!
1$
0@
02
19
0A
#413237
0$
09
#415000
b11 #
1!
1@
12
1A
#419637
1$
19
#420000
b1 #
0!
0<
02
0=
1B
1C
11
1(
#423237
0$
09
#425000
b101 #
b100 #
b110 #
1!
0@
1<
13
12
17
1=
0A
#429637
1$
19
#430000
b111 #
b101 #
0!
0$
1@
0<
02
09
0=
1A
1:
0B
0C
1;
1/
01
0(
1&
#430226
1$
19
#431325
0$
09
#433559
1$
19
#434658
0$
09
#435000
b1 #
b0 #
1!
0@
03
12
07
0A
#436892
1$
19
#437991
0$
09
#440000
b10 #
b110 #
b111 #
0!
1$
1@
1<
13
02
19
17
1=
1A
#441090
0$
09
#445000
b101 #
b100 #
1!
0@
0<
12
0=
0A
#447590
1$
19
#450000
b0 #
b10 #
b11 #
0!
1@
1<
03
02
07
1=
1A
0>
0?
00
0'
#452658
0$
09
#455000
b111 #
b110 #
1!
0@
13
12
17
0A
#460000
b10 #
0!
03
02
07
#464058
1$
19
#465000
b11 #
b111 #
1!
1@
13
12
17
1A
#470000
b110 #
0!
0@
02
0A
1>
1B
1C
1?
10
11
1(
1'
#472278
0$
09
#475000
b100 #
b0 #
b1 #
1!
1@
0<
03
12
07
0=
1A
#478078
1$
19
#480000
0!
02
0:
0>
0?
0;
0/
00
0'
0&
#482278
0$
09
#485000
1!
12
#488078
1$
19
#490000
b101 #
b100 #
0!
0$
0@
13
02
09
17
0A
#494779
1$
19
#495000
b110 #
b10 #
b11 #
1!
1@
1<
03
12
07
1=
1A
#498179
0$
09
#500000
0!
02
#504779
1$
19
#505000
b1 #
1!
0<
12
0=
#508179
0$
09
#510000
b101 #
b100 #
0!
1$
0@
13
02
19
17
0A
#510672
0$
09
#515000
b110 #
b10 #
1!
1<
03
12
07
1=
#520000
b11 #
b1 #
0!
1@
0<
02
0=
1A
#520672
1$
19
#525000
b101 #
b111 #
1!
1<
13
12
17
1=
#530000
b110 #
0$
b10 #
b0 #
0!
0@
0<
03
09
02
07
0=
0A
#535000
b100 #
1!
13
12
17
#536150
1$
19
#540000
b110 #
0!
1<
02
1=
1:
0B
0C
1;
1/
01
0(
1&
#542350
0$
09
#545000
b111 #
b11 #
1!
1@
03
12
07
1A
#550000
b1 #
b0 #
b100 #
0!
0@
0<
13
02
17
0=
0A
#553802
1$
19
#555000
b110 #
1!
1<
12
1=
#556902
0$
09
#560000
b111 #
b11 #
0!
1@
03
02
07
1A
#563802
1$
19
#565000
b1 #
1!
0<
12
0=
#566902
0$
09
#570000
b0 #
0!
0@
02
0A
#574497
1$
19
#575000
b100 #
b110 #
b111 #
1!
1@
1<
13
12
17
1=
1A
#577697
0$
09
#580000
b101 #
0!
1$
0<
02
19
0=
#582750
0$
09
#585000
1!
12
#588350
1$
19
#590000
b1 #
b11 #
0!
1<
03
02
07
1=
1B
1C
11
1(
#592750
0$
09
#595000
b111 #
b101 #
1!
0<
13
12
17
0=
#598350
1$
19
#600000
b1 #
0!
03
02
07
#602503
0$
09
#605000
b0 #
b10 #
1!
0@
1<
12
1=
0A
#605903
1$
19
#609169
0$
09
#610000
b110 #
0!
13
02
17
#612569
1$
19
#615000
b111 #
1!
1@
12
1A
#615835
0$
09
#619235
1$
19
#620000
b101 #
b100 #
0!
0$
0@
0<
02
09
0=
0A
1>
1?
10
1'
#622215
1$
19
#624965
0$
09
#625000
b0 #
b1 #
1!
1@
03
12
07
1A
#627215
1$
19
#629965
0$
09
#630000
b11 #
b111 #
0!
1$
1<
13
02
19
17
1=
#630718
0$
09
#635000
1!
12
#637418
1$
19
#640000
b110 #
b100 #
b0 #
0!
0@
0<
03
02
07
0=
0A
#640718
0$
09
#645000
1!
12
#647418
1$
19
#650000
b1 #
b11 #
0!
1@
1<
02
1=
1A
0:
0>
0B
0C
0?
0;
0/
00
01
0(
0'
0&
#650083
0$
09
#653133
1$
19
#655000
b10 #
1!
0@
12
0A
#655083
0$
09
#658133
1$
19
#660000
b110 #
b100 #
b101 #
0!
0$
1@
0<
13
02
09
17
0=
1A
1>
1?
10
1'
#661276
1$
19
#662275
0$
09
#664609
1$
19
#665000
b100 #
1!
0@
12
0A
#665608
0$
09
#667942
1$
19
#668941
0$
09
#670000
b110 #
b111 #
0!
1$
1@
1<
02
19
1=
1A
#670866
0$
09
#672533
1$
19
#674199
0$
09
#675000
b11 #
1!
03
12
07
#675866
1$
19
#677532
0$
09
#679199
1$
19
#680000
b1 #
0!
0<
02
0=
1B
1C
11
1(
#681177
0$
09
#683327
1$
19
#685000
b11 #
1!
1<
12
1=
#686177
0$
09
#688327
1$
19
#690000
b1 #
0!
0$
0<
02
09
0=
#694802
1$
19
#695000
b11 #
1!
1<
12
1=
#698202
0$
09
#700000
0!
02
#700998
1$
19
#702931
0$
09
#704331
1$
19
#705000
b10 #
b0 #
1!
0@
0<
12
0=
0A
#706264
0$
09
#707664
1$
19
#709597
0$
09
#710000
b100 #
b101 #
b111 #
0!
1$
1@
1<
13
02
19
17
1=
1A
#713527
0$
09
#715000
1!
12
#719227
1$
19
#720000
b11 #
b10 #
b0 #
0!
0$
0@
0<
03
02
09
07
0=
0A
1:
1;
1/
1&
#720837
1$
19
#721903
0$
09
#724170
1$
19
#725000
b100 #
b101 #
1!
1@
13
12
17
1A
#725236
0$
09
#727503
1$
19
#728569
0$
09
#730000
b111 #
b11 #
0!
1$
1<
03
02
19
07
1=
#730571
0$
09
#733071
1$
19
#735000
1!
12
#735571
0$
09
#738071
1$
19
#740000
b1 #
b101 #
0!
0<
13
02
17
0=
0:
0;
0/
0&
#743613
0$
09
#745000
b100 #
b110 #
b10 #
1!
0@
1<
03
12
07
1=
0A
#748013
1$
19
#750000
b110 #
0!
13
02
17
0B
0C
01
0(
#753613
0$
09
#755000
b111 #
b101 #
b1 #
1!
1@
0<
03
12
07
0=
1A
#758013
1$
19
#760000
b101 #
0!
13
02
17
0>
1B
1C
0?
00
11
1(
0'
#760455
0$
09
#764522
1$
19
#765000
b111 #
1!
1<
12
1=
#767121
0$
09
#770000
b110 #
b100 #
0!
0@
0<
02
0=
0A
#771188
1$
19
#773787
0$
09
#775000
b0 #
b10 #
1!
1<
03
12
07
1=
#777854
1$
19
#780000
b11 #
0!
0$
1@
02
09
1A
1>
0B
0C
1?
10
01
0(
1'
#781185
1$
19
#782551
0$
09
#784518
1$
19
#785000
b111 #
b101 #
b100 #
1!
0@
0<
13
12
17
0=
0A
#785884
0$
09
#787851
1$
19
#789217
0$
09
#790000
b0 #
0!
03
02
07
#792850
1$
19
#795000
1!
12
#797150
0$
09
#800000
b10 #
b110 #
0!
1<
13
02
17
1=
#801766
1$
19
#805000
b111 #
1!
1@
12
1A
#805966
0$
09
#810000
b110 #
0!
0@
02
0A
#811371
1$
19
#812437
0$
09
#814704
1$
19
#815000
b100 #
b101 #
1!
1@
0<
12
0=
1A
#815770
0$
09
#818037
1$
19
#819103
0$
09
#820000
b111 #
0!
1<
02
1=
#823886
1$
19
#825000
b11 #
b10 #
1!
0@
03
12
07
0A
#827086
0$
09
#830000
b0 #
b1 #
0!
1@
0<
02
0=
1A
#831298
1$
19
#832931
0$
09
#834631
1$
19
#835000
b11 #
b10 #
1!
0@
1<
12
1=
0A
#836264
0$
09
#837964
1$
19
#839597
0$
09
#840000
b110 #
b100 #
0!
1$
0<
13
02
19
17
0=
#840473
0$
09
#845000
b110 #
1!
1<
12
1=
#846773
1$
19
#850000
b111 #
b11 #
b1 #
0!
1@
0<
03
02
07
0=
1A
1:
1;
1/
1&
#850473
0$
09
#855000
b0 #
b100 #
1!
0@
13
12
17
0A
#856773
1$
19
#860000
b0 #
0!
0$
03
02
09
07
0>
0?
00
0'
#861333
1$
19
#863183
0$
09
#865000
b100 #
1!
13
12
17
#866333
1$
19
#868183
0$
09
#870000
b110 #
b111 #
b11 #
0!
1@
1<
03
02
07
1=
1A
#870729
1$
19
#872862
0$
09
#875000
b10 #
1!
0@
12
0A
#877395
1$
19
#879528
0$
09
#880000
b110 #
0!
13
02
17
#884061
1$
19
#885000
b100 #
1!
0<
12
0=
#886194
0$
09
#890000
b101 #
0!
1@
02
1A
#890897
1$
19
#893147
0$
09
#895000
b1 #
b11 #
1!
1<
03
12
07
1=
#895897
1$
19
#898147
0$
09
#900000
b111 #
b101 #
0!
1$
0<
13
02
19
17
0=
#902232
0$
09
#904932
1$
19
#905000
b100 #
b0 #
b10 #
1!
0@
1<
03
12
07
1=
0A
#907232
0$
09
#909932
1$
19
#910000
b11 #
b1 #
0!
1@
0<
02
0=
1A
0:
1>
1?
0;
0/
10
1'
0&
#911169
0$
09
#913369
1$
19
#915000
b101 #
1!
13
12
17
#916169
0$
09
#918369
1$
19
#920000
b100 #
b110 #
0!
0@
1<
02
1=
0A
1:
0>
1B
1C
0?
1;
1/
00
11
1(
0'
1&
#920243
0$
09
#925000
b10 #
b0 #
1!
0<
03
12
07
0=
#926743
1$
19
#930000
0!
02
0:
0B
0C
0;
0/
01
0(
0&
#931830
0$
09
#935000
b1 #
b101 #
b111 #
1!
1@
1<
13
12
17
1=
1A
#937630
1$
19
#940000
b11 #
0!
03
02
07
1:
1>
1B
1C
1?
1;
1/
10
11
1(
1'
1&
#941830
0$
09
#945000
b10 #
b0 #
b100 #
1!
0@
0<
13
12
17
0=
0A
#947630
1$
19
#950000
b101 #
b1 #
0!
1@
03
02
07
1A
0>
0B
0C
0?
00
01
0(
0'
#951682
0$
09
#954682
1$
19
#955000
b11 #
b10 #
1!
0@
1<
12
1=
0A
#956682
0$
09
#959682
1$
19
#960000
b0 #
0!
0$
0<
02
09
0=
0:
1>
1?
0;
0/
10
1'
0&
#960273
1$
19
#965000
b1 #
1!
1@
12
1A
#967673
0$
09
#970000
0!
02
#975000
b101 #
1!
13
12
17
#980000
b111 #
b110 #
1$
0!
0@
1<
19
02
1=
0A
1:
0>
1B
1C
0?
1;
1/
00
11
1(
0'
1&
#985000
b10 #
b11 #
1!
1@
03
12
07
1A
#985628
0$
09
#990000
0!
02
#995000
b10 #
1!
0@
12
0A
#998028
1$
19
