Registator/simulation/qsim/Registrator.msim.vcd
$comment
	File created using the following command:
		vcd file Registrator.msim.vcd -direction
$end
$date
	Sun Nov  6 15:36:00 2016
$end
$version
	ModelSim Version 10.4d
$end
$timescale
	1ps
$end

$scope module dffe6_vlg_vec_tst $end
$var reg 1 ! CLK $end
$var reg 1 " CLRN $end
$var reg 6 # D [5:0] $end
$var reg 1 $ ENA $end
$var reg 1 % PRN $end
$var wire 1 & Q [5] $end
$var wire 1 ' Q [4] $end
$var wire 1 ( Q [3] $end
$var wire 1 ) Q [2] $end
$var wire 1 * Q [1] $end
$var wire 1 + Q [0] $end

$scope module i1 $end
$var wire 1 , gnd $end
$var wire 1 - vcc $end
$var wire 1 . unknown $end
$var tri1 1 / devclrn $end
$var tri1 1 0 devpor $end
$var tri1 1 1 devoe $end
$var wire 1 2 Q[5]~output_o $end
$var wire 1 3 Q[4]~output_o $end
$var wire 1 4 Q[3]~output_o $end
$var wire 1 5 Q[2]~output_o $end
$var wire 1 6 Q[1]~output_o $end
$var wire 1 7 Q[0]~output_o $end
$var wire 1 8 CLK~input_o $end
$var wire 1 9 D[5]~input_o $end
$var wire 1 : PRN~input_o $end
$var wire 1 ; CLRN~input_o $end
$var wire 1 < inst1~1_combout $end
$var wire 1 = inst1~3_combout $end
$var wire 1 > inst1~0_combout $end
$var wire 1 ? ENA~input_o $end
$var wire 1 @ inst1~_emulated_q $end
$var wire 1 A inst1~2_combout $end
$var wire 1 B D[4]~input_o $end
$var wire 1 C inst|inst1~1_combout $end
$var wire 1 D inst|inst1~_emulated_q $end
$var wire 1 E inst|inst1~0_combout $end
$var wire 1 F D[3]~input_o $end
$var wire 1 G inst|inst|inst2~1_combout $end
$var wire 1 H inst|inst|inst2~_emulated_q $end
$var wire 1 I inst|inst|inst2~0_combout $end
$var wire 1 J D[2]~input_o $end
$var wire 1 K inst|inst|inst1~1_combout $end
$var wire 1 L inst|inst|inst1~_emulated_q $end
$var wire 1 M inst|inst|inst1~0_combout $end
$var wire 1 N D[1]~input_o $end
$var wire 1 O inst|inst|inst~1_combout $end
$var wire 1 P inst|inst|inst~_emulated_q $end
$var wire 1 Q inst|inst|inst~0_combout $end
$var wire 1 R D[0]~input_o $end
$var wire 1 S inst|inst|inst3~1_combout $end
$var wire 1 T inst|inst|inst3~_emulated_q $end
$var wire 1 U inst|inst|inst3~0_combout $end
$upscope $end
$upscope $end
$enddefinitions $end
#0
$dumpvars
0!
0"
b11010 #
1$
1%
0+
0*
0)
0(
0'
0&
0,
1-
x.
1/
10
11
02
03
04
05
06
07
08
09
1:
0;
0<
0=
1>
1?
0@
0A
1B
1C
0D
0E
1F
1G
0H
0I
0J
0K
0L
0M
1N
1O
0P
0Q
0R
0S
0T
0U
$end
#5000
1!
b1010 #
b10 #
b0 #
18
0N
0F
0B
0C
0G
0O
#10000
0$
b100000 #
b100100 #
b100101 #
0!
b110101 #
b111101 #
0?
1R
1J
1F
1B
19
08
1=
1C
1G
1K
1S
#15000
b11101 #
b11100 #
1!
b1100 #
b100 #
0R
0F
0B
09
18
0=
0C
0G
0S
#20000
b110 #
b10 #
0!
b1010 #
1N
0J
1F
08
1G
0K
1O
#25000
b101010 #
b101000 #
1!
0N
19
18
1=
0O
#30000
1$
b101001 #
b111001 #
b111101 #
b11101 #
0!
1?
1R
1J
1B
09
08
0=
1C
1K
1S
#35000
b11111 #
b111111 #
1!
1N
19
18
1=
1O
#40000
b110111 #
b110110 #
b110100 #
b10100 #
0!
0R
0N
0F
09
08
0=
0G
0O
0S
#45000
0$
b10000 #
b10010 #
b110010 #
1!
0?
1N
0J
19
18
1=
0K
1O
#50000
b100010 #
b101010 #
b101011 #
b1011 #
0!
1R
1F
0B
09
08
0=
0C
1G
1S
#55000
1$
b1111 #
b11111 #
b10111 #
1!
1?
1J
0F
1B
18
1C
0G
1K
#60000
b10101 #
b10100 #
0$
b10000 #
b11000 #
0!
0R
0N
0J
1F
0?
08
1G
0K
0O
0S
#65000
b11010 #
b10010 #
1!
1N
0F
18
0G
1O
#70000
b110010 #
b110110 #
b110100 #
b111100 #
0!
0N
1J
1F
19
08
1=
1G
1K
0O
#75000
b111101 #
1$
b11101 #
b11001 #
b11011 #
b10011 #
1!
1R
1N
0J
0F
09
1?
18
0=
0G
0K
1O
1S
#80000
b10010 #
0$
b10000 #
b11000 #
0!
0R
0N
1F
0?
08
1G
0O
0S
#85000
b111000 #
1$
1!
19
1?
18
1=
#90000
b101000 #
b101100 #
b101101 #
b101111 #
b1111 #
0!
1R
1N
1J
0B
09
08
0=
0C
1K
1O
1S
#95000
0$
b11111 #
b11011 #
b11010 #
b11000 #
1!
0?
0R
0N
0J
1B
18
1C
0K
0O
0S
#100000
1"
b111000 #
b101000 #
0!
1;
0B
19
08
0>
1=
0C
#105000
1$
b101001 #
b101011 #
b111011 #
1!
1?
1R
1N
1B
18
1C
1O
1S
#110000
b110011 #
b110111 #
0$
b110110 #
0!
0R
1J
0F
0?
08
0G
1K
0S
#115000
b110100 #
b111100 #
b111000 #
1$
1!
0N
0J
1F
1?
18
1G
0K
0O
#120000
b11000 #
0$
0!
09
0?
08
0=
#125000
b11001 #
b11011 #
1$
1!
1R
1N
1?
18
1O
1S
#130000
b10011 #
b10001 #
0$
0!
0N
0F
0?
08
0G
0O
#135000
b1 #
b100001 #
b100000 #
b101000 #
b101010 #
1!
0R
1N
1F
0B
19
18
1=
0C
1G
1O
0S
#140000
1$
b111010 #
b11010 #
b11011 #
b10011 #
b10001 #
0!
1?
1R
0N
0F
1B
09
08
0=
1C
0G
0O
1S
1@
1H
1P
1Q
1I
1A
12
14
16
1*
1(
1&
#145000
b10101 #
b110101 #
b111101 #
1!
1J
1F
19
18
1=
1G
1K
#150000
b111100 #
b111110 #
0!
0R
1N
08
1O
0S
1D
1L
0P
1T
1U
0Q
1M
1E
13
15
06
17
1+
0*
1)
1'
#155000
0$
b101110 #
b100110 #
b100100 #
1!
0?
0N
0F
0B
18
0C
0G
0O
#160000
b100 #
b101 #
1$
b111 #
0!
1R
1N
09
1?
08
0=
1O
1S
0D
0H
0T
0U
0I
0E
03
04
07
0+
0(
0'
#165000
b11 #
b10011 #
b10010 #
b10000 #
1!
0R
0N
0J
1B
18
1C
0K
0O
0S
#170000
b11000 #
0$
b1000 #
b1001 #
0!
1R
1F
0B
0?
08
0C
1G
1S
#175000
b1011 #
b11 #
1$
b10 #
1!
0R
1N
0F
1?
18
0G
1O
0S
#180000
b110 #
b10110 #
b10100 #
0!
0N
1J
1B
08
1C
1K
0O
0@
0L
1P
1Q
0M
0A
02
05
16
1*
0)
0&
#185000
b110100 #
b110101 #
1!
1R
19
18
1=
1S
#190000
b110001 #
b110000 #
0!
0R
0J
08
0K
0S
1@
1D
1L
0P
1T
1U
0Q
1M
1E
1A
12
13
15
06
17
1+
0*
1)
1'
1&
#195000
b111000 #
b101000 #
b1000 #
1!
1F
0B
09
18
0=
0C
1G
#200000
0$
b1100 #
b1101 #
b101 #
b10101 #
b110101 #
0!
0?
1R
1J
0F
1B
19
08
1=
1C
0G
1K
1S
#205000
b110111 #
b100111 #
1!
1N
0B
18
0C
1O
#210000
b100011 #
b100010 #
b100000 #
b110000 #
0!
0R
0N
0J
1B
08
1C
0K
0O
0S
#215000
1$
b110001 #
b110011 #
1!
1?
1R
1N
18
1O
1S
#220000
b111011 #
b11011 #
0$
b11001 #
0!
0N
1F
09
0?
08
0=
1G
0O
#225000
b11000 #
b111000 #
1!
0R
19
18
1=
0S
#230000
b111100 #
b101100 #
1$
b101110 #
0!
1N
1J
0B
1?
08
0C
1K
1O
1H
0L
0T
0U
0M
1I
14
05
07
0+
0)
1(
#235000
b100110 #
b100111 #
b111 #
b101 #
1!
1R
0N
0F
09
18
0=
0G
0O
1S
#240000
b10101 #
b10100 #
b110100 #
b110110 #
0!
0R
1N
1B
19
08
1=
1C
1O
0S
0@
0D
0H
1L
1T
1U
1M
0I
0E
0A
02
03
04
15
17
1+
1)
0(
0'
0&
#245000
b110010 #
0$
b10010 #
b10000 #
1!
0N
0J
09
0?
18
0=
0K
0O
#250000
0!
08
#255000
b11000 #
b11100 #
1$
b111100 #
b111110 #
1!
1N
1J
1F
19
1?
18
1=
1G
1K
1O
#260000
b110110 #
b10110 #
b10100 #
0!
0N
0F
09
08
0=
0G
0O
1@
1D
1H
1P
0T
0U
1Q
1I
1E
1A
12
13
14
16
07
0+
1*
1(
1'
1&
#265000
b100 #
b101 #
0$
b100101 #
b100111 #
1!
1R
1N
0B
19
0?
18
1=
0C
1O
1S
#270000
b100011 #
b110011 #
1$
b110001 #
0!
0N
0J
1B
1?
08
1C
0K
0O
0D
0H
1T
1U
0I
0E
03
04
17
1+
0(
0'
#275000
b110000 #
b110100 #
b100100 #
0$
b100110 #
1!
0R
1N
1J
0B
0?
18
0C
1K
1O
0S
#280000
b100010 #
b110010 #
0!
0J
1B
08
1C
0K
#285000
b111010 #
b11010 #
b11011 #
1$
b11111 #
1!
1R
1J
1F
09
1?
18
0=
1G
1K
1S
#290000
b11101 #
b1101 #
b101 #
b100 #
b0 #
0!
0R
0N
0J
0F
0B
08
0C
0G
0K
0O
0S
0@
1D
1H
1I
1E
0A
02
13
14
1(
1'
0&
#295000
b100000 #
1!
19
18
1=
#300000
b100001 #
b100101 #
0!
1R
1J
08
1K
1S
1@
0D
0H
0L
0P
0T
0U
0Q
0M
0I
0E
1A
12
03
04
05
06
07
0+
0*
0)
0(
0'
1&
#305000
b101101 #
b1101 #
1!
1F
09
18
0=
1G
#310000
b11101 #
b111101 #
0!
1B
19
08
1=
1C
0@
1H
1L
1T
1U
1M
1I
0A
02
14
15
17
1+
1)
1(
0&
#315000
0$
b111111 #
b110111 #
b10111 #
1!
0?
1N
0F
09
18
0=
0G
1O
#320000
b10110 #
b10010 #
b10 #
1$
b1010 #
0!
0R
0J
1F
0B
1?
08
0C
1G
0K
0S
1D
0H
1P
1Q
0I
1E
13
04
16
1*
0(
1'
#325000
1!
18
#330000
b101010 #
b101011 #
b101111 #
0$
0!
1R
1J
19
0?
08
1=
1K
1S
#335000
b101101 #
b111101 #
b111001 #
1!
0N
0J
1B
18
1C
0K
0O
#340000
b110001 #
b10001 #
1$
b10011 #
0!
1N
0F
09
1?
08
0=
0G
1O
1@
1H
0L
0P
0Q
0M
1I
1A
12
14
05
06
0*
0)
1(
1&
#345000
b11 #
b111 #
b1111 #
b1101 #
1!
0N
1J
1F
0B
18
0C
1G
1K
0O
#350000
b1100 #
0$
b11100 #
b11110 #
0!
0R
1N
1B
0?
08
1C
1O
0S
#355000
b11010 #
b10010 #
1$
b10 #
b0 #
1!
0N
0J
0F
0B
1?
18
0C
0G
0K
0O
#360000
b100000 #
b100001 #
0$
0!
1R
19
0?
08
1=
1S
#365000
b100101 #
b110101 #
b110111 #
b110110 #
1!
0R
1N
1J
1B
18
1C
1K
1O
0S
#370000
b111110 #
b11110 #
b1110 #
b1100 #
0!
0N
1F
0B
09
08
0=
0C
1G
0O
#375000
b1101 #
b101101 #
b111101 #
b111111 #
1!
1R
1N
1B
19
18
1=
1C
1O
1S
#380000
1$
b110111 #
b110110 #
b110100 #
0!
1?
0R
0N
0F
08
0G
0O
0S
1L
1P
1Q
1M
15
16
1*
1)
#385000
b110000 #
0$
b111000 #
b111001 #
b111011 #
1!
1R
1N
0J
1F
0?
18
1G
0K
1O
1S
#390000
b11011 #
b1011 #
b1111 #
b111 #
b110 #
b100 #
0!
0R
0N
1J
0F
0B
09
08
0=
0C
0G
1K
0O
0S
#395000
1$
b10100 #
b10000 #
b10001 #
1!
1?
1R
0J
1B
18
1C
0K
1S
#400000
b11001 #
b1001 #
b1101 #
0!
1J
1F
0B
08
0C
1G
1K
0@
0H
0L
0P
0Q
0M
0I
0A
02
04
05
06
0*
0)
0(
0&
#405000
b101101 #
b101111 #
0$
b101110 #
b100110 #
1!
0R
1N
0F
19
0?
18
1=
0G
1O
0S
#410000
b100010 #
1$
0!
0J
1?
08
0K
1@
0D
1L
1P
0T
0U
1Q
1M
0E
1A
12
03
15
16
07
0+
1*
1)
0'
1&
#415000
b110010 #
b10010 #
b11010 #
1!
1F
1B
09
18
0=
1C
1G
#420000
b11011 #
b11111 #
0$
b111111 #
b110111 #
0!
1R
1J
0F
19
0?
08
1=
0G
1K
1S
#425000
b110101 #
b100101 #
b100100 #
b100000 #
1$
1!
0R
0N
0J
0B
1?
18
0C
0K
0O
0S
#430000
b110000 #
b110001 #
b110101 #
0!
1R
1J
1B
08
1C
1K
1S
0L
0P
0Q
0M
05
06
0*
0)
#435000
b10101 #
b10100 #
1!
0R
09
18
0=
0S
#440000
b11100 #
0!
1F
08
1G
0@
1D
1L
1M
1E
0A
02
13
15
1)
1'
0&
#445000
b11000 #
b11001 #
b10001 #
1!
1R
0J
0F
18
0G
0K
1S
#450000
0$
b1 #
b1001 #
0!
0?
1F
0B
08
0C
1G
#455000
b1101 #
1$
1!
1J
1?
18
1K
#460000
b11101 #
0!
1B
08
1C
0D
1H
1T
1U
1I
0E
03
14
17
1+
1(
0'
#465000
b11111 #
b111111 #
b111110 #
b110110 #
0$
1!
0R
1N
0F
19
0?
18
1=
0G
1O
0S
#470000
b110010 #
b100010 #
b10 #
1$
0!
0J
0B
09
1?
08
0=
0C
0K
1@
1D
0H
1P
0T
0U
1Q
0I
1E
1A
12
13
04
16
07
0+
1*
0(
1'
1&
#475000
b11 #
b1011 #
b1111 #
b11111 #
1!
1R
1J
1F
1B
18
1C
1G
1K
1S
#480000
b11101 #
b111101 #
0$
b111100 #
b111000 #
b101000 #
0!
0R
0N
0J
0B
19
0?
08
1=
0C
0K
0O
0S
#485000
b100000 #
b100010 #
b10 #
b110 #
1!
1N
1J
0F
09
18
0=
0G
1K
1O
#490000
b111 #
b10111 #
b10011 #
0!
1R
0J
1B
08
1C
0K
1S
#495000
1$
b11011 #
b11001 #
b111001 #
b101001 #
b101101 #
1!
1?
0N
1J
1F
0B
19
18
1=
0C
1G
1K
0O
#500000
b101100 #
b1100 #
b11100 #
b11000 #
0!
0R
0J
1B
09
08
0=
1C
0K
0S
0D
1H
0P
1T
1U
0Q
1I
0E
03
14
06
17
1+
0*
1(
0'
#505000
0$
b10000 #
b10010 #
b10011 #
b110011 #
1!
0?
1R
1N
0F
19
18
1=
0G
1O
1S
#510000
b110111 #
b110101 #
0!
0N
1J
08
1K
0O
#515000
b110100 #
b110000 #
1!
0R
0J
18
0K
0S
#520000
1$
b111000 #
b11000 #
b11001 #
b11101 #
0!
1?
1R
1J
1F
09
08
0=
1G
1K
1S
1D
0H
0L
0T
0U
0M
0I
1E
13
04
05
07
0+
0)
0(
1'
#525000
b1101 #
b1111 #
0$
1!
1N
0B
0?
18
0C
1O
#530000
b111 #
b100111 #
b100011 #
b110011 #
b110001 #
1$
0!
0N
0J
0F
1B
19
1?
08
1=
1C
0G
0K
0O
0@
0D
1H
1L
1P
1T
1U
1Q
1M
1I
0E
0A
02
03
14
15
16
17
1+
1*
1)
1(
0'
0&
#535000
b111001 #
b101001 #
1!
1F
0B
18
0C
1G
#540000
0$
b111001 #
0!
0?
1B
08
1C
#545000
b111000 #
b111010 #
b110010 #
1!
0R
1N
0F
18
0G
1O
0S
#550000
b10010 #
1$
b10011 #
0!
1R
09
1?
08
0=
1S
1@
1D
0H
0L
0T
0U
0M
0I
1E
1A
12
13
04
05
07
0+
0)
0(
1'
1&
#555000
b10111 #
b11111 #
0$
b11110 #
1!
0R
1J
1F
0?
18
1G
1K
0S
#560000
b111110 #
0!
19
08
1=
#565000
b101110 #
1$
1!
0B
1?
18
0C
#570000
b101100 #
b101000 #
b100000 #
b100001 #
b1 #
b10001 #
0!
1R
0N
0J
0F
1B
09
08
0=
1C
0G
0K
0O
1S
0D
1H
1L
1M
1I
0E
03
14
15
1)
1(
0'
#575000
b10011 #
b11011 #
b11010 #
b1010 #
1!
0R
1N
1F
0B
18
0C
1G
1O
0S
#580000
b101010 #
b100010 #
b110010 #
0!
0F
1B
19
08
1=
1C
0G
0@
0L
0M
0A
02
05
0)
0&
#585000
0$
b111010 #
b101010 #
1!
0?
1F
0B
18
0C
1G
#590000
b101110 #
b101100 #
b1100 #
1$
b100 #
b10100 #
0!
0N
1J
0F
1B
09
1?
08
0=
1C
0G
1K
0O
1@
1A
12
1&
#595000
b10110 #
0$
b110 #
1!
1N
0B
0?
18
0C
1O
#600000
b111 #
b1111 #
b1101 #
1$
b11101 #
0!
1R
0N
1F
1B
1?
08
1C
1G
0O
1S
0@
0H
1L
1M
0I
0A
02
04
15
1)
0(
0&
#605000
b11001 #
b111001 #
b110001 #
0$
1!
0J
0F
19
0?
18
1=
0G
0K
#610000
b110000 #
b110010 #
b10010 #
0!
0R
1N
09
08
0=
1O
0S
#615000
b10 #
b110 #
1$
b111 #
b101 #
1!
1R
0N
1J
0B
1?
18
0C
1K
0O
1S
#620000
b10101 #
b10100 #
b10110 #
0!
0R
1N
1B
08
1C
1O
0S
0P
1T
1U
0Q
06
17
1+
0*
#625000
b10010 #
b10 #
b11 #
b1 #
1!
1R
0N
0J
0B
18
0C
0K
0O
1S
#630000
0$
b0 #
0!
0?
0R
08
0S
#635000
b1000 #
b101000 #
b101100 #
1!
1J
1F
19
18
1=
1G
1K
#640000
b101110 #
b101111 #
b1111 #
0!
1R
1N
09
08
0=
1O
1S
#645000
b11111 #
1$
b10111 #
b10101 #
b110101 #
1!
0N
0F
1B
19
1?
18
1=
1C
0G
0O
#650000
b110001 #
b110000 #
b110010 #
0!
0R
1N
0J
08
0K
1O
0S
1@
1D
1E
1A
12
13
1'
1&
#655000
0$
b111010 #
b11010 #
b11011 #
1!
0?
1R
1F
09
18
0=
1G
1S
#660000
b1011 #
b1001 #
1$
b1000 #
0!
0R
0N
0B
1?
08
0C
0O
0S
0@
1H
0L
1P
1Q
0M
1I
0A
02
14
05
16
1*
0)
1(
0&
#665000
b1100 #
b100 #
b10100 #
0$
1!
1J
0F
1B
0?
18
1C
0G
1K
#670000
b110100 #
b110110 #
b110111 #
b110011 #
b111011 #
1$
0!
1R
1N
0J
1F
19
1?
08
1=
1G
0K
1O
1S
0H
1L
0P
0T
0U
0Q
1M
0I
04
15
06
07
0+
0*
1)
0(
#675000
b101011 #
b1011 #
b1001 #
b1000 #
b1100 #
0$
1!
0R
0N
1J
0B
09
0?
18
0=
0C
1K
0O
0S
#680000
b100 #
b100100 #
1$
0!
0F
19
1?
08
1=
0G
0D
1H
1I
0E
03
14
1(
0'
#685000
b100000 #
1!
0J
18
0K
#690000
b100001 #
0$
b100101 #
0!
1R
1J
0?
08
1K
1S
#695000
b101101 #
b101001 #
1!
0J
1F
18
1G
0K
#700000
b101011 #
1$
b100011 #
b100111 #
0!
1N
1J
0F
1?
08
0G
1K
1O
1@
0L
1T
1U
0M
1A
12
05
17
1+
0)
1&
#705000
b111 #
b110 #
b100 #
0$
b1100 #
b1000 #
1!
0R
0N
0J
1F
09
0?
18
0=
1G
0K
0O
0S
#710000
b1001 #
1$
b1 #
0!
1R
0F
1?
08
0G
1S
0@
0T
0U
0A
02
07
0+
0&
#715000
b10001 #
b10000 #
0$
b11000 #
1!
0R
1F
1B
0?
18
1C
1G
0S
#720000
b11010 #
b11110 #
1$
b10110 #
0!
1N
1J
0F
1?
08
0G
1K
1O
1D
1E
13
1'
#725000
b10111 #
b10101 #
b10001 #
b11001 #
1!
1R
0N
0J
1F
18
1G
0K
0O
1S
#730000
b111001 #
b101001 #
b100001 #
0!
0F
0B
19
08
1=
0C
0G
1T
1U
17
1+
#735000
0$
b100000 #
b100100 #
1!
0?
0R
1J
18
1K
0S
#740000
b100110 #
b101110 #
1$
0!
1N
1F
1?
08
1G
1O
1@
0D
0H
1L
0T
0U
1M
0I
0E
1A
12
03
04
15
07
0+
1)
0(
0'
1&
#745000
b101100 #
b100100 #
1!
0N
0F
18
0G
0O
#750000
b100 #
b10100 #
b10000 #
0$
0!
0J
1B
09
0?
08
0=
1C
0K
#755000
b110000 #
b100000 #
b100100 #
1$
1!
1J
0B
19
1?
18
1=
0C
1K
#760000
b100110 #
b110 #
b10110 #
0!
1N
1B
09
08
0=
1C
1O
#765000
b11110 #
b1110 #
1!
1F
0B
18
0C
1G
#770000
b1111 #
b1101 #
b101101 #
b111101 #
0!
1R
0N
1B
19
08
1=
1C
0O
1S
0@
1H
1P
1Q
1I
0A
02
14
16
1*
1(
0&
#775000
0$
b110101 #
b110111 #
b100111 #
1!
0?
1N
0F
0B
18
0C
0G
1O
#780000
b100011 #
b11 #
b1 #
b10001 #
0!
0N
0J
1B
09
08
0=
1C
0K
0O
#785000
b10000 #
b11000 #
b111000 #
b111010 #
1!
0R
1N
1F
19
18
1=
1G
1O
0S
#790000
1$
b111110 #
b101110 #
b101111 #
b100111 #
b111 #
0!
1?
1R
1J
0F
0B
09
08
0=
0C
0G
1K
1S
1@
1D
0L
0M
1E
1A
12
13
05
0)
1'
1&
#795000
0$
b10111 #
b110111 #
1!
0?
1B
19
18
1=
1C
#800000
b110011 #
b110010 #
1$
b10010 #
0!
0R
0J
09
1?
08
0=
0K
0S
0H
1L
1T
1U
1M
0I
04
15
17
1+
1)
0(
#805000
b10 #
0$
1!
0B
0?
18
0C
#810000
b1010 #
b1011 #
b101011 #
1$
0!
1R
1F
19
1?
08
1=
1G
1S
0@
0D
0L
0T
0U
0M
0E
0A
02
03
05
07
0+
0)
0'
0&
#815000
b101001 #
0$
1!
0N
0?
18
0O
#820000
b111001 #
b111000 #
b111010 #
0!
0R
1N
1B
08
1C
1O
0S
#825000
b111110 #
b110110 #
b110100 #
1!
0N
1J
0F
18
0G
1K
0O
#830000
b10100 #
b11100 #
0!
1F
09
08
0=
1G
#835000
b1100 #
b1101 #
b1111 #
b111 #
1!
1R
1N
0F
0B
18
0C
0G
1O
1S
#840000
1$
b11 #
b100011 #
b110011 #
b110010 #
0!
1?
0R
0J
1B
19
08
1=
1C
0K
0S
1L
1T
1U
1M
15
17
1+
1)
#845000
b111010 #
0$
b111110 #
b11110 #
b1110 #
1!
1J
1F
0B
09
0?
18
0=
0C
1G
1K
#850000
1$
b101110 #
b111110 #
0!
1?
1B
19
08
1=
1C
1H
0T
0U
1I
14
07
0+
1(
#855000
b111100 #
b101100 #
1!
0N
0B
18
0C
0O
#860000
b100100 #
b100110 #
b110110 #
0!
1N
0F
1B
08
1C
0G
1O
1@
0P
0Q
1A
12
06
0*
1&
#865000
b110010 #
b111010 #
b111000 #
1!
0N
0J
1F
18
1G
0K
0O
#870000
b111001 #
0$
b101001 #
b101101 #
0!
1R
1J
0B
0?
08
0C
1K
1S
#875000
b100101 #
b100111 #
b110111 #
1!
1N
0F
1B
18
1C
0G
1O
#880000
b110110 #
1$
b111110 #
0!
0R
1F
1?
08
1G
0S
1D
0H
1P
1T
1U
1Q
0I
1E
13
04
16
17
1+
1*
0(
1'
#885000
b11110 #
b11100 #
0$
b10100 #
1!
0N
0F
09
0?
18
0=
0G
0O
#890000
b110100 #
b110110 #
0!
1N
19
08
1=
1O
#895000
b100110 #
b100100 #
1!
0N
0B
18
0C
0O
#900000
b100 #
b10100 #
0!
1B
09
08
0=
1C
#905000
b10101 #
1$
b10111 #
b110111 #
1!
1R
1N
19
1?
18
1=
1O
1S
#910000
b110101 #
b10101 #
0!
0N
09
08
0=
0O
#915000
b101 #
1!
0B
18
0C
#920000
b1 #
b1001 #
b1000 #
b101000 #
0!
0R
0J
1F
19
08
1=
1G
0K
0S
0@
0D
0P
0Q
0E
0A
02
03
06
0*
0'
0&
#925000
0$
b111000 #
b111100 #
b111101 #
1!
0?
1R
1J
1B
18
1C
1K
1S
#930000
b111111 #
b110111 #
b100111 #
b100011 #
0!
1N
0J
0F
0B
08
0C
0G
0K
1O
#935000
b101011 #
b111011 #
1!
1F
1B
18
1C
1G
#940000
1$
b111010 #
b111000 #
b111100 #
b110100 #
b100100 #
0!
1?
0R
0N
1J
0F
0B
08
0C
0G
1K
0O
0S
1@
1D
1H
0L
1P
1Q
0M
1I
1E
1A
12
13
14
05
16
1*
0)
1(
1'
1&
#945000
b100101 #
b100111 #
b100011 #
b110011 #
1!
1R
1N
0J
1B
18
1C
0K
1O
1S
#950000
b111011 #
b111111 #
b101111 #
0!
1J
1F
0B
08
0C
1G
1K
0H
0I
04
0(
#955000
b1111 #
1!
09
18
0=
#960000
b1110 #
b110 #
b10 #
b10010 #
0!
0R
0J
0F
1B
08
1C
0G
0K
0S
0@
0D
1H
1L
1M
1I
0E
0A
02
03
14
15
1)
1(
0'
0&
#965000
b10000 #
b110000 #
b110001 #
b100001 #
1!
1R
0N
0B
19
18
1=
0C
0O
1S
#970000
b101001 #
b101000 #
0!
0R
1F
08
1G
0S
1@
0H
0L
0P
0Q
0M
0I
1A
12
04
05
06
0*
0)
0(
1&
#975000
0$
b101010 #
b101011 #
1!
0?
1R
1N
18
1O
1S
#980000
b101111 #
1$
b101101 #
b101100 #
0!
0R
0N
1J
1?
08
1K
0O
0S
1H
1P
1Q
1I
14
16
1*
1(
#985000
b1100 #
b11100 #
b10100 #
b10000 #
0$
b10010 #
1!
1N
0J
0F
1B
09
0?
18
0=
1C
0G
0K
1O
#990000
1$
0!
1?
08
0@
1D
0H
0T
0U
0I
1E
0A
02
13
04
07
0+
0(
1'
0&
#995000
b10011 #
b11 #
b1 #
1!
1R
0N
0B
18
0C
0O
1S
