Registator/simulation/qsim/Registrator.msim.vcd
$comment
	File created using the following command:
		vcd file Registrator.msim.vcd -direction
$end
$date
	Wed Nov  2 21:24:03 2016
$end
$version
	ModelSim Version 10.4d
$end
$timescale
	1ps
$end

$scope module dffe8_vlg_vec_tst $end
$var reg 1 ! CLK $end
$var reg 1 " CLRN $end
$var reg 8 # D [7:0] $end
$var reg 1 $ ENA $end
$var reg 1 % PRN $end
$var wire 1 & Q [7] $end
$var wire 1 ' Q [6] $end
$var wire 1 ( Q [5] $end
$var wire 1 ) Q [4] $end
$var wire 1 * Q [3] $end
$var wire 1 + Q [2] $end
$var wire 1 , Q [1] $end
$var wire 1 - Q [0] $end

$scope module i1 $end
$var wire 1 . gnd $end
$var wire 1 / vcc $end
$var wire 1 0 unknown $end
$var tri1 1 1 devclrn $end
$var tri1 1 2 devpor $end
$var tri1 1 3 devoe $end
$var wire 1 4 Q[7]~output_o $end
$var wire 1 5 Q[6]~output_o $end
$var wire 1 6 Q[5]~output_o $end
$var wire 1 7 Q[4]~output_o $end
$var wire 1 8 Q[3]~output_o $end
$var wire 1 9 Q[2]~output_o $end
$var wire 1 : Q[1]~output_o $end
$var wire 1 ; Q[0]~output_o $end
$var wire 1 < CLK~input_o $end
$var wire 1 = D[7]~input_o $end
$var wire 1 > PRN~input_o $end
$var wire 1 ? CLRN~input_o $end
$var wire 1 @ inst1|inst2~1_combout $end
$var wire 1 A inst1|inst2~3_combout $end
$var wire 1 B inst1|inst2~0_combout $end
$var wire 1 C ENA~input_o $end
$var wire 1 D inst1|inst2~_emulated_q $end
$var wire 1 E inst1|inst2~2_combout $end
$var wire 1 F D[6]~input_o $end
$var wire 1 G inst1|inst1~1_combout $end
$var wire 1 H inst1|inst1~_emulated_q $end
$var wire 1 I inst1|inst1~0_combout $end
$var wire 1 J D[5]~input_o $end
$var wire 1 K inst1|inst~1_combout $end
$var wire 1 L inst1|inst~_emulated_q $end
$var wire 1 M inst1|inst~0_combout $end
$var wire 1 N D[4]~input_o $end
$var wire 1 O inst1|inst3~1_combout $end
$var wire 1 P inst1|inst3~_emulated_q $end
$var wire 1 Q inst1|inst3~0_combout $end
$var wire 1 R D[3]~input_o $end
$var wire 1 S inst|inst2~1_combout $end
$var wire 1 T inst|inst2~_emulated_q $end
$var wire 1 U inst|inst2~0_combout $end
$var wire 1 V D[2]~input_o $end
$var wire 1 W inst|inst1~1_combout $end
$var wire 1 X inst|inst1~_emulated_q $end
$var wire 1 Y inst|inst1~0_combout $end
$var wire 1 Z D[1]~input_o $end
$var wire 1 [ inst|inst~1_combout $end
$var wire 1 \ inst|inst~_emulated_q $end
$var wire 1 ] inst|inst~0_combout $end
$var wire 1 ^ D[0]~input_o $end
$var wire 1 _ inst|inst3~1_combout $end
$var wire 1 ` inst|inst3~_emulated_q $end
$var wire 1 a inst|inst3~0_combout $end
$upscope $end
$upscope $end
$enddefinitions $end
#0
$dumpvars
0!
0"
b10010 #
1$
1%
0-
0,
0+
0*
0)
0(
0'
0&
0.
1/
x0
11
12
13
04
05
06
07
08
09
0:
0;
0<
0=
1>
0?
0@
0A
1B
1C
0D
0E
0F
0G
0H
0I
0J
0K
0L
0M
1N
1O
0P
0Q
0R
0S
0T
0U
0V
0W
0X
0Y
1Z
1[
0\
0]
0^
0_
0`
0a
$end
#5000
1!
1<
#8196
0$
0C
#10000
0!
0<
#11000
b1010010 #
b1110010 #
b1111010 #
b1111000 #
0Z
1R
1J
1F
1G
1K
1S
0[
#15000
1!
1<
#19396
1$
1C
#20000
0!
0$
0<
0C
#20244
1$
1C
#22000
b1101000 #
b101000 #
b1000 #
0N
0J
0F
0G
0K
0O
#22443
0$
0C
#25000
1!
1<
#26910
1$
1C
#29109
0$
0C
#30000
0!
0<
#33000
b1100 #
b1110 #
b11110 #
b1011110 #
1Z
1V
1N
1F
1G
1O
1W
1[
#33576
1$
1C
#35000
1!
1<
#35775
0$
0C
#40000
0!
0<
#40030
1$
1C
#41229
0$
0C
#43363
1$
1C
#44000
b11011110 #
b11011111 #
b11010111 #
b11110111 #
b11100111 #
1^
0R
0N
1J
1=
1A
1K
0O
0S
1_
#44562
0$
0C
#45000
1!
1<
#46696
1$
1C
#47895
0$
0C
#50000
0!
1$
0<
1C
#55000
b11100011 #
b11100001 #
b11000001 #
1!
0Z
0V
0J
1<
0K
0W
0[
#55983
0$
0C
#60000
0!
0<
#65000
1!
1<
#66000
b10000001 #
b1 #
b0 #
b10000 #
0^
1N
0F
0=
0A
0G
1O
0_
#67783
1$
1C
#70000
1"
0!
0$
1?
0<
0C
0B
#71745
1$
1C
#75000
1!
1<
#76145
0$
0C
#77000
b10010 #
b1010010 #
b11010010 #
b11010011 #
b11000011 #
1^
1Z
0N
1F
1=
1A
1G
0O
1[
1_
#80000
0!
0<
#81745
1$
1C
#85000
1!
1<
#86145
0$
0C
#88000
b11001011 #
b11101011 #
b11101001 #
b10101001 #
b101001 #
b111001 #
0Z
1R
1N
1J
0F
0=
0A
0G
1K
1O
1S
0[
#90000
0!
0<
#95000
1!
1<
#95632
1$
1C
#99000
b111101 #
b111111 #
b10111111 #
b10101111 #
1Z
1V
0N
1=
1A
0O
1W
1[
#99732
0$
0C
#100000
0!
0<
#103859
1$
1C
#105000
1!
1<
#110000
b10100111 #
b11100111 #
b11100011 #
b11100001 #
b11110001 #
0!
0Z
0V
0R
1N
1F
0<
1G
1O
0S
0W
0[
1D
1L
1T
1X
1\
1`
1a
1]
1Y
1U
1M
1E
14
16
18
19
1:
1;
1-
1,
1+
1*
1(
1&
#115000
1!
1<
#115659
0$
0C
#120000
0!
0<
#120524
1$
1C
#121000
b11110000 #
b1110000 #
b110000 #
0^
0F
0=
0A
0G
0_
#123524
0$
0C
#125000
1!
1<
#130000
0!
0<
#132000
b10000 #
b11000 #
b11010 #
b1010 #
1Z
1R
0N
0J
0K
0O
1S
1[
#135000
1!
1<
#139998
1$
1C
#140000
0!
0<
0D
0L
0X
0`
0a
0Y
0M
0E
04
06
09
0;
0-
0+
0(
0&
#143000
b10001010 #
b11001010 #
b11001000 #
0Z
1F
1=
1A
1G
0[
#145000
1!
1<
#147798
0$
0C
#150000
0!
1$
0<
1C
#150403
0$
0C
#152370
1$
1C
#153736
0$
0C
#154000
b11001001 #
b11101001 #
b11100001 #
b11110001 #
1^
0R
1N
1J
1K
1O
0S
1_
#155000
1!
1<
#155703
1$
1C
#157069
0$
0C
#159036
1$
1C
#160000
0!
0$
0<
0C
1D
1H
1L
1P
0T
0\
1`
1a
0]
0U
1Q
1M
1I
1E
14
15
16
17
08
0:
1;
1-
0,
0*
1)
1(
1'
1&
#160893
1$
1C
#161892
0$
0C
#164226
1$
1C
#165000
b11110101 #
b1110101 #
b1110111 #
b1111111 #
1!
1Z
1V
1R
0=
1<
0A
1S
1W
1[
#165225
0$
0C
#167559
1$
1C
#168558
0$
0C
#170000
0!
1$
0<
1C
#171480
0$
0C
#175000
1!
1<
#176000
b111111 #
b111011 #
0V
0F
0G
0W
#177480
1$
1C
#180000
0!
0<
0D
0H
1T
1\
1]
1U
0I
0E
04
05
18
1:
1,
1*
0'
0&
#181480
0$
0C
#185000
1!
1<
#187000
b111010 #
b10111010 #
b10110010 #
b11110010 #
0^
0R
1F
1=
1A
1G
0S
0_
#187480
1$
1C
#190000
0!
0<
1D
1H
0T
0`
0a
0U
1I
1E
14
15
08
0;
0-
0*
1'
1&
#191636
0$
0C
#195000
1!
1<
#197236
1$
1C
#198000
b11110110 #
b1110110 #
b1111110 #
1V
1R
0=
0A
1S
1W
#200000
0!
0$
0<
0C
0D
1T
1X
1Y
1U
0E
04
18
19
1+
1*
0&
#202971
1$
1C
#205000
1!
1<
#206771
0$
0C
#209000
b1011110 #
b1001110 #
b1001111 #
b1111 #
b111 #
1^
0R
0N
0J
0F
0G
0K
0O
0S
1_
#210000
0!
0<
#212971
1$
1C
#215000
1!
1<
#216771
0$
0C
#220000
b10111 #
b10110 #
b1010110 #
0!
1$
0^
1N
1F
0<
1C
1G
1O
0_
#220355
0$
0C
#225000
1!
1<
#230000
0!
0<
#231000
b1010100 #
b10100 #
0Z
0F
0G
0[
#232155
1$
1C
#235000
1!
1<
#240000
0!
0<
0H
0L
0T
0\
0]
0U
0M
0I
05
06
08
0:
0,
0*
0(
0'
#241467
0$
0C
#242000
b10000 #
0V
0W
#244067
1$
1C
#245000
1!
1<
#246467
0$
0C
#249067
1$
1C
#250000
0!
0$
0<
0C
0X
0Y
09
0+
#251743
1$
1C
#253000
b11000 #
b1011000 #
b1011100 #
1V
1R
1F
1G
1S
1W
#255000
1!
1<
#255643
0$
0C
#260000
0!
0<
#261743
1$
1C
#264000
b1011110 #
b11110 #
b11010 #
1Z
0V
0F
0G
0W
1[
#265000
1!
1<
#265643
0$
0C
#270000
0!
0<
#271241
1$
1C
#273941
0$
0C
#275000
b10011010 #
b10011000 #
b10011100 #
1!
0Z
1V
1=
1<
1A
1W
0[
#276241
1$
1C
#278941
0$
0C
#280000
0!
1$
0<
1C
#281117
0$
0C
#284117
1$
1C
#285000
1!
1<
#286000
b10111100 #
b10101100 #
b11101100 #
b1101100 #
b1101110 #
b1101010 #
1Z
0V
0N
1J
1F
0=
0A
1G
1K
0O
0W
1[
#286117
0$
0C
#289117
1$
1C
#290000
0!
0<
1H
1L
0P
1T
1\
1]
1U
0Q
1M
1I
15
16
07
18
1:
1,
1*
0)
1(
1'
#291294
0$
0C
#295000
1!
1<
#297000
b1100010 #
b1110010 #
b110010 #
b110000 #
0Z
0R
1N
0F
0G
1O
0S
0[
#300000
0!
0<
#304294
1$
1C
#305000
1!
1<
#308000
b110100 #
b111100 #
b1111100 #
1V
1R
1F
1G
1S
1W
#310000
0!
0<
1P
1X
0\
0]
1Y
1Q
17
19
0:
0,
1+
1)
#310899
0$
0C
#312899
1$
1C
#314232
0$
0C
#315000
1!
1<
#316232
1$
1C
#317565
0$
0C
#319000
b1011100 #
b11011100 #
b11001100 #
b11001110 #
b11001010 #
1Z
0V
0N
0J
1=
1A
0K
0O
0W
1[
#319565
1$
1C
#320000
0!
0<
1D
0L
0P
0X
1\
1]
0Y
0Q
0M
1E
14
06
07
09
1:
1,
0+
0)
0(
1&
#322209
0$
0C
#324209
1$
1C
#325000
1!
1<
#327209
0$
0C
#329209
1$
1C
#330000
b11001011 #
b11000011 #
b10000011 #
b11 #
b10011 #
b10111 #
0!
1^
1V
0R
1N
0F
0=
0<
0A
0G
1O
0S
1W
1_
#331275
0$
0C
#334175
1$
1C
#335000
1!
1<
#336275
0$
0C
#339175
1$
1C
#340000
0!
0$
0<
0C
0D
0H
1P
0T
1X
1`
1a
1Y
0U
1Q
0I
0E
04
05
17
08
19
1;
1-
1+
0*
1)
0'
0&
#341000
b110111 #
b10110111 #
b10110011 #
0V
1J
1=
1A
1K
0W
#343426
1$
1C
#345000
1!
1<
#350000
0!
0<
1D
1L
0X
0Y
1M
1E
14
16
09
0+
1(
1&
#351826
0$
0C
#352000
b10110001 #
b10110000 #
b10100000 #
b100000 #
0^
0Z
0N
0=
0A
0O
0[
0_
#355000
1!
1<
#360000
1$
0!
1C
0<
0D
0P
0\
0`
0a
0]
0Q
0E
04
07
0:
0;
0-
0,
0)
0&
#361146
0$
0C
#363000
b1100000 #
b1000000 #
b1010000 #
1N
0J
1F
1G
0K
1O
#364346
1$
1C
#365000
1!
1<
#366146
0$
0C
#369346
1$
1C
#370000
0!
0<
1H
0L
1P
1Q
0M
1I
15
06
17
1)
0(
1'
#370022
0$
0C
#374000
b1011000 #
b1011100 #
b1001100 #
1V
1R
0N
0O
1S
1W
#374422
1$
1C
#375000
1!
1<
#380000
0!
0<
0P
1T
1X
1Y
1U
0Q
07
18
19
1+
1*
0)
#380022
0$
0C
#384422
1$
1C
#385000
b11001100 #
b10001100 #
b10000100 #
b10000000 #
b10010000 #
1!
0V
0R
1N
0F
1=
1<
1A
0G
1O
0S
0W
#390000
0$
0!
0C
0<
#392918
1$
1C
#395000
1!
1<
#395184
0$
0C
#396000
b10010001 #
b11010001 #
b11000001 #
1^
0N
1F
1G
0O
1_
#399584
1$
1C
#400000
0!
0<
1D
0T
0X
1`
1a
0Y
0U
1E
14
08
09
1;
1-
0+
0*
1&
#401850
0$
0C
#405000
1!
1<
#406250
1$
1C
#407000
b11100001 #
b11100000 #
b10100000 #
0^
1J
0F
0G
1K
0_
#408516
0$
0C
#410000
0!
0<
#411009
1$
1C
#415000
1!
1<
#418000
b100000 #
b101000 #
b101001 #
b1101001 #
1^
1R
1F
0=
0A
1G
1S
1_
#420000
0!
0<
0D
1L
1T
1U
1M
0E
04
16
18
1*
1(
0&
#420009
0$
0C
#425000
1!
1<
#429000
b1101011 #
b1101111 #
b11101111 #
b11100111 #
1Z
1V
0R
1=
1A
0S
1W
1[
#430000
1$
0!
1C
0<
1D
0T
1X
1\
1]
1Y
0U
1E
14
08
19
1:
1,
1+
0*
1&
#430287
0$
0C
#432521
1$
1C
#433620
0$
0C
#435000
1!
1<
#435854
1$
1C
#436953
0$
0C
#439187
1$
1C
#440000
b11110111 #
b11010111 #
b11010011 #
b1010011 #
0!
0V
1N
0J
0=
0<
0A
0K
1O
0W
#440911
0$
0C
#445000
1!
1<
#445444
1$
1C
#447577
0$
0C
#450000
0!
0<
#451000
b1010010 #
b10010 #
b10000 #
b11000 #
b1000 #
b101000 #
b101100 #
0^
0Z
1V
1R
0N
1J
0F
0G
1K
0O
1S
1W
0[
0_
#452110
1$
1C
#454243
0$
0C
#455000
1!
1<
#458776
1$
1C
#460000
0!
0<
0D
0H
1T
0\
0`
0a
0]
1U
0I
0E
04
05
18
0:
0;
0-
0,
1*
0'
0&
#462000
b10101100 #
b10101101 #
b10101111 #
b10100111 #
b10110111 #
b10110011 #
1^
1Z
0V
0R
1N
1=
1A
1O
0S
0W
1[
1_
#462451
0$
0C
#465000
1!
1<
#466651
1$
1C
#470000
0!
0<
1D
1P
0T
0X
1\
1`
1a
1]
0Y
0U
1Q
1E
14
17
08
09
1:
1;
1-
1,
0+
0*
1)
1&
#471267
0$
0C
#473000
b11110011 #
b1110011 #
b1110001 #
b1110101 #
0Z
1V
1F
0=
0A
1G
1W
0[
#475000
1!
1<
#478167
1$
1C
#480000
0!
0$
0<
0C
0D
1H
1X
0\
0]
1Y
1I
0E
04
15
19
0:
0,
1+
1'
0&
#483276
1$
1C
#484000
b1110100 #
b1111100 #
b111100 #
b10111100 #
b10111110 #
0^
1Z
1R
0F
1=
1A
0G
1S
1[
0_
#485000
1!
1<
#485342
0$
0C
#489942
1$
1C
#490000
0!
0<
1D
0H
1T
1\
0`
0a
1]
1U
0I
1E
14
05
18
1:
0;
0-
1,
1*
0'
1&
#492008
0$
0C
#495000
b10101110 #
b10101111 #
b11101111 #
b11101101 #
1!
1^
0Z
0N
1F
1<
1G
0O
0[
1_
#496608
1$
1C
#498674
0$
0C
#500000
0!
1$
0<
1C
#501971
0$
0C
#505000
1!
1<
#506000
b11001101 #
b11000101 #
b1000101 #
b1010101 #
b1010100 #
b10100 #
0^
0R
1N
0J
0F
0=
0A
0G
0K
1O
0S
0_
#507171
1$
1C
#510000
0!
0<
0D
0L
0T
0\
0]
0U
0M
0E
04
06
08
0:
0,
0*
0(
0&
#511971
0$
0C
#515000
1!
1<
#517000
b100 #
b101 #
1^
0N
0O
1_
#517171
1$
1C
#520000
0!
0$
0<
0C
0P
1`
1a
0Q
07
1;
1-
0)
#521375
1$
1C
#524241
0$
0C
#525000
1!
1<
#528000
b1 #
b11 #
b100011 #
b10100011 #
b10110011 #
b10110010 #
0^
1Z
0V
1N
1J
1=
1A
1K
1O
0W
1[
0_
#528041
1$
1C
#530000
0!
0<
1D
1L
1P
0X
1\
0`
0a
1]
0Y
1Q
1M
1E
14
16
17
09
1:
0;
0-
1,
0+
1)
1(
1&
#530907
0$
0C
#534707
1$
1C
#535000
1!
1<
#537573
0$
0C
#539000
b11110010 #
b11010010 #
b1010010 #
b1000010 #
b1000011 #
1^
0N
0J
1F
0=
0A
1G
0K
0O
1_
#540000
0!
0<
#540802
1$
1C
#543601
0$
0C
#545000
1!
1<
#547468
1$
1C
#550000
b11 #
b10000011 #
b10000010 #
0!
0^
0F
1=
0<
1A
0G
0_
0D
1H
0L
0P
1`
1a
0Q
0M
1I
0E
04
15
06
07
1;
1-
0)
0(
1'
0&
#550267
0$
0C
#554134
1$
1C
#555000
1!
1<
#556933
0$
0C
#560000
0!
0<
#561000
b10100010 #
1J
1K
#561338
1$
1C
#565000
1!
1<
#568338
0$
0C
#570000
0!
0<
#572000
b10101010 #
b10101110 #
b10101100 #
b11101100 #
b1101100 #
b1101101 #
b1001101 #
1^
0Z
1V
1R
0J
1F
0=
0A
1G
0K
1S
1W
0[
1_
#575000
1!
1<
#580000
0!
0<
#580958
1$
1C
#582457
0$
0C
#583000
b1011101 #
b1010101 #
b10101 #
b10010101 #
0R
1N
0F
1=
1A
0G
1O
0S
#584291
1$
1C
#585000
1!
1<
#585790
0$
0C
#587624
1$
1C
#589123
0$
0C
#590000
0!
1$
0<
1C
#590155
0$
0C
#594000
b10110101 #
b10111101 #
b111101 #
1R
1J
0=
0A
1K
1S
#595000
1!
1<
#598955
1$
1C
#600000
0!
0<
0H
1L
1P
1T
1X
0\
0]
1Y
1U
1Q
1M
0I
05
16
17
18
19
0:
0,
1+
1*
1)
1(
0'
#605000
b111001 #
b111000 #
b10111000 #
1!
0^
0V
1=
1<
1A
0W
0_
#610000
0$
0!
0C
0<
#612849
1$
1C
#615000
1!
1<
#616000
b10011000 #
b10011100 #
b10011101 #
1^
1V
0J
0K
1W
1_
#616149
0$
0C
#620000
0!
0<
#622849
1$
1C
#625000
1!
1<
#626149
0$
0C
#627000
b10001101 #
b11001101 #
0N
1F
1G
0O
#630000
0!
0<
#633127
1$
1C
#635000
1!
1<
#638000
b11000101 #
b11100101 #
b11100001 #
b11100000 #
0^
0V
0R
1J
1K
0S
0W
0_
#638727
0$
0C
#640000
0!
1$
0<
1C
#643938
0$
0C
#645000
1!
1<
#649000
b11100010 #
b1100010 #
b1110010 #
b1111010 #
b1011010 #
b1011011 #
1^
1Z
1R
1N
0J
0=
0A
0K
1O
1S
1[
1_
#650000
0!
0<
#655000
1!
1<
#657538
1$
1C
#660000
b1011111 #
b1011101 #
b11011101 #
b11001101 #
b11000101 #
b11000100 #
0!
0^
0Z
1V
0R
0N
1=
0<
1A
0O
0S
1W
0[
0_
1H
0L
0X
1\
1]
0Y
0M
1I
15
06
09
1:
1,
0+
0(
1'
#661751
0$
0C
#664101
1$
1C
#665000
1!
1<
#666751
0$
0C
#669101
1$
1C
#670000
0!
0$
0<
0C
1D
0P
0T
1X
0\
0`
0a
0]
1Y
0U
0Q
1E
14
07
08
19
0:
0;
0-
0,
1+
0*
0)
1&
#671000
b10000100 #
b10100100 #
b10100000 #
b10100010 #
b100010 #
b110010 #
b110011 #
1^
1Z
0V
1N
1J
0F
0=
0A
0G
1K
1O
0W
1[
1_
#671647
1$
1C
#675000
1!
1<
#676047
0$
0C
#680000
0!
1$
0<
1C
#682000
b1110011 #
b1010011 #
b1010111 #
1V
0J
1F
1G
0K
1W
#682494
0$
0C
#685000
1!
1<
#688794
1$
1C
#690000
0!
0<
0D
1P
1\
1`
1a
1]
1Q
0E
04
17
1:
1;
1-
1,
1)
0&
#692232
0$
0C
#693000
b1000111 #
b1000110 #
b1100110 #
b1100010 #
0^
0V
0N
1J
1K
0O
0W
0_
#695000
1!
1<
#697932
1$
1C
#700000
0!
0$
0<
0C
1L
0P
0X
0`
0a
0Y
0Q
1M
16
07
09
0;
0-
0+
0)
1(
#700713
1$
1C
#701712
0$
0C
#704000
b1100000 #
b11100000 #
b11110000 #
b11110100 #
0Z
1V
1N
1=
1A
1O
1W
0[
#704046
1$
1C
#705000
1!
1<
#705045
0$
0C
#707379
1$
1C
#708378
0$
0C
#710000
0!
1$
0<
1C
#710327
0$
0C
#712061
1$
1C
#713660
0$
0C
#715000
b11111100 #
b11111101 #
b11011101 #
b11011111 #
1!
1^
1Z
1R
0J
1<
0K
1S
1[
1_
#715394
1$
1C
#716993
0$
0C
#718727
1$
1C
#720000
0!
0<
1D
0L
1P
1T
1X
1`
1a
1Y
1U
1Q
0M
1E
14
06
17
18
19
1;
1-
1+
1*
1)
0(
1&
#720661
0$
0C
#725000
1!
1<
#726000
b10011111 #
b11111 #
b1111 #
b1011 #
b1010 #
0^
0V
0N
0F
0=
0A
0G
0O
0W
0_
#730000
0!
0<
#733461
1$
1C
#735000
1!
1<
#737000
b101010 #
b1101010 #
b1111010 #
b1111011 #
1^
1N
1J
1F
1G
1K
1O
1_
#740000
0!
0<
0D
1L
0X
0Y
1M
0E
04
16
09
0+
1(
0&
#742541
0$
0C
#745000
1!
1<
#748000
b1111111 #
b111111 #
1V
0F
0G
1W
#748041
1$
1C
#750000
0!
0$
0<
0C
0H
1X
1Y
0I
05
19
1+
0'
#751995
1$
1C
#755000
1!
1<
#755061
0$
0C
#758661
1$
1C
#759000
b110111 #
b110110 #
b110010 #
0^
0V
0R
0S
0W
0_
#760000
0!
0<
0T
0X
0`
0a
0Y
0U
08
09
0;
0-
0+
0*
#761727
0$
0C
#765000
1!
1<
#765327
1$
1C
#768393
0$
0C
#770000
b10010 #
b10 #
b1010 #
0!
1R
0N
0J
0<
0K
0O
1S
#775000
1!
1<
#775010
1$
1C
#780000
0!
0<
0L
0P
1T
1U
0Q
0M
06
07
18
1*
0)
0(
#781000
b1001010 #
b1001011 #
b1001111 #
b1101111 #
b1111111 #
1^
1V
1N
1J
1F
1G
1K
1O
1W
1_
#784410
0$
0C
#785000
1!
1<
#790000
1$
0!
1C
0<
1H
1L
1P
1X
1`
1a
1Y
1Q
1M
1I
15
16
17
19
1;
1-
1+
1)
1(
1'
#792000
b1111101 #
b11111101 #
b10111101 #
b10111100 #
0^
0Z
0F
1=
1A
0G
0[
0_
#794016
0$
0C
#795000
1!
1<
#799916
1$
1C
#800000
0!
0<
1D
0H
0\
0`
0a
0]
0I
1E
14
05
0:
0;
0-
0,
0'
1&
#803000
b10110100 #
b10010100 #
b10010110 #
b10110 #
b10111 #
1^
1Z
0R
0J
0=
0A
0K
0S
1[
1_
#804755
0$
0C
#805000
1!
1<
#809055
1$
1C
#810000
0!
0$
0<
0C
0D
0L
0T
1\
1`
1a
1]
0U
0M
0E
04
06
08
1:
1;
1-
1,
0*
0(
0&
#810013
1$
1C
#814000
b10011 #
b11 #
b1000011 #
b11000011 #
0V
0N
1F
1=
1A
1G
0O
0W
#815000
1!
1<
#815013
0$
0C
#820000
0!
0<
#820013
1$
1C
#825000
b11100011 #
b11110011 #
1!
1N
1J
1<
1K
1O
#825013
0$
0C
#830000
0!
0<
#831626
1$
1C
#833476
0$
0C
#835000
1!
1<
#836000
b11110001 #
b11110101 #
0Z
1V
1W
0[
#836626
1$
1C
#838476
0$
0C
#840000
0!
1$
0<
1C
#843806
0$
0C
#845000
1!
1<
#847000
b11110100 #
b1110100 #
b1010100 #
b1000100 #
b1000110 #
b1000010 #
0^
1Z
0V
0N
0J
0=
0A
0K
0O
0W
1[
0_
#849006
1$
1C
#850000
0!
0<
1H
0P
0X
0`
0a
0Y
0Q
1I
15
07
09
0;
0-
0+
0)
1'
#853806
0$
0C
#855000
1!
1<
#858000
b1000011 #
b1000001 #
b1000101 #
1^
0Z
1V
1W
0[
1_
#859006
1$
1C
#860000
0!
0$
0<
0C
1X
0\
1`
1a
0]
1Y
19
0:
1;
1-
0,
1+
#862487
1$
1C
#865000
1!
1<
#865787
0$
0C
#869000
b1001101 #
b1101 #
b10001101 #
b10011101 #
b10011100 #
b10011110 #
b10011010 #
0^
1Z
0V
1R
1N
0F
1=
1A
0G
1O
1S
0W
1[
0_
#870000
0!
0<
#872487
1$
1C
#875000
1!
1<
#875787
0$
0C
#880000
b10010010 #
0!
0R
0<
0S
#880250
1$
1C
#881483
0$
0C
#883583
1$
1C
#884816
0$
0C
#885000
1!
1<
#886916
1$
1C
#888149
0$
0C
#890000
0!
1$
0<
1C
#890422
0$
0C
#891000
b10110010 #
b110010 #
b100010 #
b100110 #
b101110 #
1V
1R
0N
1J
0=
0A
1K
0O
1S
1W
#892322
1$
1C
#893755
0$
0C
#895000
1!
1<
#895655
1$
1C
#897088
0$
0C
#898988
1$
1C
#900000
0!
0$
0<
0C
0H
1L
1T
1\
0`
0a
1]
1U
1M
0I
05
16
18
1:
0;
0-
1,
1*
1(
0'
#902000
b1101110 #
b1101111 #
b1101101 #
b11101101 #
1^
0Z
1F
1=
1A
1G
0[
1_
#903736
1$
1C
#905000
1!
1<
#907536
0$
0C
#910000
0!
0<
#910312
1$
1C
#912062
0$
0C
#913000
b11111101 #
b11111100 #
b11111110 #
b1111110 #
0^
1Z
1N
0=
0A
1O
1[
0_
#915000
1!
1<
#915312
1$
1C
#917062
0$
0C
#920000
0!
1$
0<
1C
#921270
0$
0C
#924000
b1011110 #
b1011010 #
b1010010 #
b10010 #
b10 #
b11 #
b1 #
b10000001 #
1^
0Z
0V
0R
0N
0J
0F
1=
1A
0G
0K
0O
0S
0W
0[
1_
#925000
1!
1<
#925270
1$
1C
#930000
0!
0$
0<
0C
1D
0L
0T
0X
0\
1`
1a
0]
0Y
0U
0M
1E
14
06
08
09
0:
1;
1-
0,
0+
0*
0(
1&
#934446
1$
1C
#935000
b10100001 #
b10101001 #
b11101001 #
b11111001 #
b11111000 #
b1111000 #
1!
0^
1R
1N
1J
1F
0=
1<
0A
1G
1K
1O
1S
0_
#937746
0$
0C
#940000
0!
0<
#944446
1$
1C
#945000
1!
1<
#946000
b1111010 #
b1110010 #
b1100010 #
b1100011 #
b11100011 #
1^
1Z
0R
0N
1=
1A
0O
0S
1[
1_
#947746
0$
0C
#950000
0!
0<
#951100
1$
1C
#953600
0$
0C
#955000
1!
1<
#956100
1$
1C
#957000
b11100111 #
b11000111 #
b11000101 #
b11010101 #
b11010100 #
b1010100 #
0^
0Z
1V
1N
0J
0=
0A
0K
1O
1W
0[
0_
#958600
0$
0C
#960000
0!
1$
0<
1C
#961381
0$
0C
#965000
1!
1<
#966881
1$
1C
#968000
b10100 #
b11100 #
b10011100 #
1R
0F
1=
1A
0G
1S
#970000
0!
0$
0<
0C
1P
1T
1X
0`
0a
1Y
1U
1Q
17
18
19
0;
0-
1+
1*
1)
#971873
1$
1C
#974423
0$
0C
#975000
1!
1<
#976873
1$
1C
#979000
b10011000 #
b10111000 #
b10111010 #
b11111010 #
b11110010 #
b1110010 #
1Z
0V
0R
1J
1F
0=
0A
1G
1K
0S
0W
1[
#979423
0$
0C
#980000
0!
1$
0<
1C
#980535
0$
0C
#985000
1!
1<
#990000
b1100010 #
b1100110 #
b1100100 #
0!
0Z
1V
0N
0<
0O
1W
0[
#992335
1$
1C
#995000
1!
1<
