Mux/simulation/qsim/Mux.msim.vcd
$comment
	File created using the following command:
		vcd file Mux.msim.vcd -direction
$end
$date
	Sun Nov  6 14:45:40 2016
$end
$version
	ModelSim Version 10.4d
$end
$timescale
	1ps
$end

$scope module test_vlg_vec_tst $end
$var reg 8 ! d0 [7:0] $end
$var reg 8 " d1 [7:0] $end
$var reg 1 # sel $end
$var wire 1 $ y [7] $end
$var wire 1 % y [6] $end
$var wire 1 & y [5] $end
$var wire 1 ' y [4] $end
$var wire 1 ( y [3] $end
$var wire 1 ) y [2] $end
$var wire 1 * y [1] $end
$var wire 1 + y [0] $end

$scope module i1 $end
$var wire 1 , gnd $end
$var wire 1 - vcc $end
$var wire 1 . unknown $end
$var tri1 1 / devclrn $end
$var tri1 1 0 devpor $end
$var tri1 1 1 devoe $end
$var wire 1 2 y[7]~output_o $end
$var wire 1 3 y[6]~output_o $end
$var wire 1 4 y[5]~output_o $end
$var wire 1 5 y[4]~output_o $end
$var wire 1 6 y[3]~output_o $end
$var wire 1 7 y[2]~output_o $end
$var wire 1 8 y[1]~output_o $end
$var wire 1 9 y[0]~output_o $end
$var wire 1 : sel~input_o $end
$var wire 1 ; d1[7]~input_o $end
$var wire 1 < d0[7]~input_o $end
$var wire 1 = inst|y[7]~0_combout $end
$var wire 1 > d1[6]~input_o $end
$var wire 1 ? d0[6]~input_o $end
$var wire 1 @ inst|y[6]~1_combout $end
$var wire 1 A d1[5]~input_o $end
$var wire 1 B d0[5]~input_o $end
$var wire 1 C inst|y[5]~2_combout $end
$var wire 1 D d1[4]~input_o $end
$var wire 1 E d0[4]~input_o $end
$var wire 1 F inst|y[4]~3_combout $end
$var wire 1 G d1[3]~input_o $end
$var wire 1 H d0[3]~input_o $end
$var wire 1 I inst|y[3]~4_combout $end
$var wire 1 J d1[2]~input_o $end
$var wire 1 K d0[2]~input_o $end
$var wire 1 L inst|y[2]~5_combout $end
$var wire 1 M d1[1]~input_o $end
$var wire 1 N d0[1]~input_o $end
$var wire 1 O inst|y[1]~6_combout $end
$var wire 1 P d1[0]~input_o $end
$var wire 1 Q d0[0]~input_o $end
$var wire 1 R inst|y[0]~7_combout $end
$upscope $end
$upscope $end
$enddefinitions $end
#0
$dumpvars
b0 !
b11111111 "
0#
0+
0*
0)
0(
0'
0&
0%
0$
0,
1-
x.
1/
10
11
02
03
04
05
06
07
08
09
0:
1;
0<
0=
1>
0?
0@
1A
0B
0C
1D
0E
0F
1G
0H
0I
1J
0K
0L
1M
0N
0O
1P
0Q
0R
$end
#5000
1#
1:
1R
1O
1L
1I
1F
1C
1@
1=
12
13
14
15
16
17
18
19
1+
1*
1)
1(
1'
1&
1%
1$
#35000
0#
0:
0R
0O
0L
0I
0F
0C
0@
0=
02
03
04
05
06
07
08
09
0+
0*
0)
0(
0'
0&
0%
0$
#45000
1#
1:
1R
1O
1L
1I
1F
1C
1@
1=
12
13
14
15
16
17
18
19
1+
1*
1)
1(
1'
1&
1%
1$
#70000
0#
0:
0R
0O
0L
0I
0F
0C
0@
0=
02
03
04
05
06
07
08
09
0+
0*
0)
0(
0'
0&
0%
0$
#90000
1#
1:
1R
1O
1L
1I
1F
1C
1@
1=
12
13
14
15
16
17
18
19
1+
1*
1)
1(
1'
1&
1%
1$
#95000
0#
0:
0R
0O
0L
0I
0F
0C
0@
0=
02
03
04
05
06
07
08
09
0+
0*
0)
0(
0'
0&
0%
0$
#100000
1#
1:
1R
1O
1L
1I
1F
1C
1@
1=
12
13
14
15
16
17
18
19
1+
1*
1)
1(
1'
1&
1%
1$
#105000
0#
0:
0R
0O
0L
0I
0F
0C
0@
0=
02
03
04
05
06
07
08
09
0+
0*
0)
0(
0'
0&
0%
0$
#110000
1#
1:
1R
1O
1L
1I
1F
1C
1@
1=
12
13
14
15
16
17
18
19
1+
1*
1)
1(
1'
1&
1%
1$
#115000
0#
0:
0R
0O
0L
0I
0F
0C
0@
0=
02
03
04
05
06
07
08
09
0+
0*
0)
0(
0'
0&
0%
0$
#120000
1#
1:
1R
1O
1L
1I
1F
1C
1@
1=
12
13
14
15
16
17
18
19
1+
1*
1)
1(
1'
1&
1%
1$
#125000
0#
0:
0R
0O
0L
0I
0F
0C
0@
0=
02
03
04
05
06
07
08
09
0+
0*
0)
0(
0'
0&
0%
0$
#140000
1#
1:
1R
1O
1L
1I
1F
1C
1@
1=
12
13
14
15
16
17
18
19
1+
1*
1)
1(
1'
1&
1%
1$
#145000
0#
0:
0R
0O
0L
0I
0F
0C
0@
0=
02
03
04
05
06
07
08
09
0+
0*
0)
0(
0'
0&
0%
0$
#160000
1#
1:
1R
1O
1L
1I
1F
1C
1@
1=
12
13
14
15
16
17
18
19
1+
1*
1)
1(
1'
1&
1%
1$
#175000
0#
0:
0R
0O
0L
0I
0F
0C
0@
0=
02
03
04
05
06
07
08
09
0+
0*
0)
0(
0'
0&
0%
0$
#180000
1#
1:
1R
1O
1L
1I
1F
1C
1@
1=
12
13
14
15
16
17
18
19
1+
1*
1)
1(
1'
1&
1%
1$
#185000
0#
0:
0R
0O
0L
0I
0F
0C
0@
0=
02
03
04
05
06
07
08
09
0+
0*
0)
0(
0'
0&
0%
0$
#195000
1#
1:
1R
1O
1L
1I
1F
1C
1@
1=
12
13
14
15
16
17
18
19
1+
1*
1)
1(
1'
1&
1%
1$
#210000
0#
0:
0R
0O
0L
0I
0F
0C
0@
0=
02
03
04
05
06
07
08
09
0+
0*
0)
0(
0'
0&
0%
0$
#220000
1#
1:
1R
1O
1L
1I
1F
1C
1@
1=
12
13
14
15
16
17
18
19
1+
1*
1)
1(
1'
1&
1%
1$
#235000
0#
0:
0R
0O
0L
0I
0F
0C
0@
0=
02
03
04
05
06
07
08
09
0+
0*
0)
0(
0'
0&
0%
0$
#260000
1#
1:
1R
1O
1L
1I
1F
1C
1@
1=
12
13
14
15
16
17
18
19
1+
1*
1)
1(
1'
1&
1%
1$
#270000
0#
0:
0R
0O
0L
0I
0F
0C
0@
0=
02
03
04
05
06
07
08
09
0+
0*
0)
0(
0'
0&
0%
0$
#275000
1#
1:
1R
1O
1L
1I
1F
1C
1@
1=
12
13
14
15
16
17
18
19
1+
1*
1)
1(
1'
1&
1%
1$
#285000
0#
0:
0R
0O
0L
0I
0F
0C
0@
0=
02
03
04
05
06
07
08
09
0+
0*
0)
0(
0'
0&
0%
0$
#290000
1#
1:
1R
1O
1L
1I
1F
1C
1@
1=
12
13
14
15
16
17
18
19
1+
1*
1)
1(
1'
1&
1%
1$
#300000
0#
0:
0R
0O
0L
0I
0F
0C
0@
0=
02
03
04
05
06
07
08
09
0+
0*
0)
0(
0'
0&
0%
0$
#310000
1#
1:
1R
1O
1L
1I
1F
1C
1@
1=
12
13
14
15
16
17
18
19
1+
1*
1)
1(
1'
1&
1%
1$
#315000
0#
0:
0R
0O
0L
0I
0F
0C
0@
0=
02
03
04
05
06
07
08
09
0+
0*
0)
0(
0'
0&
0%
0$
#320000
1#
1:
1R
1O
1L
1I
1F
1C
1@
1=
12
13
14
15
16
17
18
19
1+
1*
1)
1(
1'
1&
1%
1$
#335000
0#
0:
0R
0O
0L
0I
0F
0C
0@
0=
02
03
04
05
06
07
08
09
0+
0*
0)
0(
0'
0&
0%
0$
#350000
1#
1:
1R
1O
1L
1I
1F
1C
1@
1=
12
13
14
15
16
17
18
19
1+
1*
1)
1(
1'
1&
1%
1$
#365000
0#
0:
0R
0O
0L
0I
0F
0C
0@
0=
02
03
04
05
06
07
08
09
0+
0*
0)
0(
0'
0&
0%
0$
#370000
1#
1:
1R
1O
1L
1I
1F
1C
1@
1=
12
13
14
15
16
17
18
19
1+
1*
1)
1(
1'
1&
1%
1$
#385000
0#
0:
0R
0O
0L
0I
0F
0C
0@
0=
02
03
04
05
06
07
08
09
0+
0*
0)
0(
0'
0&
0%
0$
#400000
1#
1:
1R
1O
1L
1I
1F
1C
1@
1=
12
13
14
15
16
17
18
19
1+
1*
1)
1(
1'
1&
1%
1$
#435000
0#
0:
0R
0O
0L
0I
0F
0C
0@
0=
02
03
04
05
06
07
08
09
0+
0*
0)
0(
0'
0&
0%
0$
#450000
1#
1:
1R
1O
1L
1I
1F
1C
1@
1=
12
13
14
15
16
17
18
19
1+
1*
1)
1(
1'
1&
1%
1$
#455000
0#
0:
0R
0O
0L
0I
0F
0C
0@
0=
02
03
04
05
06
07
08
09
0+
0*
0)
0(
0'
0&
0%
0$
#470000
1#
1:
1R
1O
1L
1I
1F
1C
1@
1=
12
13
14
15
16
17
18
19
1+
1*
1)
1(
1'
1&
1%
1$
#500000
0#
0:
0R
0O
0L
0I
0F
0C
0@
0=
02
03
04
05
06
07
08
09
0+
0*
0)
0(
0'
0&
0%
0$
#505000
1#
1:
1R
1O
1L
1I
1F
1C
1@
1=
12
13
14
15
16
17
18
19
1+
1*
1)
1(
1'
1&
1%
1$
#515000
0#
0:
0R
0O
0L
0I
0F
0C
0@
0=
02
03
04
05
06
07
08
09
0+
0*
0)
0(
0'
0&
0%
0$
#520000
1#
1:
1R
1O
1L
1I
1F
1C
1@
1=
12
13
14
15
16
17
18
19
1+
1*
1)
1(
1'
1&
1%
1$
#525000
0#
0:
0R
0O
0L
0I
0F
0C
0@
0=
02
03
04
05
06
07
08
09
0+
0*
0)
0(
0'
0&
0%
0$
#530000
1#
1:
1R
1O
1L
1I
1F
1C
1@
1=
12
13
14
15
16
17
18
19
1+
1*
1)
1(
1'
1&
1%
1$
#540000
0#
0:
0R
0O
0L
0I
0F
0C
0@
0=
02
03
04
05
06
07
08
09
0+
0*
0)
0(
0'
0&
0%
0$
#555000
1#
1:
1R
1O
1L
1I
1F
1C
1@
1=
12
13
14
15
16
17
18
19
1+
1*
1)
1(
1'
1&
1%
1$
#565000
0#
0:
0R
0O
0L
0I
0F
0C
0@
0=
02
03
04
05
06
07
08
09
0+
0*
0)
0(
0'
0&
0%
0$
#575000
1#
1:
1R
1O
1L
1I
1F
1C
1@
1=
12
13
14
15
16
17
18
19
1+
1*
1)
1(
1'
1&
1%
1$
#580000
0#
0:
0R
0O
0L
0I
0F
0C
0@
0=
02
03
04
05
06
07
08
09
0+
0*
0)
0(
0'
0&
0%
0$
#595000
1#
1:
1R
1O
1L
1I
1F
1C
1@
1=
12
13
14
15
16
17
18
19
1+
1*
1)
1(
1'
1&
1%
1$
#600000
0#
0:
0R
0O
0L
0I
0F
0C
0@
0=
02
03
04
05
06
07
08
09
0+
0*
0)
0(
0'
0&
0%
0$
#605000
1#
1:
1R
1O
1L
1I
1F
1C
1@
1=
12
13
14
15
16
17
18
19
1+
1*
1)
1(
1'
1&
1%
1$
#610000
0#
0:
0R
0O
0L
0I
0F
0C
0@
0=
02
03
04
05
06
07
08
09
0+
0*
0)
0(
0'
0&
0%
0$
#625000
1#
1:
1R
1O
1L
1I
1F
1C
1@
1=
12
13
14
15
16
17
18
19
1+
1*
1)
1(
1'
1&
1%
1$
#630000
0#
0:
0R
0O
0L
0I
0F
0C
0@
0=
02
03
04
05
06
07
08
09
0+
0*
0)
0(
0'
0&
0%
0$
#635000
1#
1:
1R
1O
1L
1I
1F
1C
1@
1=
12
13
14
15
16
17
18
19
1+
1*
1)
1(
1'
1&
1%
1$
#645000
0#
0:
0R
0O
0L
0I
0F
0C
0@
0=
02
03
04
05
06
07
08
09
0+
0*
0)
0(
0'
0&
0%
0$
#650000
1#
1:
1R
1O
1L
1I
1F
1C
1@
1=
12
13
14
15
16
17
18
19
1+
1*
1)
1(
1'
1&
1%
1$
#660000
0#
0:
0R
0O
0L
0I
0F
0C
0@
0=
02
03
04
05
06
07
08
09
0+
0*
0)
0(
0'
0&
0%
0$
#665000
1#
1:
1R
1O
1L
1I
1F
1C
1@
1=
12
13
14
15
16
17
18
19
1+
1*
1)
1(
1'
1&
1%
1$
#670000
0#
0:
0R
0O
0L
0I
0F
0C
0@
0=
02
03
04
05
06
07
08
09
0+
0*
0)
0(
0'
0&
0%
0$
#680000
1#
1:
1R
1O
1L
1I
1F
1C
1@
1=
12
13
14
15
16
17
18
19
1+
1*
1)
1(
1'
1&
1%
1$
#685000
0#
0:
0R
0O
0L
0I
0F
0C
0@
0=
02
03
04
05
06
07
08
09
0+
0*
0)
0(
0'
0&
0%
0$
#695000
1#
1:
1R
1O
1L
1I
1F
1C
1@
1=
12
13
14
15
16
17
18
19
1+
1*
1)
1(
1'
1&
1%
1$
#700000
0#
0:
0R
0O
0L
0I
0F
0C
0@
0=
02
03
04
05
06
07
08
09
0+
0*
0)
0(
0'
0&
0%
0$
#715000
1#
1:
1R
1O
1L
1I
1F
1C
1@
1=
12
13
14
15
16
17
18
19
1+
1*
1)
1(
1'
1&
1%
1$
#720000
0#
0:
0R
0O
0L
0I
0F
0C
0@
0=
02
03
04
05
06
07
08
09
0+
0*
0)
0(
0'
0&
0%
0$
#740000
1#
1:
1R
1O
1L
1I
1F
1C
1@
1=
12
13
14
15
16
17
18
19
1+
1*
1)
1(
1'
1&
1%
1$
#745000
0#
0:
0R
0O
0L
0I
0F
0C
0@
0=
02
03
04
05
06
07
08
09
0+
0*
0)
0(
0'
0&
0%
0$
#750000
1#
1:
1R
1O
1L
1I
1F
1C
1@
1=
12
13
14
15
16
17
18
19
1+
1*
1)
1(
1'
1&
1%
1$
#755000
0#
0:
0R
0O
0L
0I
0F
0C
0@
0=
02
03
04
05
06
07
08
09
0+
0*
0)
0(
0'
0&
0%
0$
#760000
1#
1:
1R
1O
1L
1I
1F
1C
1@
1=
12
13
14
15
16
17
18
19
1+
1*
1)
1(
1'
1&
1%
1$
#770000
0#
0:
0R
0O
0L
0I
0F
0C
0@
0=
02
03
04
05
06
07
08
09
0+
0*
0)
0(
0'
0&
0%
0$
#785000
1#
1:
1R
1O
1L
1I
1F
1C
1@
1=
12
13
14
15
16
17
18
19
1+
1*
1)
1(
1'
1&
1%
1$
#790000
0#
0:
0R
0O
0L
0I
0F
0C
0@
0=
02
03
04
05
06
07
08
09
0+
0*
0)
0(
0'
0&
0%
0$
#795000
1#
1:
1R
1O
1L
1I
1F
1C
1@
1=
12
13
14
15
16
17
18
19
1+
1*
1)
1(
1'
1&
1%
1$
#800000
0#
0:
0R
0O
0L
0I
0F
0C
0@
0=
02
03
04
05
06
07
08
09
0+
0*
0)
0(
0'
0&
0%
0$
#805000
1#
1:
1R
1O
1L
1I
1F
1C
1@
1=
12
13
14
15
16
17
18
19
1+
1*
1)
1(
1'
1&
1%
1$
#810000
0#
0:
0R
0O
0L
0I
0F
0C
0@
0=
02
03
04
05
06
07
08
09
0+
0*
0)
0(
0'
0&
0%
0$
#815000
1#
1:
1R
1O
1L
1I
1F
1C
1@
1=
12
13
14
15
16
17
18
19
1+
1*
1)
1(
1'
1&
1%
1$
#830000
0#
0:
0R
0O
0L
0I
0F
0C
0@
0=
02
03
04
05
06
07
08
09
0+
0*
0)
0(
0'
0&
0%
0$
#845000
1#
1:
1R
1O
1L
1I
1F
1C
1@
1=
12
13
14
15
16
17
18
19
1+
1*
1)
1(
1'
1&
1%
1$
#850000
0#
0:
0R
0O
0L
0I
0F
0C
0@
0=
02
03
04
05
06
07
08
09
0+
0*
0)
0(
0'
0&
0%
0$
#865000
1#
1:
1R
1O
1L
1I
1F
1C
1@
1=
12
13
14
15
16
17
18
19
1+
1*
1)
1(
1'
1&
1%
1$
#870000
0#
0:
0R
0O
0L
0I
0F
0C
0@
0=
02
03
04
05
06
07
08
09
0+
0*
0)
0(
0'
0&
0%
0$
#880000
1#
1:
1R
1O
1L
1I
1F
1C
1@
1=
12
13
14
15
16
17
18
19
1+
1*
1)
1(
1'
1&
1%
1$
#895000
0#
0:
0R
0O
0L
0I
0F
0C
0@
0=
02
03
04
05
06
07
08
09
0+
0*
0)
0(
0'
0&
0%
0$
#905000
1#
1:
1R
1O
1L
1I
1F
1C
1@
1=
12
13
14
15
16
17
18
19
1+
1*
1)
1(
1'
1&
1%
1$
#910000
0#
0:
0R
0O
0L
0I
0F
0C
0@
0=
02
03
04
05
06
07
08
09
0+
0*
0)
0(
0'
0&
0%
0$
#915000
1#
1:
1R
1O
1L
1I
1F
1C
1@
1=
12
13
14
15
16
17
18
19
1+
1*
1)
1(
1'
1&
1%
1$
#920000
0#
0:
0R
0O
0L
0I
0F
0C
0@
0=
02
03
04
05
06
07
08
09
0+
0*
0)
0(
0'
0&
0%
0$
#925000
1#
1:
1R
1O
1L
1I
1F
1C
1@
1=
12
13
14
15
16
17
18
19
1+
1*
1)
1(
1'
1&
1%
1$
#935000
0#
0:
0R
0O
0L
0I
0F
0C
0@
0=
02
03
04
05
06
07
08
09
0+
0*
0)
0(
0'
0&
0%
0$
#945000
1#
1:
1R
1O
1L
1I
1F
1C
1@
1=
12
13
14
15
16
17
18
19
1+
1*
1)
1(
1'
1&
1%
1$
#960000
0#
0:
0R
0O
0L
0I
0F
0C
0@
0=
02
03
04
05
06
07
08
09
0+
0*
0)
0(
0'
0&
0%
0$
#990000
1#
1:
1R
1O
1L
1I
1F
1C
1@
1=
12
13
14
15
16
17
18
19
1+
1*
1)
1(
1'
1&
1%
1$
